{
    "status": 0,
    "data": {
        "queryCondition": {
            "ascend": false,
            "totalSize": 113,
            "pageSize": 20,
            "currentPage": 1,
            "totalPage": 100,
            "firstResult": 0,
            "isQueryAll": false
        },
        "target": [{
            "productid": 324,
            "outerID": "1233",
            "name": "产品名称",
            "feedName": "所属Feed",
            "feedid": "123",
            "status": 1,
            "lastUpdateTime": "最后更新时间"
        }, {
            "productid": 324,
            "outerID": "1233",
            "name": "产品名称",
            "feedName": "所属Feed",
            "feedid": "13",
            "status": 2,
            "lastUpdateTime": "最后更新时间"
        }, {
            "productid": 324,
            "outerID": "1233",
            "name": "产品名称",
            "feedName": "所属Feed",
            "feedid": "12233",
            "status": 3,
            "lastUpdateTime": "最后更新时间"
        }, {
            "productid": 324,
            "outerID": "1233",
            "name": "产品名称",
            "feedName": "所属Feed",
            "feedid": "12343",
            "status": 2,
            "lastUpdateTime": "最后更新时间"
        }, {
            "productid": 324,
            "outerID": "1233",
            "name": "产品名称",
            "feedName": "所属Feed",
            "feedid": "122333",
            "status": 1,
            "lastUpdateTime": "最后更新时间"
        }, {
            "productid": 324,
            "outerID": "1233",
            "name": "产品名称",
            "feedName": "所属Feed",
            "feedid": "1233",
            "status": 1,
            "lastUpdateTime": "最后更新时间"
        }, {
            "productid": 324,
            "outerID": "1233",
            "name": "产品名称",
            "feedName": "所属Feed",
            "feedid": "1233",
            "status": 1,
            "lastUpdateTime": "最后更新时间"
        }]
    },
    "success": true
}