{
"status": 0,
"data": {
"queryCondition": {
"ascend": false,
"totalSize": 8433,
"pageSize": 20,
"currentPage": 1,
"totalPage": 422,
"firstResult": 0,
"isQueryAll": false
},
"target": [
{
"userId": 1061,
"content": "{\"title\":\"{机票}-机票无线专享0.9折起\",\"appname_h1\":\"携程旅行\",\"appdesc_text\":\"手机预订专享价格特权,至高优惠超过50%!\",\"show_url\":\"m.sm.com\",\"target_url\":\"http://m.sm.com\",\"pic_img\":\"http://image-ad.sm.cn/admaterial/ideapro_1061_577e5bf39eee648bac36651cb22e2e1e69493f16.jpg\",\"androiddownload_url\":\"http://m.sm.com/m/c1017\",\"iosdownload_url\":\"http://itunes.apple.com/cn/app/xie-cheng-wu-xian-jiu-dian/id379395415?mt=8\"}",
"showNum": 0,
"clickNum": 0,
"convertNum": 0,
"consume": 0,
"clickRatio": "0.00%",
"cpc": "0.00",
"convertRatio": 0,
"planId": 100660797,
"planName": "航班_哪里到哪里国际机票_phrase",
"isPaused": 0,
"reviewState": 0,
"frontState": 5,
"isPromotionAbnormal": false,
"unitId": 438704340,
"unitName": "昆明出发国际机票_phrase (7)",
"planIsDelete": 0,
"unitIsDelete": 0,
"id": 50000000125256100,
"idStr": "50000000125256097",
"styleType": 11,
"level": 11
},
{
"userId": 1061,
"content": "{\"title\":\"{机票}-机票无线专享0.9折起\",\"appname_h1\":\"携程旅行\",\"appdesc_text\":\"手机预订专享价格特权,至高优惠超过50%!\",\"show_url\":\"m.sm.com\",\"target_url\":\"http://m.sm.com\",\"pic_img\":\"http://image-ad.sm.cn/admaterial/ideapro_1061_577e5bf39eee648bac36651cb22e2e1e69493f16.jpg\",\"androiddownload_url\":\"http://m.sm.com/m/c1017\",\"iosdownload_url\":\"http://itunes.apple.com/cn/app/xie-cheng-wu-xian-jiu-dian/id379395415?mt=8\"}",
"showNum": 0,
"clickNum": 0,
"convertNum": 0,
"consume": 0,
"clickRatio": "0.00%",
"cpc": "0.00",
"convertRatio": 0,
"planId": 100660797,
"planName": "航班_哪里到哪里国际机票_phrase",
"isPaused": 0,
"reviewState": 0,
"frontState": 5,
"isPromotionAbnormal": false,
"unitId": 438704341,
"unitName": "利兹出发国际航班_phrase",
"planIsDelete": 0,
"unitIsDelete": 0,
"id": 50000000125256100,
"idStr": "50000000125256098",
"styleType": 11,
"level": 11
},
{
"userId": 1061,
"content": "{\"title\":\"{机票}-机票无线专享0.9折起\",\"appname_h1\":\"携程旅行\",\"appdesc_text\":\"手机预订专享价格特权,至高优惠超过50%!\",\"show_url\":\"m.sm.com\",\"target_url\":\"http://m.sm.com\",\"pic_img\":\"http://image-ad.sm.cn/admaterial/ideapro_1061_577e5bf39eee648bac36651cb22e2e1e69493f16.jpg\",\"androiddownload_url\":\"http://m.sm.com/m/c1017\",\"iosdownload_url\":\"http://itunes.apple.com/cn/app/xie-cheng-wu-xian-jiu-dian/id379395415?mt=8\"}",
"showNum": 0,
"clickNum": 0,
"convertNum": 0,
"consume": 0,
"clickRatio": "0.00%",
"cpc": "0.00",
"convertRatio": 0,
"planId": 100660797,
"planName": "航班_哪里到哪里国际机票_phrase",
"isPaused": 0,
"reviewState": 0,
"frontState": 5,
"isPromotionAbnormal": false,
"unitId": 438704342,
"unitName": "卢本巴希出发国际航班_phrase",
"planIsDelete": 0,
"unitIsDelete": 0,
"id": 50000000125256100,
"idStr": "50000000125256099",
"styleType": 11,
"level": 11
},
{
"userId": 1061,
"content": "{\"title\":\"{机票}-机票无线专享0.9折起\",\"appname_h1\":\"携程旅行\",\"appdesc_text\":\"手机预订专享价格特权,至高优惠超过50%!\",\"show_url\":\"m.sm.com\",\"target_url\":\"http://m.sm.com\",\"pic_img\":\"http://image-ad.sm.cn/admaterial/ideapro_1061_577e5bf39eee648bac36651cb22e2e1e69493f16.jpg\",\"androiddownload_url\":\"http://m.sm.com/m/c1017\",\"iosdownload_url\":\"http://itunes.apple.com/cn/app/xie-cheng-wu-xian-jiu-dian/id379395415?mt=8\"}",
"showNum": 0,
"clickNum": 0,
"convertNum": 0,
"consume": 0,
"clickRatio": "0.00%",
"cpc": "0.00",
"convertRatio": 0,
"planId": 100660797,
"planName": "航班_哪里到哪里国际机票_phrase",
"isPaused": 0,
"reviewState": 0,
"frontState": 5,
"isPromotionAbnormal": false,
"unitId": 438704343,
"unitName": "罗利出发国际航班_phrase",
"planIsDelete": 0,
"unitIsDelete": 0,
"id": 50000000125256100,
"idStr": "50000000125256100",
"styleType": 11,
"level": 11
},
{
"userId": 1061,
"content": "{\"title\":\"{机票}-机票无线专享0.9折起\",\"appname_h1\":\"携程旅行\",\"appdesc_text\":\"手机预订专享价格特权,至高优惠超过50%!\",\"show_url\":\"m.sm.com\",\"target_url\":\"http://m.sm.com\",\"pic_img\":\"http://image-ad.sm.cn/admaterial/ideapro_1061_577e5bf39eee648bac36651cb22e2e1e69493f16.jpg\",\"androiddownload_url\":\"http://m.sm.com/m/c1017\",\"iosdownload_url\":\"http://itunes.apple.com/cn/app/xie-cheng-wu-xian-jiu-dian/id379395415?mt=8\"}",
"showNum": 0,
"clickNum": 0,
"convertNum": 0,
"consume": 0,
"clickRatio": "0.00%",
"cpc": "0.00",
"convertRatio": 0,
"planId": 100660797,
"planName": "航班_哪里到哪里国际机票_phrase",
"isPaused": 0,
"reviewState": 0,
"frontState": 5,
"isPromotionAbnormal": false,
"unitId": 438704344,
"unitName": "罗切斯特出发国际航班_phrase",
"planIsDelete": 0,
"unitIsDelete": 0,
"id": 50000000125256104,
"idStr": "50000000125256101",
"styleType": 11,
"level": 11
},
{
"userId": 1061,
"content": "{\"title\":\"{机票}-机票无线专享0.9折起\",\"appname_h1\":\"携程旅行\",\"appdesc_text\":\"手机预订专享价格特权,至高优惠超过50%!\",\"show_url\":\"m.sm.com\",\"target_url\":\"http://m.sm.com\",\"pic_img\":\"http://image-ad.sm.cn/admaterial/ideapro_1061_577e5bf39eee648bac36651cb22e2e1e69493f16.jpg\",\"androiddownload_url\":\"http://m.sm.com/m/c1017\",\"iosdownload_url\":\"http://itunes.apple.com/cn/app/xie-cheng-wu-xian-jiu-dian/id379395415?mt=8\"}",
"showNum": 0,
"clickNum": 0,
"convertNum": 0,
"consume": 0,
"clickRatio": "0.00%",
"cpc": "0.00",
"convertRatio": 0,
"planId": 100660797,
"planName": "航班_哪里到哪里国际机票_phrase",
"isPaused": 0,
"reviewState": 0,
"frontState": 5,
"isPromotionAbnormal": false,
"unitId": 438704345,
"unitName": "梅德福出发国际航班_phrase",
"planIsDelete": 0,
"unitIsDelete": 0,
"id": 50000000125256104,
"idStr": "50000000125256102",
"styleType": 11,
"level": 11
},
{
"userId": 1061,
"content": "{\"title\":\"{机票}-机票无线专享0.9折起\",\"appname_h1\":\"携程旅行\",\"appdesc_text\":\"手机预订专享价格特权,至高优惠超过50%!\",\"show_url\":\"m.sm.com\",\"target_url\":\"http://m.sm.com\",\"pic_img\":\"http://image-ad.sm.cn/admaterial/ideapro_1061_577e5bf39eee648bac36651cb22e2e1e69493f16.jpg\",\"androiddownload_url\":\"http://m.sm.com/m/c1017\",\"iosdownload_url\":\"http://itunes.apple.com/cn/app/xie-cheng-wu-xian-jiu-dian/id379395415?mt=8\"}",
"showNum": 0,
"clickNum": 0,
"convertNum": 0,
"consume": 0,
"clickRatio": "0.00%",
"cpc": "0.00",
"convertRatio": 0,
"planId": 100660797,
"planName": "航班_哪里到哪里国际机票_phrase",
"isPaused": 0,
"reviewState": 0,
"frontState": 5,
"isPromotionAbnormal": false,
"unitId": 438704346,
"unitName": "孟菲斯出发国际航班_phrase",
"planIsDelete": 0,
"unitIsDelete": 0,
"id": 50000000125256104,
"idStr": "50000000125256103",
"styleType": 11,
"level": 11
},
{
"userId": 1061,
"content": "{\"title\":\"{机票}-机票无线专享0.9折起\",\"appname_h1\":\"携程旅行\",\"appdesc_text\":\"手机预订专享价格特权,至高优惠超过50%!\",\"show_url\":\"m.sm.com\",\"target_url\":\"http://m.sm.com\",\"pic_img\":\"http://image-ad.sm.cn/admaterial/ideapro_1061_577e5bf39eee648bac36651cb22e2e1e69493f16.jpg\",\"androiddownload_url\":\"http://m.sm.com/m/c1017\",\"iosdownload_url\":\"http://itunes.apple.com/cn/app/xie-cheng-wu-xian-jiu-dian/id379395415?mt=8\"}",
"showNum": 0,
"clickNum": 0,
"convertNum": 0,
"consume": 0,
"clickRatio": "0.00%",
"cpc": "0.00",
"convertRatio": 0,
"planId": 100660797,
"planName": "航班_哪里到哪里国际机票_phrase",
"isPaused": 0,
"reviewState": 0,
"frontState": 5,
"isPromotionAbnormal": false,
"unitId": 438704347,
"unitName": "南充出发国际航班_phrase",
"planIsDelete": 0,
"unitIsDelete": 0,
"id": 50000000125256104,
"idStr": "50000000125256104",
"styleType": 11,
"level": 11
},
{
"userId": 1061,
"content": "{\"title\":\"{机票}-机票无线专享0.9折起\",\"appname_h1\":\"携程旅行\",\"appdesc_text\":\"手机预订专享价格特权,至高优惠超过50%!\",\"show_url\":\"m.sm.com\",\"target_url\":\"http://m.sm.com\",\"pic_img\":\"http://image-ad.sm.cn/admaterial/ideapro_1061_577e5bf39eee648bac36651cb22e2e1e69493f16.jpg\",\"androiddownload_url\":\"http://m.sm.com/m/c1017\",\"iosdownload_url\":\"http://itunes.apple.com/cn/app/xie-cheng-wu-xian-jiu-dian/id379395415?mt=8\"}",
"showNum": 23,
"clickNum": 0,
"convertNum": 0,
"consume": 0,
"clickRatio": "0.00%",
"cpc": "0",
"convertRatio": 0,
"planId": 100660797,
"planName": "航班_哪里到哪里国际机票_phrase",
"isPaused": 0,
"reviewState": 0,
"frontState": 5,
"isPromotionAbnormal": false,
"unitId": 438704348,
"unitName": "南京出发国际机票_phrase",
"planIsDelete": 0,
"unitIsDelete": 0,
"id": 50000000125256104,
"idStr": "50000000125256105",
"styleType": 11,
"level": 11
},
{
"userId": 1061,
"content": "{\"title\":\"{机票}-机票无线专享0.9折起\",\"appname_h1\":\"携程旅行\",\"appdesc_text\":\"手机预订专享价格特权,至高优惠超过50%!\",\"show_url\":\"m.sm.com\",\"target_url\":\"http://m.sm.com\",\"pic_img\":\"http://image-ad.sm.cn/admaterial/ideapro_1061_577e5bf39eee648bac36651cb22e2e1e69493f16.jpg\",\"androiddownload_url\":\"http://m.sm.com/m/c1017\",\"iosdownload_url\":\"http://itunes.apple.com/cn/app/xie-cheng-wu-xian-jiu-dian/id379395415?mt=8\"}",
"showNum": 2,
"clickNum": 0,
"convertNum": 0,
"consume": 0,
"clickRatio": "0.00%",
"cpc": "0",
"convertRatio": 0,
"planId": 100660797,
"planName": "航班_哪里到哪里国际机票_phrase",
"isPaused": 0,
"reviewState": 0,
"frontState": 5,
"isPromotionAbnormal": false,
"unitId": 438704349,
"unitName": "南京出发国际机票_phrase (4)",
"planIsDelete": 0,
"unitIsDelete": 0,
"id": 50000000125256104,
"idStr": "50000000125256106",
"styleType": 11,
"level": 11
},
{
"userId": 1061,
"content": "{\"title\":\"{机票}-机票无线专享0.9折起\",\"appname_h1\":\"携程旅行\",\"appdesc_text\":\"手机预订专享价格特权,至高优惠超过50%!\",\"show_url\":\"m.sm.com\",\"target_url\":\"http://m.sm.com\",\"pic_img\":\"http://image-ad.sm.cn/admaterial/ideapro_1061_577e5bf39eee648bac36651cb22e2e1e69493f16.jpg\",\"androiddownload_url\":\"http://m.sm.com/m/c1017\",\"iosdownload_url\":\"http://itunes.apple.com/cn/app/xie-cheng-wu-xian-jiu-dian/id379395415?mt=8\"}",
"showNum": 0,
"clickNum": 0,
"convertNum": 0,
"consume": 0,
"clickRatio": "0.00%",
"cpc": "0.00",
"convertRatio": 0,
"planId": 100660797,
"planName": "航班_哪里到哪里国际机票_phrase",
"isPaused": 0,
"reviewState": 0,
"frontState": 5,
"isPromotionAbnormal": false,
"unitId": 438704350,
"unitName": "南阳出发国际机票_phrase",
"planIsDelete": 0,
"unitIsDelete": 0,
"id": 50000000125256104,
"idStr": "50000000125256107",
"styleType": 11,
"level": 11
},
{
"userId": 1061,
"content": "{\"title\":\"{机票}-机票无线专享0.9折起\",\"appname_h1\":\"携程旅行\",\"appdesc_text\":\"手机预订专享价格特权,至高优惠超过50%!\",\"show_url\":\"m.sm.com\",\"target_url\":\"http://m.sm.com\",\"pic_img\":\"http://image-ad.sm.cn/admaterial/ideapro_1061_577e5bf39eee648bac36651cb22e2e1e69493f16.jpg\",\"androiddownload_url\":\"http://m.sm.com/m/c1017\",\"iosdownload_url\":\"http://itunes.apple.com/cn/app/xie-cheng-wu-xian-jiu-dian/id379395415?mt=8\"}",
"showNum": 1,
"clickNum": 0,
"convertNum": 0,
"consume": 0,
"clickRatio": "0.00%",
"cpc": "0",
"convertRatio": 0,
"planId": 100660797,
"planName": "航班_哪里到哪里国际机票_phrase",
"isPaused": 0,
"reviewState": 0,
"frontState": 5,
"isPromotionAbnormal": false,
"unitId": 438704351,
"unitName": "青岛出发国际机票_phrase",
"planIsDelete": 0,
"unitIsDelete": 0,
"id": 50000000125256110,
"idStr": "50000000125256108",
"styleType": 11,
"level": 11
},
{
"userId": 1061,
"content": "{\"title\":\"{机票}-机票无线专享0.9折起\",\"appname_h1\":\"携程旅行\",\"appdesc_text\":\"手机预订专享价格特权,至高优惠超过50%!\",\"show_url\":\"m.sm.com\",\"target_url\":\"http://m.sm.com\",\"pic_img\":\"http://image-ad.sm.cn/admaterial/ideapro_1061_577e5bf39eee648bac36651cb22e2e1e69493f16.jpg\",\"androiddownload_url\":\"http://m.sm.com/m/c1017\",\"iosdownload_url\":\"http://itunes.apple.com/cn/app/xie-cheng-wu-xian-jiu-dian/id379395415?mt=8\"}",
"showNum": 0,
"clickNum": 0,
"convertNum": 0,
"consume": 0,
"clickRatio": "0.00%",
"cpc": "0.00",
"convertRatio": 0,
"planId": 100660797,
"planName": "航班_哪里到哪里国际机票_phrase",
"isPaused": 0,
"reviewState": 0,
"frontState": 5,
"isPromotionAbnormal": false,
"unitId": 438704352,
"unitName": "三亚出发国际机票_phrase",
"planIsDelete": 0,
"unitIsDelete": 0,
"id": 50000000125256110,
"idStr": "50000000125256109",
"styleType": 11,
"level": 11
},
{
"userId": 1061,
"content": "{\"title\":\"{机票}-机票无线专享0.9折起\",\"appname_h1\":\"携程旅行\",\"appdesc_text\":\"手机预订专享价格特权,至高优惠超过50%!\",\"show_url\":\"m.sm.com\",\"target_url\":\"http://m.sm.com\",\"pic_img\":\"http://image-ad.sm.cn/admaterial/ideapro_1061_577e5bf39eee648bac36651cb22e2e1e69493f16.jpg\",\"androiddownload_url\":\"http://m.sm.com/m/c1017\",\"iosdownload_url\":\"http://itunes.apple.com/cn/app/xie-cheng-wu-xian-jiu-dian/id379395415?mt=8\"}",
"showNum": 0,
"clickNum": 0,
"convertNum": 0,
"consume": 0,
"clickRatio": "0.00%",
"cpc": "0.00",
"convertRatio": 0,
"planId": 100660797,
"planName": "航班_哪里到哪里国际机票_phrase",
"isPaused": 0,
"reviewState": 0,
"frontState": 5,
"isPromotionAbnormal": false,
"unitId": 438704353,
"unitName": "三亚出发国际机票_phrase (3)",
"planIsDelete": 0,
"unitIsDelete": 0,
"id": 50000000125256110,
"idStr": "50000000125256110",
"styleType": 11,
"level": 11
},
{
"userId": 1061,
"content": "{\"title\":\"{机票}-机票无线专享0.9折起\",\"appname_h1\":\"携程旅行\",\"appdesc_text\":\"手机预订专享价格特权,至高优惠超过50%!\",\"show_url\":\"m.sm.com\",\"target_url\":\"http://m.sm.com\",\"pic_img\":\"http://image-ad.sm.cn/admaterial/ideapro_1061_577e5bf39eee648bac36651cb22e2e1e69493f16.jpg\",\"androiddownload_url\":\"http://m.sm.com/m/c1017\",\"iosdownload_url\":\"http://itunes.apple.com/cn/app/xie-cheng-wu-xian-jiu-dian/id379395415?mt=8\"}",
"showNum": 11,
"clickNum": 0,
"convertNum": 0,
"consume": 0,
"clickRatio": "0.00%",
"cpc": "0",
"convertRatio": 0,
"planId": 100660797,
"planName": "航班_哪里到哪里国际机票_phrase",
"isPaused": 0,
"reviewState": 0,
"frontState": 5,
"isPromotionAbnormal": false,
"unitId": 438704354,
"unitName": "厦门出发国际航班_phrase (3)",
"planIsDelete": 0,
"unitIsDelete": 0,
"id": 50000000125256110,
"idStr": "50000000125256111",
"styleType": 11,
"level": 11
},
{
"userId": 1061,
"content": "{\"title\":\"{机票}-机票无线专享0.9折起\",\"appname_h1\":\"携程旅行\",\"appdesc_text\":\"手机预订专享价格特权,至高优惠超过50%!\",\"show_url\":\"m.sm.com\",\"target_url\":\"http://m.sm.com\",\"pic_img\":\"http://image-ad.sm.cn/admaterial/ideapro_1061_577e5bf39eee648bac36651cb22e2e1e69493f16.jpg\",\"androiddownload_url\":\"http://m.sm.com/m/c1017\",\"iosdownload_url\":\"http://itunes.apple.com/cn/app/xie-cheng-wu-xian-jiu-dian/id379395415?mt=8\"}",
"showNum": 14,
"clickNum": 2,
"convertNum": 0,
"consume": 0.99,
"clickRatio": "14.29%",
"cpc": "0.50",
"convertRatio": 0,
"planId": 100660797,
"planName": "航班_哪里到哪里国际机票_phrase",
"isPaused": 0,
"reviewState": 0,
"frontState": 5,
"isPromotionAbnormal": false,
"unitId": 438704355,
"unitName": "厦门出发国际机票_phrase",
"planIsDelete": 0,
"unitIsDelete": 0,
"id": 50000000125256110,
"idStr": "50000000125256112",
"styleType": 11,
"level": 11
},
{
"userId": 1061,
"content": "{\"title\":\"{机票}-机票无线专享0.9折起\",\"appname_h1\":\"携程旅行\",\"appdesc_text\":\"手机预订专享价格特权,至高优惠超过50%!\",\"show_url\":\"m.sm.com\",\"target_url\":\"http://m.sm.com\",\"pic_img\":\"http://image-ad.sm.cn/admaterial/ideapro_1061_577e5bf39eee648bac36651cb22e2e1e69493f16.jpg\",\"androiddownload_url\":\"http://m.sm.com/m/c1017\",\"iosdownload_url\":\"http://itunes.apple.com/cn/app/xie-cheng-wu-xian-jiu-dian/id379395415?mt=8\"}",
"showNum": 0,
"clickNum": 0,
"convertNum": 0,
"consume": 0,
"clickRatio": "0.00%",
"cpc": "0.00",
"convertRatio": 0,
"planId": 100660797,
"planName": "航班_哪里到哪里国际机票_phrase",
"isPaused": 0,
"reviewState": 0,
"frontState": 5,
"isPromotionAbnormal": false,
"unitId": 438704356,
"unitName": "汕头出发国际机票_phrase",
"planIsDelete": 0,
"unitIsDelete": 0,
"id": 50000000125256110,
"idStr": "50000000125256113",
"styleType": 11,
"level": 11
},
{
"userId": 1061,
"content": "{\"title\":\"{机票}-机票无线专享0.9折起\",\"appname_h1\":\"携程旅行\",\"appdesc_text\":\"手机预订专享价格特权,至高优惠超过50%!\",\"show_url\":\"m.sm.com\",\"target_url\":\"http://m.sm.com\",\"pic_img\":\"http://image-ad.sm.cn/admaterial/ideapro_1061_577e5bf39eee648bac36651cb22e2e1e69493f16.jpg\",\"androiddownload_url\":\"http://m.sm.com/m/c1017\",\"iosdownload_url\":\"http://itunes.apple.com/cn/app/xie-cheng-wu-xian-jiu-dian/id379395415?mt=8\"}",
"showNum": 0,
"clickNum": 0,
"convertNum": 0,
"consume": 0,
"clickRatio": "0.00%",
"cpc": "0.00",
"convertRatio": 0,
"planId": 100660797,
"planName": "航班_哪里到哪里国际机票_phrase",
"isPaused": 0,
"reviewState": 0,
"frontState": 5,
"isPromotionAbnormal": false,
"unitId": 438704357,
"unitName": "上海出发国际航班_phrase (17)",
"planIsDelete": 0,
"unitIsDelete": 0,
"id": 50000000125256110,
"idStr": "50000000125256114",
"styleType": 11,
"level": 11
},
{
"userId": 1061,
"content": "{\"title\":\"{机票}-机票无线专享0.9折起\",\"appname_h1\":\"携程旅行\",\"appdesc_text\":\"手机预订专享价格特权,至高优惠超过50%!\",\"show_url\":\"m.sm.com\",\"target_url\":\"http://m.sm.com\",\"pic_img\":\"http://image-ad.sm.cn/admaterial/ideapro_1061_577e5bf39eee648bac36651cb22e2e1e69493f16.jpg\",\"androiddownload_url\":\"http://m.sm.com/m/c1017\",\"iosdownload_url\":\"http://itunes.apple.com/cn/app/xie-cheng-wu-xian-jiu-dian/id379395415?mt=8\"}",
"showNum": 43,
"clickNum": 3,
"convertNum": 0,
"consume": 1.35,
"clickRatio": "6.98%",
"cpc": "0.45",
"convertRatio": 0,
"planId": 100660797,
"planName": "航班_哪里到哪里国际机票_phrase",
"isPaused": 0,
"reviewState": 0,
"frontState": 5,
"isPromotionAbnormal": false,
"unitId": 438704358,
"unitName": "上海出发国际机票_phrase (1)",
"planIsDelete": 0,
"unitIsDelete": 0,
"id": 50000000125256110,
"idStr": "50000000125256115",
"styleType": 11,
"level": 11
},
{
"userId": 1061,
"content": "{\"title\":\"{机票}-机票无线专享0.9折起\",\"appname_h1\":\"携程旅行\",\"appdesc_text\":\"手机预订专享价格特权,至高优惠超过50%!\",\"show_url\":\"m.sm.com\",\"target_url\":\"http://m.sm.com\",\"pic_img\":\"http://image-ad.sm.cn/admaterial/ideapro_1061_577e5bf39eee648bac36651cb22e2e1e69493f16.jpg\",\"androiddownload_url\":\"http://m.sm.com/m/c1017\",\"iosdownload_url\":\"http://itunes.apple.com/cn/app/xie-cheng-wu-xian-jiu-dian/id379395415?mt=8\"}",
"showNum": 0,
"clickNum": 0,
"convertNum": 0,
"consume": 0,
"clickRatio": "0.00%",
"cpc": "0.00",
"convertRatio": 0,
"planId": 100660797,
"planName": "航班_哪里到哪里国际机票_phrase",
"isPaused": 0,
"reviewState": 0,
"frontState": 5,
"isPromotionAbnormal": false,
"unitId": 438704359,
"unitName": "上海出发国际机票_phrase (11)",
"planIsDelete": 0,
"unitIsDelete": 0,
"id": 50000000125256110,
"idStr": "50000000125256116",
"styleType": 11,
"level": 11
}
]
},
"success": true
}