{"status":0,"data":{"queryCondition":{"ascend":false,"totalSize":4810,"pageSize":20,"currentPage":1,"totalPage":241,"firstResult":0,"isQueryAll":false},"target":[{"userId":15092483,"content":"{\"title\":\"{#region#}高级创意之图文双子链\",\"desc_text\":\"{#region#}{丰富推广},中小企业的营销方式!为您提供优质的网站营销一站式服务!\",\"pic_img\":\"http://image-ad.sm.cn/admaterial/idea_15092483_8c036dda4e09d01588191b54ee96ec420c6baa68.jpg\",\"show_url\":\"e.sm.cn\",\"target_url\":\"https://e.sm.cn\",\"1_subpath_text\":\"asdafa\",\"1_subpath_url\":\"https://e.sm.cn\",\"2_subpath_text\":\"立即加入\",\"2_subpath_url\":\"https://e.sm.cn\"}","showNum":0,"clickNum":0,"convertNum":0,"consume":0.00,"clickRatio":"0.00%","cpc":"0.00","convertRatio":0.0,"planId":100851126,"planName":"门票价格_华南_exact测异步专用","isPaused":1,"reviewState":111,"frontState":1,"isPromotionAbnormal":false,"unitId":449430639,"unitName":"1702497_广东_河源_野趣沟漂流","planIsDelete":0,"unitIsDelete":0,"id":50000000132372807,"idStr":"50000000132372807","styleType":12,"level":11},{"userId":15092483,"content":"{\"title\":\"{#region#}高级创意之图文双子链\",\"desc_text\":\"{#region#}{丰富推广},中小企业的营销方式!为您提供优质的网站营销一站式服务!\",\"pic_img\":\"http://image-ad.sm.cn/admaterial/idea_15092483_8c036dda4e09d01588191b54ee96ec420c6baa68.jpg\",\"show_url\":\"e.sm.cn\",\"target_url\":\"https://e.sm.cn\",\"1_subpath_text\":\"asdafa\",\"1_subpath_url\":\"https://e.sm.cn\",\"2_subpath_text\":\"立即加入\",\"2_subpath_url\":\"https://e.sm.cn\"}","showNum":0,"clickNum":0,"convertNum":0,"consume":0.00,"clickRatio":"0.00%","cpc":"0.00","convertRatio":0.0,"planId":100851126,"planName":"门票价格_华南_exact测异步专用","isPaused":1,"reviewState":111,"frontState":1,"isPromotionAbnormal":false,"unitId":449430639,"unitName":"1702497_广东_河源_野趣沟漂流","planIsDelete":0,"unitIsDelete":0,"id":50000000132372808,"idStr":"50000000132372808","styleType":12,"level":11},{"userId":15092483,"content":"{\"title\":\"{#region#}高级创意之图文双子链\",\"desc_text\":\"{#region#}{丰富推广},中小企业的营销方式!为您提供优质的网站营销一站式服务!\",\"pic_img\":\"http://image-ad.sm.cn/admaterial/idea_15092483_8c036dda4e09d01588191b54ee96ec420c6baa68.jpg\",\"show_url\":\"e.sm.cn\",\"target_url\":\"https://e.sm.cn\",\"1_subpath_text\":\"asdafa\",\"1_subpath_url\":\"https://e.sm.cn\",\"2_subpath_text\":\"立即加入\",\"2_subpath_url\":\"https://e.sm.cn\"}","showNum":0,"clickNum":0,"convertNum":0,"consume":0.00,"clickRatio":"0.00%","cpc":"0.00","convertRatio":0.0,"planId":100851126,"planName":"门票价格_华南_exact测异步专用","isPaused":1,"reviewState":111,"frontState":1,"isPromotionAbnormal":false,"unitId":449430639,"unitName":"1702497_广东_河源_野趣沟漂流","planIsDelete":0,"unitIsDelete":0,"id":50000000132372809,"idStr":"50000000132372809","styleType":12,"level":11},{"userId":15092483,"content":"{\"title\":\"{#region#}高级创意之图文双子链\",\"desc_text\":\"{#region#}{丰富推广},中小企业的营销方式!为您提供优质的网站营销一站式服务!\",\"pic_img\":\"http://image-ad.sm.cn/admaterial/idea_15092483_8c036dda4e09d01588191b54ee96ec420c6baa68.jpg\",\"show_url\":\"e.sm.cn\",\"target_url\":\"https://e.sm.cn\",\"1_subpath_text\":\"asdafa\",\"1_subpath_url\":\"https://e.sm.cn\",\"2_subpath_text\":\"立即加入\",\"2_subpath_url\":\"https://e.sm.cn\"}","showNum":0,"clickNum":0,"convertNum":0,"consume":0.00,"clickRatio":"0.00%","cpc":"0.00","convertRatio":0.0,"planId":100851126,"planName":"门票价格_华南_exact测异步专用","isPaused":1,"reviewState":111,"frontState":1,"isPromotionAbnormal":false,"unitId":449430639,"unitName":"1702497_广东_河源_野趣沟漂流","planIsDelete":0,"unitIsDelete":0,"id":50000000132372810,"idStr":"50000000132372810","styleType":12,"level":11},{"userId":15092483,"content":"{\"title\":\"{#region#}高级创意之图文双子链\",\"desc_text\":\"{#region#}{丰富推广},中小企业的营销方式!为您提供优质的网站营销一站式服务!\",\"pic_img\":\"http://image-ad.sm.cn/admaterial/idea_15092483_8c036dda4e09d01588191b54ee96ec420c6baa68.jpg\",\"show_url\":\"e.sm.cn\",\"target_url\":\"https://e.sm.cn\",\"1_subpath_text\":\"asdafa\",\"1_subpath_url\":\"https://e.sm.cn\",\"2_subpath_text\":\"立即加入\",\"2_subpath_url\":\"https://e.sm.cn\"}","showNum":0,"clickNum":0,"convertNum":0,"consume":0.00,"clickRatio":"0.00%","cpc":"0.00","convertRatio":0.0,"planId":100851126,"planName":"门票价格_华南_exact测异步专用","isPaused":1,"reviewState":111,"frontState":1,"isPromotionAbnormal":false,"unitId":449430639,"unitName":"1702497_广东_河源_野趣沟漂流","planIsDelete":0,"unitIsDelete":0,"id":50000000132372811,"idStr":"50000000132372811","styleType":12,"level":11},{"userId":15092483,"content":"{\"title\":\"{#region#}高级创意之图文双子链\",\"desc_text\":\"{#region#}{丰富推广},中小企业的营销方式!为您提供优质的网站营销一站式服务!\",\"pic_img\":\"http://image-ad.sm.cn/admaterial/idea_15092483_8c036dda4e09d01588191b54ee96ec420c6baa68.jpg\",\"show_url\":\"e.sm.cn\",\"target_url\":\"https://e.sm.cn\",\"1_subpath_text\":\"asdafa\",\"1_subpath_url\":\"https://e.sm.cn\",\"2_subpath_text\":\"立即加入\",\"2_subpath_url\":\"https://e.sm.cn\"}","showNum":0,"clickNum":0,"convertNum":0,"consume":0.00,"clickRatio":"0.00%","cpc":"0.00","convertRatio":0.0,"planId":100851126,"planName":"门票价格_华南_exact测异步专用","isPaused":1,"reviewState":111,"frontState":1,"isPromotionAbnormal":false,"unitId":449430639,"unitName":"1702497_广东_河源_野趣沟漂流","planIsDelete":0,"unitIsDelete":0,"id":50000000132372812,"idStr":"50000000132372812","styleType":12,"level":11},{"userId":15092483,"content":"{\"title\":\"{#region#}高级创意之图文双子链\",\"desc_text\":\"{#region#}{丰富推广},中小企业的营销方式!为您提供优质的网站营销一站式服务!\",\"pic_img\":\"http://image-ad.sm.cn/admaterial/idea_15092483_8c036dda4e09d01588191b54ee96ec420c6baa68.jpg\",\"show_url\":\"e.sm.cn\",\"target_url\":\"https://e.sm.cn\",\"1_subpath_text\":\"asdafa\",\"1_subpath_url\":\"https://e.sm.cn\",\"2_subpath_text\":\"立即加入\",\"2_subpath_url\":\"https://e.sm.cn\"}","showNum":0,"clickNum":0,"convertNum":0,"consume":0.00,"clickRatio":"0.00%","cpc":"0.00","convertRatio":0.0,"planId":100851126,"planName":"门票价格_华南_exact测异步专用","isPaused":1,"reviewState":111,"frontState":1,"isPromotionAbnormal":false,"unitId":449430639,"unitName":"1702497_广东_河源_野趣沟漂流","planIsDelete":0,"unitIsDelete":0,"id":50000000132372813,"idStr":"50000000132372813","styleType":12,"level":11},{"userId":15092483,"content":"{\"title\":\"{#region#}高级创意之图文双子链\",\"desc_text\":\"{#region#}{丰富推广},中小企业的营销方式!为您提供优质的网站营销一站式服务!\",\"pic_img\":\"http://image-ad.sm.cn/admaterial/idea_15092483_8c036dda4e09d01588191b54ee96ec420c6baa68.jpg\",\"show_url\":\"e.sm.cn\",\"target_url\":\"https://e.sm.cn\",\"1_subpath_text\":\"asdafa\",\"1_subpath_url\":\"https://e.sm.cn\",\"2_subpath_text\":\"立即加入\",\"2_subpath_url\":\"https://e.sm.cn\"}","showNum":0,"clickNum":0,"convertNum":0,"consume":0.00,"clickRatio":"0.00%","cpc":"0.00","convertRatio":0.0,"planId":100851126,"planName":"门票价格_华南_exact测异步专用","isPaused":1,"reviewState":111,"frontState":1,"isPromotionAbnormal":false,"unitId":449430639,"unitName":"1702497_广东_河源_野趣沟漂流","planIsDelete":0,"unitIsDelete":0,"id":50000000132372814,"idStr":"50000000132372814","styleType":12,"level":11},{"userId":15092483,"content":"{\"title\":\"{#region#}高级创意之图文双子链\",\"desc_text\":\"{#region#}{丰富推广},中小企业的营销方式!为您提供优质的网站营销一站式服务!\",\"pic_img\":\"http://image-ad.sm.cn/admaterial/idea_15092483_8c036dda4e09d01588191b54ee96ec420c6baa68.jpg\",\"show_url\":\"e.sm.cn\",\"target_url\":\"https://e.sm.cn\",\"1_subpath_text\":\"asdafa\",\"1_subpath_url\":\"https://e.sm.cn\",\"2_subpath_text\":\"立即加入\",\"2_subpath_url\":\"https://e.sm.cn\"}","showNum":0,"clickNum":0,"convertNum":0,"consume":0.00,"clickRatio":"0.00%","cpc":"0.00","convertRatio":0.0,"planId":100851126,"planName":"门票价格_华南_exact测异步专用","isPaused":1,"reviewState":111,"frontState":1,"isPromotionAbnormal":false,"unitId":449430639,"unitName":"1702497_广东_河源_野趣沟漂流","planIsDelete":0,"unitIsDelete":0,"id":50000000132372815,"idStr":"50000000132372815","styleType":12,"level":11},{"userId":15092483,"content":"{\"title\":\"{#region#}高级创意之图文双子链\",\"desc_text\":\"{#region#}{丰富推广},中小企业的营销方式!为您提供优质的网站营销一站式服务!\",\"pic_img\":\"http://image-ad.sm.cn/admaterial/idea_15092483_8c036dda4e09d01588191b54ee96ec420c6baa68.jpg\",\"show_url\":\"e.sm.cn\",\"target_url\":\"https://e.sm.cn\",\"1_subpath_text\":\"asdafa\",\"1_subpath_url\":\"https://e.sm.cn\",\"2_subpath_text\":\"立即加入\",\"2_subpath_url\":\"https://e.sm.cn\"}","showNum":0,"clickNum":0,"convertNum":0,"consume":0.00,"clickRatio":"0.00%","cpc":"0.00","convertRatio":0.0,"planId":100851126,"planName":"门票价格_华南_exact测异步专用","isPaused":1,"reviewState":111,"frontState":1,"isPromotionAbnormal":false,"unitId":449430639,"unitName":"1702497_广东_河源_野趣沟漂流","planIsDelete":0,"unitIsDelete":0,"id":50000000132372816,"idStr":"50000000132372816","styleType":12,"level":11},{"userId":15092483,"content":"{\"title\":\"{#region#}高级创意之图文双子链\",\"desc_text\":\"{#region#}{丰富推广},中小企业的营销方式!为您提供优质的网站营销一站式服务!\",\"pic_img\":\"http://image-ad.sm.cn/admaterial/idea_15092483_8c036dda4e09d01588191b54ee96ec420c6baa68.jpg\",\"show_url\":\"e.sm.cn\",\"target_url\":\"https://e.sm.cn\",\"1_subpath_text\":\"asdafa\",\"1_subpath_url\":\"https://e.sm.cn\",\"2_subpath_text\":\"立即加入\",\"2_subpath_url\":\"https://e.sm.cn\"}","showNum":0,"clickNum":0,"convertNum":0,"consume":0.00,"clickRatio":"0.00%","cpc":"0.00","convertRatio":0.0,"planId":100851126,"planName":"门票价格_华南_exact测异步专用","isPaused":1,"reviewState":111,"frontState":1,"isPromotionAbnormal":false,"unitId":449430640,"unitName":"1946144_广西_贺州_加勒比水上乐","planIsDelete":0,"unitIsDelete":0,"id":50000000132372817,"idStr":"50000000132372817","styleType":12,"level":11},{"userId":15092483,"content":"{\"title\":\"{#region#}高级创意之图文双子链\",\"desc_text\":\"{#region#}{丰富推广},中小企业的营销方式!为您提供优质的网站营销一站式服务!\",\"pic_img\":\"http://image-ad.sm.cn/admaterial/idea_15092483_8c036dda4e09d01588191b54ee96ec420c6baa68.jpg\",\"show_url\":\"e.sm.cn\",\"target_url\":\"https://e.sm.cn\",\"1_subpath_text\":\"asdafa\",\"1_subpath_url\":\"https://e.sm.cn\",\"2_subpath_text\":\"立即加入\",\"2_subpath_url\":\"https://e.sm.cn\"}","showNum":0,"clickNum":0,"convertNum":0,"consume":0.00,"clickRatio":"0.00%","cpc":"0.00","convertRatio":0.0,"planId":100851126,"planName":"门票价格_华南_exact测异步专用","isPaused":1,"reviewState":111,"frontState":1,"isPromotionAbnormal":false,"unitId":449430640,"unitName":"1946144_广西_贺州_加勒比水上乐","planIsDelete":0,"unitIsDelete":0,"id":50000000132372818,"idStr":"50000000132372818","styleType":12,"level":11},{"userId":15092483,"content":"{\"title\":\"{#region#}高级创意之图文双子链\",\"desc_text\":\"{#region#}{丰富推广},中小企业的营销方式!为您提供优质的网站营销一站式服务!\",\"pic_img\":\"http://image-ad.sm.cn/admaterial/idea_15092483_8c036dda4e09d01588191b54ee96ec420c6baa68.jpg\",\"show_url\":\"e.sm.cn\",\"target_url\":\"https://e.sm.cn\",\"1_subpath_text\":\"asdafa\",\"1_subpath_url\":\"https://e.sm.cn\",\"2_subpath_text\":\"立即加入\",\"2_subpath_url\":\"https://e.sm.cn\"}","showNum":0,"clickNum":0,"convertNum":0,"consume":0.00,"clickRatio":"0.00%","cpc":"0.00","convertRatio":0.0,"planId":100851126,"planName":"门票价格_华南_exact测异步专用","isPaused":1,"reviewState":111,"frontState":1,"isPromotionAbnormal":false,"unitId":449430640,"unitName":"1946144_广西_贺州_加勒比水上乐","planIsDelete":0,"unitIsDelete":0,"id":50000000132372819,"idStr":"50000000132372819","styleType":12,"level":11},{"userId":15092483,"content":"{\"title\":\"{#region#}高级创意之图文双子链\",\"desc_text\":\"{#region#}{丰富推广},中小企业的营销方式!为您提供优质的网站营销一站式服务!\",\"pic_img\":\"http://image-ad.sm.cn/admaterial/idea_15092483_8c036dda4e09d01588191b54ee96ec420c6baa68.jpg\",\"show_url\":\"e.sm.cn\",\"target_url\":\"https://e.sm.cn\",\"1_subpath_text\":\"asdafa\",\"1_subpath_url\":\"https://e.sm.cn\",\"2_subpath_text\":\"立即加入\",\"2_subpath_url\":\"https://e.sm.cn\"}","showNum":0,"clickNum":0,"convertNum":0,"consume":0.00,"clickRatio":"0.00%","cpc":"0.00","convertRatio":0.0,"planId":100851126,"planName":"门票价格_华南_exact测异步专用","isPaused":1,"reviewState":111,"frontState":1,"isPromotionAbnormal":false,"unitId":449430640,"unitName":"1946144_广西_贺州_加勒比水上乐","planIsDelete":0,"unitIsDelete":0,"id":50000000132372820,"idStr":"50000000132372820","styleType":12,"level":11},{"userId":15092483,"content":"{\"title\":\"{#region#}高级创意之图文双子链\",\"desc_text\":\"{#region#}{丰富推广},中小企业的营销方式!为您提供优质的网站营销一站式服务!\",\"pic_img\":\"http://image-ad.sm.cn/admaterial/idea_15092483_8c036dda4e09d01588191b54ee96ec420c6baa68.jpg\",\"show_url\":\"e.sm.cn\",\"target_url\":\"https://e.sm.cn\",\"1_subpath_text\":\"asdafa\",\"1_subpath_url\":\"https://e.sm.cn\",\"2_subpath_text\":\"立即加入\",\"2_subpath_url\":\"https://e.sm.cn\"}","showNum":0,"clickNum":0,"convertNum":0,"consume":0.00,"clickRatio":"0.00%","cpc":"0.00","convertRatio":0.0,"planId":100851126,"planName":"门票价格_华南_exact测异步专用","isPaused":1,"reviewState":111,"frontState":1,"isPromotionAbnormal":false,"unitId":449430640,"unitName":"1946144_广西_贺州_加勒比水上乐","planIsDelete":0,"unitIsDelete":0,"id":50000000132372821,"idStr":"50000000132372821","styleType":12,"level":11},{"userId":15092483,"content":"{\"title\":\"{#region#}高级创意之图文双子链\",\"desc_text\":\"{#region#}{丰富推广},中小企业的营销方式!为您提供优质的网站营销一站式服务!\",\"pic_img\":\"http://image-ad.sm.cn/admaterial/idea_15092483_8c036dda4e09d01588191b54ee96ec420c6baa68.jpg\",\"show_url\":\"e.sm.cn\",\"target_url\":\"https://e.sm.cn\",\"1_subpath_text\":\"asdafa\",\"1_subpath_url\":\"https://e.sm.cn\",\"2_subpath_text\":\"立即加入\",\"2_subpath_url\":\"https://e.sm.cn\"}","showNum":0,"clickNum":0,"convertNum":0,"consume":0.00,"clickRatio":"0.00%","cpc":"0.00","convertRatio":0.0,"planId":100851126,"planName":"门票价格_华南_exact测异步专用","isPaused":1,"reviewState":111,"frontState":1,"isPromotionAbnormal":false,"unitId":449430640,"unitName":"1946144_广西_贺州_加勒比水上乐","planIsDelete":0,"unitIsDelete":0,"id":50000000132372822,"idStr":"50000000132372822","styleType":12,"level":11},{"userId":15092483,"content":"{\"title\":\"样式UI优化要用到\",\"desc_text\":\"UI优化推广,中小企业营销方式!为您提供优质的网站营销一站式服务!\",\"pic_img\":\"http://image-ad.sm.cn/admaterial/idea_15092483_00890633976710e228defe4dd868f3fed99d5cfe.jpg\",\"show_url\":\"e.sm.cn\",\"target_url\":\"https://e.sm.cn\",\"1_subpath_text\":\"了解我们\",\"1_subpath_url\":\"https://e.sm.cn\",\"2_subpath_text\":\"立即加入\",\"2_subpath_url\":\"https://e.sm.cn\"}","showNum":0,"clickNum":0,"convertNum":0,"consume":0.00,"clickRatio":"0.00%","cpc":"0.00","convertRatio":0.0,"planId":101073760,"planName":"鹿晗>>>","isPaused":1,"reviewState":0,"frontState":0,"isPromotionAbnormal":false,"unitId":488707502,"unitName":"UI优化","planIsDelete":0,"unitIsDelete":0,"id":50000000160903575,"idStr":"50000000160903575","styleType":12,"level":11},{"userId":15092483,"content":"{\"title\":\"样式UI优化要用到\",\"desc_text\":\"UI优化推广,中小企业营销方式!为您提供优质的网站营销一站式服务!\",\"pic_img\":\"http://image-ad.sm.cn/admaterial/idea_15092483_00890633976710e228defe4dd868f3fed99d5cfe.jpg\",\"show_url\":\"e.sm.cn\",\"target_url\":\"https://e.sm.cn\",\"1_subpath_text\":\"了解我们\",\"1_subpath_url\":\"https://e.sm.cn\",\"2_subpath_text\":\"立即加入\",\"2_subpath_url\":\"https://e.sm.cn\"}","showNum":0,"clickNum":0,"convertNum":0,"consume":0.00,"clickRatio":"0.00%","cpc":"0.00","convertRatio":0.0,"planId":101678779,"planName":"fff","isPaused":1,"reviewState":0,"frontState":0,"isPromotionAbnormal":false,"unitId":490063812,"unitName":"eeee","planIsDelete":0,"unitIsDelete":0,"id":50000000161313994,"idStr":"50000000161313994","styleType":12,"level":11},{"userId":15092483,"content":"{\"title\":\"两节课的说法反倒是123\",\"desc_text\":\"噶桑十分大时代发生的312{}afd\",\"pic_img\":\"http://image-ad.sm.cn/admaterial/idea_15092483_8ffceb663bfca5629fcd3326b2b8e33911223b70.png\",\"show_url\":\"e.sm.cn\",\"target_url\":\"http://e.sm.cn/asfd\",\"1_subpath_text\":\"1234\",\"1_subpath_url\":\"https://e.sm.cn\",\"2_subpath_text\":\"41221\",\"2_subpath_url\":\"https://e.sm.cn\"}","showNum":0,"clickNum":0,"convertNum":0,"consume":0.00,"clickRatio":"0.00%","cpc":"0.00","convertRatio":0.0,"planId":101708331,"planName":"newest","isPaused":0,"reviewState":1002,"frontState":2,"isPromotionAbnormal":false,"unitId":491456826,"unitName":"阿萨德","planIsDelete":0,"unitIsDelete":0,"id":50000000161479940,"idStr":"50000000161479940","styleType":12,"level":11},{"userId":15092483,"content":"{\"title\":\"两节课的说法反倒是123\",\"desc_text\":\"噶桑十分大时代发生的312\",\"pic_img\":\"http://image-ad.sm.cn/admaterial/idea_15092483_8ffceb663bfca5629fcd3326b2b8e33911223b70.png\",\"show_url\":\"e.sm.cn\",\"target_url\":\"http://e.sm.cn\",\"1_subpath_text\":\"123\",\"1_subpath_url\":\"https://e.sm.cn\",\"2_subpath_text\":\"啥地方\",\"2_subpath_url\":\"https://e.sm.cn\"}","showNum":0,"clickNum":0,"convertNum":0,"consume":0.00,"clickRatio":"0.00%","cpc":"0.00","convertRatio":0.0,"planId":101738041,"planName":"23333333333333","isPaused":0,"reviewState":0,"frontState":5,"isPromotionAbnormal":true,"unitId":492724047,"unitName":"阿萨德","planIsDelete":0,"unitIsDelete":0,"id":50000000161888349,"idStr":"50000000161888349","styleType":12,"level":11}]},"success":true}