{"status":0,"data":{"queryCondition":{"ascend":false,"totalSize":250,"pageSize":20,"currentPage":1,"totalPage":13,"firstResult":0,"isQueryAll":false},"target":[{"userId":15092483,"content":"{\"tel_phone\":\"95533\"}","showNum":0,"clickNum":0,"convertNum":0,"consume":0.00,"clickRatio":"0.00%","cpc":"0.00","convertRatio":0.0,"planId":100851122,"planName":"门票价格_华南_phrase测异步专用","isPaused":1,"reviewState":0,"frontState":0,"isPromotionAbnormal":false,"unitId":449418040,"unitName":"14850_广东_韶关_南岭国家森林公","planIsDelete":0,"unitIsDelete":0,"id":237920401,"idStr":"237920401","styleType":1002,"level":17},{"userId":15092483,"content":"{\"tel_phone\":\"95533\"}","showNum":0,"clickNum":0,"convertNum":0,"consume":0.00,"clickRatio":"0.00%","cpc":"0.00","convertRatio":0.0,"planId":100851122,"planName":"门票价格_华南_phrase测异步专用","isPaused":1,"reviewState":0,"frontState":0,"isPromotionAbnormal":false,"unitId":449418043,"unitName":"1786435_河南_安阳_紫海情缘薰","planIsDelete":0,"unitIsDelete":0,"id":237920402,"idStr":"237920402","styleType":1002,"level":17},{"userId":15092483,"content":"{\"tel_phone\":\"95533\"}","showNum":0,"clickNum":0,"convertNum":0,"consume":0.00,"clickRatio":"0.00%","cpc":"0.00","convertRatio":0.0,"planId":100851122,"planName":"门票价格_华南_phrase测异步专用","isPaused":1,"reviewState":0,"frontState":0,"isPromotionAbnormal":false,"unitId":449418042,"unitName":"1413507_广东_惠州_千帆会帆船体","planIsDelete":0,"unitIsDelete":0,"id":237920403,"idStr":"237920403","styleType":1002,"level":17},{"userId":15092483,"content":"{\"tel_phone\":\"95533\"}","showNum":0,"clickNum":0,"convertNum":0,"consume":0.00,"clickRatio":"0.00%","cpc":"0.00","convertRatio":0.0,"planId":100851122,"planName":"门票价格_华南_phrase测异步专用","isPaused":1,"reviewState":0,"frontState":0,"isPromotionAbnormal":false,"unitId":449418045,"unitName":"70100_海南_万宁_金日酒店小鱼温","planIsDelete":0,"unitIsDelete":0,"id":237920404,"idStr":"237920404","styleType":1002,"level":17},{"userId":15092483,"content":"{\"tel_phone\":\"95533\"}","showNum":0,"clickNum":0,"convertNum":0,"consume":0.00,"clickRatio":"0.00%","cpc":"0.00","convertRatio":0.0,"planId":100851122,"planName":"门票价格_华南_phrase测异步专用","isPaused":1,"reviewState":0,"frontState":0,"isPromotionAbnormal":false,"unitId":449418044,"unitName":"136093_广东_惠州水帘洞漂流","planIsDelete":0,"unitIsDelete":0,"id":237920405,"idStr":"237920405","styleType":1002,"level":17},{"userId":15092483,"content":"{\"tel_phone\":\"95533\"}","showNum":0,"clickNum":0,"convertNum":0,"consume":0.00,"clickRatio":"0.00%","cpc":"0.00","convertRatio":0.0,"planId":100851122,"planName":"门票价格_华南_phrase测异步专用","isPaused":1,"reviewState":0,"frontState":0,"isPromotionAbnormal":false,"unitId":449418047,"unitName":"1407200_福建_福州_白沙湾生态农","planIsDelete":0,"unitIsDelete":0,"id":237920406,"idStr":"237920406","styleType":1002,"level":17},{"userId":15092483,"content":"{\"tel_phone\":\"95533\"}","showNum":0,"clickNum":0,"convertNum":0,"consume":0.00,"clickRatio":"0.00%","cpc":"0.00","convertRatio":0.0,"planId":100851122,"planName":"门票价格_华南_phrase测异步专用","isPaused":1,"reviewState":0,"frontState":0,"isPromotionAbnormal":false,"unitId":449418046,"unitName":"122309_广东_深圳_黄金海岸环岛","planIsDelete":0,"unitIsDelete":0,"id":237920407,"idStr":"237920407","styleType":1002,"level":17},{"userId":15092483,"content":"{\"tel_phone\":\"95533\"}","showNum":0,"clickNum":0,"convertNum":0,"consume":0.00,"clickRatio":"0.00%","cpc":"0.00","convertRatio":0.0,"planId":100851122,"planName":"门票价格_华南_phrase测异步专用","isPaused":1,"reviewState":0,"frontState":0,"isPromotionAbnormal":false,"unitId":449418033,"unitName":"135794_广东_广州_长隆旅游度假","planIsDelete":0,"unitIsDelete":0,"id":237920408,"idStr":"237920408","styleType":1002,"level":17},{"userId":15092483,"content":"{\"tel_phone\":\"95533\"}","showNum":0,"clickNum":0,"convertNum":0,"consume":0.00,"clickRatio":"0.00%","cpc":"0.00","convertRatio":0.0,"planId":100851122,"planName":"门票价格_华南_phrase测异步专用","isPaused":1,"reviewState":0,"frontState":0,"isPromotionAbnormal":false,"unitId":449418032,"unitName":"126508_福建_莆田_九龙谷森林公","planIsDelete":0,"unitIsDelete":0,"id":237920409,"idStr":"237920409","styleType":1002,"level":17},{"userId":15092483,"content":"{\"tel_phone\":\"95533\"}","showNum":0,"clickNum":0,"convertNum":0,"consume":0.00,"clickRatio":"0.00%","cpc":"0.00","convertRatio":0.0,"planId":100851122,"planName":"门票价格_华南_phrase测异步专用","isPaused":1,"reviewState":0,"frontState":0,"isPromotionAbnormal":false,"unitId":449418035,"unitName":"1412031_广东_梅州_上举客家相思","planIsDelete":0,"unitIsDelete":0,"id":237920410,"idStr":"237920410","styleType":1002,"level":17},{"userId":15092483,"content":"{\"tel_phone\":\"95533\"}","showNum":0,"clickNum":0,"convertNum":0,"consume":0.00,"clickRatio":"0.00%","cpc":"0.00","convertRatio":0.0,"planId":100851122,"planName":"门票价格_华南_phrase测异步专用","isPaused":1,"reviewState":0,"frontState":0,"isPromotionAbnormal":false,"unitId":449418034,"unitName":"74247_海南_三亚_热带天堂森林公","planIsDelete":0,"unitIsDelete":0,"id":237920411,"idStr":"237920411","styleType":1002,"level":17},{"userId":15092483,"content":"{\"tel_phone\":\"95533\"}","showNum":0,"clickNum":0,"convertNum":0,"consume":0.00,"clickRatio":"0.00%","cpc":"0.00","convertRatio":0.0,"planId":100851122,"planName":"门票价格_华南_phrase测异步专用","isPaused":1,"reviewState":0,"frontState":0,"isPromotionAbnormal":false,"unitId":449418037,"unitName":"70172_海南_三亚_扬帆号夜游三亚","planIsDelete":0,"unitIsDelete":0,"id":237920412,"idStr":"237920412","styleType":1002,"level":17},{"userId":15092483,"content":"{\"tel_phone\":\"95533\"}","showNum":0,"clickNum":0,"convertNum":0,"consume":0.00,"clickRatio":"0.00%","cpc":"0.00","convertRatio":0.0,"planId":100851122,"planName":"门票价格_华南_phrase测异步专用","isPaused":1,"reviewState":0,"frontState":0,"isPromotionAbnormal":false,"unitId":449418036,"unitName":"107587_海南_三亚_亚龙湾海底世","planIsDelete":0,"unitIsDelete":0,"id":237920413,"idStr":"237920413","styleType":1002,"level":17},{"userId":15092483,"content":"{\"tel_phone\":\"95533\"}","showNum":0,"clickNum":0,"convertNum":0,"consume":0.00,"clickRatio":"0.00%","cpc":"0.00","convertRatio":0.0,"planId":100851122,"planName":"门票价格_华南_phrase测异步专用","isPaused":1,"reviewState":0,"frontState":0,"isPromotionAbnormal":false,"unitId":449418039,"unitName":"126503_福建_宁德_牛郎岗海滨景","planIsDelete":0,"unitIsDelete":0,"id":237920414,"idStr":"237920414","styleType":1002,"level":17},{"userId":15092483,"content":"{\"tel_phone\":\"95533\"}","showNum":0,"clickNum":0,"convertNum":0,"consume":0.00,"clickRatio":"0.00%","cpc":"0.00","convertRatio":0.0,"planId":100851122,"planName":"门票价格_华南_phrase测异步专用","isPaused":1,"reviewState":0,"frontState":0,"isPromotionAbnormal":false,"unitId":449418038,"unitName":"70175_海南_保亭_七仙瑶池野溪温","planIsDelete":0,"unitIsDelete":0,"id":237920415,"idStr":"237920415","styleType":1002,"level":17},{"userId":15092483,"content":"{\"tel_phone\":\"13833322555\"}","showNum":0,"clickNum":0,"convertNum":0,"consume":0.00,"clickRatio":"0.00%","cpc":"0.00","convertRatio":0.0,"planId":101570637,"planName":"20170623-test-fff","isPaused":1,"reviewState":0,"frontState":0,"isPromotionAbnormal":false,"unitId":484529710,"unitName":"test_unit_1","planIsDelete":0,"unitIsDelete":0,"id":241099796,"idStr":"241099796","styleType":1002,"level":17},{"userId":15092483,"content":"{\"tel_phone\":\"13833322555\"}","showNum":0,"clickNum":0,"convertNum":0,"consume":0.00,"clickRatio":"0.00%","cpc":"0.00","convertRatio":0.0,"planId":101570637,"planName":"20170623-test-fff","isPaused":0,"reviewState":0,"frontState":5,"isPromotionAbnormal":true,"unitId":484529713,"unitName":"test_unit_2","planIsDelete":0,"unitIsDelete":0,"id":242676623,"idStr":"242676623","styleType":1002,"level":17},{"userId":15092483,"content":"{\"tel_phone\":\"4009008888\"}","showNum":2,"clickNum":0,"convertNum":0,"consume":0.00,"clickRatio":"0.00%","cpc":"0","convertRatio":0.0,"planId":101073760,"planName":"鹿晗>>>","isPaused":1,"reviewState":0,"frontState":0,"isPromotionAbnormal":false,"unitId":488707502,"unitName":"UI优化","planIsDelete":0,"unitIsDelete":0,"id":242878768,"idStr":"242878768","styleType":1002,"level":17},{"userId":15092483,"content":"{\"tel_phone\":\"12345\"}","showNum":0,"clickNum":0,"convertNum":0,"consume":0.00,"clickRatio":"0.00%","cpc":"0.00","convertRatio":0.0,"planId":101708331,"planName":"newest","isPaused":0,"reviewState":0,"frontState":5,"isPromotionAbnormal":true,"unitId":491456826,"unitName":"阿萨德","planIsDelete":0,"unitIsDelete":0,"id":243962353,"idStr":"243962353","styleType":1002,"level":17},{"userId":15092483,"content":"{\"tel_phone\":\"12341\"}","showNum":0,"clickNum":0,"convertNum":0,"consume":0.00,"clickRatio":"0.00%","cpc":"0.00","convertRatio":0.0,"planId":101738041,"planName":"23333333333333","isPaused":0,"reviewState":0,"frontState":5,"isPromotionAbnormal":true,"unitId":492724047,"unitName":"阿萨德","planIsDelete":0,"unitIsDelete":0,"id":244390700,"idStr":"244390700","styleType":1002,"level":17}]},"success":true}