{"status":0,"data":{"queryCondition":{"ascend":false,"totalSize":6285,"pageSize":20,"currentPage":1,"totalPage":315,"firstResult":0,"isQueryAll":false},"target":[{"userId":15092483,"content":"{\"title\":\"{#region#}ff推广,让你找到客户124\",\"pic_img\":\"http://image-ad.sm.cn/admaterial/idea_15092483_8ffceb663bfca5629fcd3326b2b8e33911223b70.png\",\"desc1_text\":\"中小企业的营销方式\",\"desc2_text\":\"专注移动搜索营销\",\"desc3_text\":\"高效、优质、精准\",\"show_url\":\"e.sm.cn\",\"target_url\":\"https://e.sm.cn/asdf\",\"tel_phone\":\"\"}","showNum":0,"clickNum":0,"convertNum":0,"consume":0.00,"clickRatio":"0.00%","cpc":"0.00","convertRatio":0.0,"planId":100851122,"planName":"门票价格_华南_phrase测异步专用","isPaused":0,"reviewState":1102,"frontState":2,"isPromotionAbnormal":false,"unitId":449423122,"unitName":"126715_河南_隋唐洛阳城国家遗址","planIsDelete":0,"unitIsDelete":0,"id":50000000146303215,"idStr":"50000000146303215","styleType":10,"level":11},{"userId":15092483,"content":"{\"title\":\"开了家咖啡店金坷垃124\",\"pic_img\":\"http://image-ad.sm.cn/admaterial/idea_15092483_8ffceb663bfca5629fcd3326b2b8e33911223b70.png\",\"desc1_text\":\"暗杀水电费萨达水电费12\",\"desc2_text\":\"而地方官方答复发的\",\"desc3_text\":\"噶是的发生都是啊是\",\"show_url\":\"1111.sm.cn\",\"target_url\":\"http://e.sm.cn/adsf/asdf\",\"tel_phone\":\"12345\"}","showNum":0,"clickNum":0,"convertNum":0,"consume":0.00,"clickRatio":"0.00%","cpc":"0.00","convertRatio":0.0,"planId":101391049,"planName":"预发环境","isPaused":0,"reviewState":1122,"frontState":2,"isPromotionAbnormal":false,"unitId":476145141,"unitName":"阿萨德","planIsDelete":0,"unitIsDelete":0,"id":50000000146328445,"idStr":"50000000146328445","styleType":10,"level":11},{"userId":15092483,"content":"{\"title\":\"{#region#}呼呼推广,让你找到客户4\",\"pic_img\":\"http://image-ad.sm.cn/admaterial/idea_15092483_dc9dcbcc683725ec2adabce909eb7d0b2502bf2e.jpg\",\"desc1_text\":\"中小企业de营销方式\",\"desc2_text\":\"专注移动搜索营销\",\"desc3_text\":\"高效、优质、精准\",\"show_url\":\"e.sm.cn\",\"target_url\":\"https://e.sm.cn\",\"tel_phone\":\"4009008888\"}","showNum":0,"clickNum":0,"convertNum":0,"consume":0.00,"clickRatio":"0.00%","cpc":"0.00","convertRatio":0.0,"planId":101073760,"planName":"鹿晗>>>","isPaused":1,"reviewState":0,"frontState":0,"isPromotionAbnormal":false,"unitId":460829883,"unitName":"测试3","planIsDelete":0,"unitIsDelete":0,"id":50000000148981386,"idStr":"50000000148981386","styleType":10,"level":11},{"userId":15092483,"content":"{\"title\":\"{#region#}呼呼推广,让你找到客户\",\"pic_img\":\"http://image-ad.sm.cn/admaterial/idea_15092483_dc9dcbcc683725ec2adabce909eb7d0b2502bf2e.jpg\",\"desc1_text\":\"中小企业de营销方式\",\"desc2_text\":\"专注移动搜索营销\",\"desc3_text\":\"高效、优质、精准\",\"show_url\":\"e.sm.cn\",\"target_url\":\"https://e.sm.cn\",\"tel_phone\":\"4009008888\"}","showNum":0,"clickNum":0,"convertNum":0,"consume":0.00,"clickRatio":"0.00%","cpc":"0.00","convertRatio":0.0,"planId":101073760,"planName":"鹿晗>>>","isPaused":1,"reviewState":0,"frontState":0,"isPromotionAbnormal":false,"unitId":460829881,"unitName":"测试1","planIsDelete":0,"unitIsDelete":0,"id":50000000148981388,"idStr":"50000000148981388","styleType":10,"level":11},{"userId":15092483,"content":"{\"title\":\"开了家咖啡店金坷垃124{#region#}\",\"pic_img\":\"http://image-ad.sm.cn/admaterial/idea_15092483_8ffceb663bfca5629fcd3326b2b8e33911223b70.png\",\"desc1_text\":\"暗杀水电费萨达水电费{}12{#region#}\",\"desc2_text\":\"而地方{#region#}dd答复发的\",\"desc3_text\":\"噶是的发生都是啊是{#region#}\",\"show_url\":\"e.sm.cn\",\"target_url\":\"http://e.sm.cn\",\"tel_phone\":\"12345\"}","showNum":0,"clickNum":0,"convertNum":0,"consume":0.00,"clickRatio":"0.00%","cpc":"0.00","convertRatio":0.0,"planId":101073760,"planName":"鹿晗>>>","isPaused":1,"reviewState":0,"frontState":0,"isPromotionAbnormal":false,"unitId":460829881,"unitName":"测试1","planIsDelete":0,"unitIsDelete":0,"id":50000000159931154,"idStr":"50000000159931154","styleType":10,"level":11},{"userId":15092483,"content":"{\"title\":\"{#region#}呼呼推广,让你找到客户4\",\"pic_img\":\"http://image-ad.sm.cn/admaterial/idea_15092483_dc9dcbcc683725ec2adabce909eb7d0b2502bf2e.jpg\",\"desc1_text\":\"中小企业de营销方式\",\"desc2_text\":\"专注移动搜索营销\",\"desc3_text\":\"高效、优质、精准\",\"show_url\":\"e.sm.cn\",\"target_url\":\"https://e.sm.cn\",\"tel_phone\":\"4009008888\"}","showNum":0,"clickNum":0,"convertNum":0,"consume":0.00,"clickRatio":"0.00%","cpc":"0.00","convertRatio":0.0,"planId":101073760,"planName":"鹿晗>>>","isPaused":1,"reviewState":0,"frontState":0,"isPromotionAbnormal":false,"unitId":460829881,"unitName":"测试1","planIsDelete":0,"unitIsDelete":0,"id":50000000159931155,"idStr":"50000000159931155","styleType":10,"level":11},{"userId":15092483,"content":"{\"title\":\"开了家咖啡店金坷垃124{#region#}\",\"pic_img\":\"http://image-ad.sm.cn/admaterial/idea_15092483_8ffceb663bfca5629fcd3326b2b8e33911223b70.png\",\"desc1_text\":\"暗杀水电费萨达水电费{}12{#region#}\",\"desc2_text\":\"而地方{#region#}dd答复发的\",\"desc3_text\":\"噶是的发生都是啊是{#region#}\",\"show_url\":\"e.sm.cn\",\"target_url\":\"http://e.sm.cn\",\"tel_phone\":\"12345\"}","showNum":0,"clickNum":0,"convertNum":0,"consume":0.00,"clickRatio":"0.00%","cpc":"0.00","convertRatio":0.0,"planId":101073760,"planName":"鹿晗>>>","isPaused":1,"reviewState":0,"frontState":0,"isPromotionAbnormal":false,"unitId":460829882,"unitName":"测试2","planIsDelete":0,"unitIsDelete":0,"id":50000000159931156,"idStr":"50000000159931156","styleType":10,"level":11},{"userId":15092483,"content":"{\"title\":\"{#region#}呼呼推广,让你找到客户4\",\"pic_img\":\"http://image-ad.sm.cn/admaterial/idea_15092483_dc9dcbcc683725ec2adabce909eb7d0b2502bf2e.jpg\",\"desc1_text\":\"中小企业de营销方式\",\"desc2_text\":\"专注移动搜索营销\",\"desc3_text\":\"高效、优质、精准\",\"show_url\":\"e.sm.cn\",\"target_url\":\"https://e.sm.cn\",\"tel_phone\":\"4009008888\"}","showNum":0,"clickNum":0,"convertNum":0,"consume":0.00,"clickRatio":"0.00%","cpc":"0.00","convertRatio":0.0,"planId":101073760,"planName":"鹿晗>>>","isPaused":1,"reviewState":0,"frontState":0,"isPromotionAbnormal":false,"unitId":460829882,"unitName":"测试2","planIsDelete":0,"unitIsDelete":0,"id":50000000159931157,"idStr":"50000000159931157","styleType":10,"level":11},{"userId":15092483,"content":"{\"title\":\"开了家咖啡店金坷垃124{#region#}\",\"pic_img\":\"http://image-ad.sm.cn/admaterial/idea_15092483_8ffceb663bfca5629fcd3326b2b8e33911223b70.png\",\"desc1_text\":\"暗杀水电费萨达水电费{}12{#region#}\",\"desc2_text\":\"而地方{#region#}dd答复发的\",\"desc3_text\":\"噶是的发生都是啊是{#region#}\",\"show_url\":\"e.sm.cn\",\"target_url\":\"http://e.sm.cn\",\"tel_phone\":\"12345\"}","showNum":0,"clickNum":0,"convertNum":0,"consume":0.00,"clickRatio":"0.00%","cpc":"0.00","convertRatio":0.0,"planId":101073760,"planName":"鹿晗>>>","isPaused":1,"reviewState":0,"frontState":0,"isPromotionAbnormal":false,"unitId":460829884,"unitName":"测试4","planIsDelete":0,"unitIsDelete":0,"id":50000000159931158,"idStr":"50000000159931158","styleType":10,"level":11},{"userId":15092483,"content":"{\"title\":\"{#region#}呼呼推广,让你找到客户4\",\"pic_img\":\"http://image-ad.sm.cn/admaterial/idea_15092483_dc9dcbcc683725ec2adabce909eb7d0b2502bf2e.jpg\",\"desc1_text\":\"中小企业de营销方式\",\"desc2_text\":\"专注移动搜索营销\",\"desc3_text\":\"高效、优质、精准\",\"show_url\":\"e.sm.cn\",\"target_url\":\"https://e.sm.cn\",\"tel_phone\":\"4009008888\"}","showNum":0,"clickNum":0,"convertNum":0,"consume":0.00,"clickRatio":"0.00%","cpc":"0.00","convertRatio":0.0,"planId":101073760,"planName":"鹿晗>>>","isPaused":1,"reviewState":0,"frontState":0,"isPromotionAbnormal":false,"unitId":460829884,"unitName":"测试4","planIsDelete":0,"unitIsDelete":0,"id":50000000159931159,"idStr":"50000000159931159","styleType":10,"level":11},{"userId":15092483,"content":"{\"title\":\"开了家咖啡店金坷垃124{#region#}\",\"pic_img\":\"http://image-ad.sm.cn/admaterial/idea_15092483_8ffceb663bfca5629fcd3326b2b8e33911223b70.png\",\"desc1_text\":\"暗杀水电费萨达水电费{}12{#region#}\",\"desc2_text\":\"而地方{#region#}dd答复发的\",\"desc3_text\":\"噶是的发生都是啊是{#region#}\",\"show_url\":\"e.sm.cn\",\"target_url\":\"http://e.sm.cn\",\"tel_phone\":\"12345\"}","showNum":0,"clickNum":0,"convertNum":0,"consume":0.00,"clickRatio":"0.00%","cpc":"0.00","convertRatio":0.0,"planId":101073760,"planName":"鹿晗>>>","isPaused":1,"reviewState":0,"frontState":0,"isPromotionAbnormal":false,"unitId":460829885,"unitName":"测试5","planIsDelete":0,"unitIsDelete":0,"id":50000000159931160,"idStr":"50000000159931160","styleType":10,"level":11},{"userId":15092483,"content":"{\"title\":\"{#region#}呼呼推广,让你找到客户4\",\"pic_img\":\"http://image-ad.sm.cn/admaterial/idea_15092483_dc9dcbcc683725ec2adabce909eb7d0b2502bf2e.jpg\",\"desc1_text\":\"中小企业de营销方式\",\"desc2_text\":\"专注移动搜索营销\",\"desc3_text\":\"高效、优质、精准\",\"show_url\":\"e.sm.cn\",\"target_url\":\"https://e.sm.cn\",\"tel_phone\":\"4009008888\"}","showNum":0,"clickNum":0,"convertNum":0,"consume":0.00,"clickRatio":"0.00%","cpc":"0.00","convertRatio":0.0,"planId":101073760,"planName":"鹿晗>>>","isPaused":1,"reviewState":0,"frontState":0,"isPromotionAbnormal":false,"unitId":460829885,"unitName":"测试5","planIsDelete":0,"unitIsDelete":0,"id":50000000159931161,"idStr":"50000000159931161","styleType":10,"level":11},{"userId":15092483,"content":"{\"title\":\"鲜花专卖店2个小时送货还有图片\",\"pic_img\":\"http://image-ad.sm.cn/admaterial/idea_15092483_524a08d6ef558a6a21adfa7ce5e4285058fe2abf.jpg\",\"desc1_text\":\"多么新鲜的鲜花啊啊啊啊\",\"desc2_text\":\"222最新鲜的鲜花2\",\"desc3_text\":\"33333最新鲜的鲜花3\",\"show_url\":\"e.sm.cn\",\"target_url\":\"http://e.sm.cn\",\"tel_phone\":\"\"}","showNum":0,"clickNum":0,"convertNum":0,"consume":0.00,"clickRatio":"0.00%","cpc":"0.00","convertRatio":0.0,"planId":101570637,"planName":"20170623-test-fff","isPaused":0,"reviewState":0,"frontState":5,"isPromotionAbnormal":true,"unitId":484529710,"unitName":"test_unit_1","planIsDelete":0,"unitIsDelete":0,"id":50000000160472918,"idStr":"50000000160472918","styleType":10,"level":11},{"userId":15092483,"content":"{\"title\":\"图文混排图文混排图文混排\",\"pic_img\":\"http://image-ad.sm.cn/admaterial/idea_15092483_fb915f078a46344a135824a6fb8f54f99c5f59c7.jpg\",\"desc1_text\":\"添加图文混排添加图文混排\",\"desc2_text\":\"添加图文混排添加图文混排\",\"desc3_text\":\"添加图文混排添加图文混排\",\"show_url\":\"e.sm.cn\",\"target_url\":\"https://e.sm.cn\",\"tel_phone\":\"028-83231212\"}","showNum":0,"clickNum":0,"convertNum":0,"consume":0.00,"clickRatio":"0.00%","cpc":"0.00","convertRatio":0.0,"planId":101433090,"planName":"(勿删勿改!!!)线上监控用","isPaused":0,"reviewState":0,"frontState":5,"isPromotionAbnormal":true,"unitId":478075940,"unitName":"线上监控用_更新流","planIsDelete":0,"unitIsDelete":0,"id":50000000160558218,"idStr":"50000000160558218","styleType":10,"level":11},{"userId":15092483,"content":"{\"title\":\"鲜花专卖店2个小时送货还有图片\",\"pic_img\":\"http://image-ad.sm.cn/admaterial/idea_15092483_524a08d6ef558a6a21adfa7ce5e4285058fe2abf.jpg\",\"desc1_text\":\"多么新鲜的鲜花啊啊啊啊\",\"desc2_text\":\"222最新鲜的鲜花2\",\"desc3_text\":\"33333最新鲜的鲜花3\",\"show_url\":\"e.sm.cn\",\"target_url\":\"http://e.sm.cn\",\"tel_phone\":\"\"}","showNum":0,"clickNum":0,"convertNum":0,"consume":0.00,"clickRatio":"0.00%","cpc":"0.00","convertRatio":0.0,"planId":101570637,"planName":"20170623-test-fff","isPaused":0,"reviewState":0,"frontState":5,"isPromotionAbnormal":true,"unitId":484529713,"unitName":"test_unit_2","planIsDelete":0,"unitIsDelete":0,"id":50000000160827329,"idStr":"50000000160827329","styleType":10,"level":11},{"userId":15092483,"content":"{\"title\":\"阿斯顿发送到发萨达\",\"pic_img\":\"http://image-ad.sm.cn/admaterial/idea_15092483_c745949093357a4646ab439408842a2e74d752d8.png\",\"desc1_text\":\"暗杀水电费萨达水电费阿斯蒂芬\",\"desc2_text\":\"而地方官方答复发的123\",\"desc3_text\":\"噶是的发生都是啊是大师傅\",\"show_url\":\"1e.sm.cn\",\"target_url\":\"http://e.sm.cn/asdf\",\"tel_phone\":\"\"}","showNum":0,"clickNum":0,"convertNum":0,"consume":0.00,"clickRatio":"0.00%","cpc":"0.00","convertRatio":0.0,"planId":101708331,"planName":"newest","isPaused":0,"reviewState":1122,"frontState":2,"isPromotionAbnormal":false,"unitId":491456826,"unitName":"阿萨德","planIsDelete":0,"unitIsDelete":0,"id":50000000161479928,"idStr":"50000000161479928","styleType":10,"level":11},{"userId":15092483,"content":"{\"title\":\"阿斯顿发送到发萨达\",\"pic_img\":\"http://image-ad.sm.cn/admaterial/idea_15092483_c745949093357a4646ab439408842a2e74d752d8.png\",\"desc1_text\":\"暗杀水电费萨达水电费阿斯蒂芬\",\"desc2_text\":\"而地方官方答复发的123\",\"desc3_text\":\"噶是的发生都是啊是大师傅\",\"show_url\":\"1e.sm.cn\",\"target_url\":\"http://e.sm.cn/asdf\",\"tel_phone\":\"\"}","showNum":0,"clickNum":0,"convertNum":0,"consume":0.00,"clickRatio":"0.00%","cpc":"0.00","convertRatio":0.0,"planId":101708331,"planName":"newest","isPaused":0,"reviewState":1122,"frontState":2,"isPromotionAbnormal":false,"unitId":491456826,"unitName":"阿萨德","planIsDelete":0,"unitIsDelete":0,"id":50000000161479929,"idStr":"50000000161479929","styleType":10,"level":11},{"userId":15092483,"content":"{\"title\":\"开了家咖啡店地方\",\"pic_img\":\"http://image-ad.sm.cn/admaterial/idea_15092483_8ffceb663bfca5629fcd3326b2b8e33911223b70.png\",\"desc1_text\":\"暗杀水电费萨达水电费\",\"desc2_text\":\"而地方2143答复发的\",\"desc3_text\":\"噶是的发生都是啊是\",\"show_url\":\"e.sm.cn\",\"target_url\":\"http://e.sm.cn\",\"tel_phone\":\"12345\"}","showNum":0,"clickNum":0,"convertNum":0,"consume":0.00,"clickRatio":"0.00%","cpc":"0.00","convertRatio":0.0,"planId":101738041,"planName":"23333333333333","isPaused":0,"reviewState":0,"frontState":5,"isPromotionAbnormal":true,"unitId":492724047,"unitName":"阿萨德","planIsDelete":0,"unitIsDelete":0,"id":50000000161888346,"idStr":"50000000161888346","styleType":10,"level":11},{"userId":15092483,"content":"{\"title\":\"开了家咖啡店地方\",\"pic_img\":\"http://image-ad.sm.cn/admaterial/idea_15092483_8ffceb663bfca5629fcd3326b2b8e33911223b70.png\",\"desc1_text\":\"暗杀水电费萨达水电费\",\"desc2_text\":\"而地方2143答复发的\",\"desc3_text\":\"噶是的发生都是啊是\",\"show_url\":\"e.sm.cn\",\"target_url\":\"http://e.sm.cn\",\"tel_phone\":\"12345\"}","showNum":0,"clickNum":0,"convertNum":0,"consume":0.00,"clickRatio":"0.00%","cpc":"0.00","convertRatio":0.0,"planId":101738041,"planName":"23333333333333","isPaused":0,"reviewState":0,"frontState":5,"isPromotionAbnormal":true,"unitId":492724047,"unitName":"阿萨德","planIsDelete":0,"unitIsDelete":0,"id":50000000161888850,"idStr":"50000000161888850","styleType":10,"level":11},{"userId":15092483,"content":"{\"title\":\"鲜花专卖店2个小时送货还有图片\",\"pic_img\":\"http://image-ad.sm.cn/admaterial/idea_15092483_524a08d6ef558a6a21adfa7ce5e4285058fe2abf.jpg\",\"desc1_text\":\"多么新鲜的鲜花啊啊啊啊\",\"desc2_text\":\"222最新鲜的鲜花2\",\"desc3_text\":\"33333最新鲜的鲜花3\",\"show_url\":\"e.sm.cn\",\"target_url\":\"http://e.sm.cn\",\"tel_phone\":\"\"}","showNum":0,"clickNum":0,"convertNum":0,"consume":0.00,"clickRatio":"0.00%","cpc":"0.00","convertRatio":0.0,"planId":101073760,"planName":"鹿晗>>>","isPaused":1,"reviewState":0,"frontState":0,"isPromotionAbnormal":false,"unitId":488707502,"unitName":"UI优化","planIsDelete":0,"unitIsDelete":0,"id":50000000162707284,"idStr":"50000000162707284","styleType":10,"level":11}]},"success":true}