{
"status": 0,
"data": {
"queryCondition": {
"ascend": false,
"totalSize": 25,
"pageSize": 20,
"currentPage": 1,
"totalPage": 2,
"firstResult": 0,
"isQueryAll": false
},
"target": [
{
"userId": 15092483,
"content": "{\"1_consult_url\":\"https://kuaishang.cn\"}",
"showNum": 0,
"clickNum": 0,
"convertNum": 0,
"consume": 0,
"clickRatio": "0.00%",
"cpc": "0.00",
"convertRatio": 0,
"planId": 101073760,
"planName": "鹿晗>>>",
"isPaused": 0,
"reviewState": 0,
"frontState": 5,
"isPromotionAbnormal": true,
"unitId": 512290603,
"unitName": "新模板验证",
"planIsDelete": 0,
"unitIsDelete": 0,
"id": 2002729074,
"idStr": "2002729074",
"styleType": 1004,
"level": 17
},
{
"userId": 15092483,
"content": "{\"1_consult_url\":\"https://kuaishang.cn\"}",
"showNum": 0,
"clickNum": 0,
"convertNum": 0,
"consume": 0,
"clickRatio": "0.00%",
"cpc": "0.00",
"convertRatio": 0,
"planId": 101073760,
"planName": "鹿晗>>>",
"isPaused": 0,
"reviewState": 0,
"frontState": 5,
"isPromotionAbnormal": true,
"unitId": 512290604,
"unitName": "新模板验证2",
"planIsDelete": 0,
"unitIsDelete": 0,
"id": 2002729075,
"idStr": "2002729075",
"styleType": 1004,
"level": 17
},
{
"userId": 15092483,
"content": "{\"1_consult_url\":\"https://kuaishang.cn\"}",
"showNum": 0,
"clickNum": 0,
"convertNum": 0,
"consume": 0,
"clickRatio": "0.00%",
"cpc": "0.00",
"convertRatio": 0,
"planId": 101073760,
"planName": "鹿晗>>>",
"isPaused": 0,
"reviewState": 0,
"frontState": 5,
"isPromotionAbnormal": true,
"unitId": 502791986,
"unitName": "产品详情手动",
"planIsDelete": 0,
"unitIsDelete": 0,
"id": 2002729076,
"idStr": "2002729076",
"styleType": 1004,
"level": 17
},
{
"userId": 15092483,
"content": "{\"1_consult_url\":\"https://kuaishang.cn\"}",
"showNum": 0,
"clickNum": 0,
"convertNum": 0,
"consume": 0,
"clickRatio": "0.00%",
"cpc": "0.00",
"convertRatio": 0,
"planId": 101073760,
"planName": "鹿晗>>>",
"isPaused": 0,
"reviewState": 0,
"frontState": 5,
"isPromotionAbnormal": true,
"unitId": 509973248,
"unitName": "ddddd",
"planIsDelete": 0,
"unitIsDelete": 0,
"id": 2002729077,
"idStr": "2002729077",
"styleType": 1004,
"level": 17
},
{
"userId": 15092483,
"content": "{\"1_consult_url\":\"https://kuaishang.cn\"}",
"showNum": 0,
"clickNum": 0,
"convertNum": 0,
"consume": 0,
"clickRatio": "0.00%",
"cpc": "0.00",
"convertRatio": 0,
"planId": 101073760,
"planName": "鹿晗>>>",
"isPaused": 0,
"reviewState": 0,
"frontState": 5,
"isPromotionAbnormal": true,
"unitId": 502791985,
"unitName": "产品详情AndroidiOS",
"planIsDelete": 0,
"unitIsDelete": 0,
"id": 2002729078,
"idStr": "2002729078",
"styleType": 1004,
"level": 17
},
{
"userId": 15092483,
"content": "{\"1_consult_url\":\"https://kuaishang.cn\"}",
"showNum": 0,
"clickNum": 0,
"convertNum": 0,
"consume": 0,
"clickRatio": "0.00%",
"cpc": "0.00",
"convertRatio": 0,
"planId": 101073760,
"planName": "鹿晗>>>",
"isPaused": 0,
"reviewState": 0,
"frontState": 5,
"isPromotionAbnormal": true,
"unitId": 460829885,
"unitName": "产品详情iOS",
"planIsDelete": 0,
"unitIsDelete": 0,
"id": 2002729079,
"idStr": "2002729079",
"styleType": 1004,
"level": 17
},
{
"userId": 15092483,
"content": "{\"1_consult_url\":\"https://kuaishang.cn\"}",
"showNum": 0,
"clickNum": 0,
"convertNum": 0,
"consume": 0,
"clickRatio": "0.00%",
"cpc": "0.00",
"convertRatio": 0,
"planId": 101073760,
"planName": "鹿晗>>>",
"isPaused": 0,
"reviewState": 0,
"frontState": 5,
"isPromotionAbnormal": true,
"unitId": 460829884,
"unitName": "产品详情Android",
"planIsDelete": 0,
"unitIsDelete": 0,
"id": 2002729080,
"idStr": "2002729080",
"styleType": 1004,
"level": 17
},
{
"userId": 15092483,
"content": "{\"1_consult_url\":\"https://kuaishang.cn\"}",
"showNum": 0,
"clickNum": 0,
"convertNum": 0,
"consume": 0,
"clickRatio": "0.00%",
"cpc": "0.00",
"convertRatio": 0,
"planId": 101073760,
"planName": "鹿晗>>>",
"isPaused": 0,
"reviewState": 1200,
"frontState": 2,
"isPromotionAbnormal": false,
"unitId": 460829883,
"unitName": "APP拆分附加APP手动",
"planIsDelete": 0,
"unitIsDelete": 0,
"id": 2002729081,
"idStr": "2002729081",
"styleType": 1004,
"level": 17
},
{
"userId": 15092483,
"content": "{\"1_consult_url\":\"https://kuaishang.cn\"}",
"showNum": 0,
"clickNum": 0,
"convertNum": 0,
"consume": 0,
"clickRatio": "0.00%",
"cpc": "0.00",
"convertRatio": 0,
"planId": 101073760,
"planName": "鹿晗>>>",
"isPaused": 0,
"reviewState": 0,
"frontState": 5,
"isPromotionAbnormal": true,
"unitId": 512009096,
"unitName": "异常情况测试",
"planIsDelete": 0,
"unitIsDelete": 0,
"id": 2002729082,
"idStr": "2002729082",
"styleType": 1004,
"level": 17
},
{
"userId": 15092483,
"content": "{\"1_consult_url\":\"https://kuaishang.cn\"}",
"showNum": 0,
"clickNum": 0,
"convertNum": 0,
"consume": 0,
"clickRatio": "0.00%",
"cpc": "0.00",
"convertRatio": 0,
"planId": 101073760,
"planName": "鹿晗>>>",
"isPaused": 1,
"reviewState": 0,
"frontState": 0,
"isPromotionAbnormal": false,
"unitId": 460829882,
"unitName": "APP拆分android+ios",
"planIsDelete": 0,
"unitIsDelete": 0,
"id": 2002729083,
"idStr": "2002729083",
"styleType": 1004,
"level": 17
},
{
"userId": 15092483,
"content": "{\"1_consult_url\":\"https://kuaishang.cn\"}",
"showNum": 0,
"clickNum": 0,
"convertNum": 0,
"consume": 0,
"clickRatio": "0.00%",
"cpc": "0.00",
"convertRatio": 0,
"planId": 101073760,
"planName": "鹿晗>>>",
"isPaused": 0,
"reviewState": 0,
"frontState": 5,
"isPromotionAbnormal": true,
"unitId": 502792186,
"unitName": "APP拆分附加APP手动android",
"planIsDelete": 0,
"unitIsDelete": 0,
"id": 2002729084,
"idStr": "2002729084",
"styleType": 1004,
"level": 17
},
{
"userId": 15092483,
"content": "{\"1_consult_url\":\"https://kuaishang.cn\"}",
"showNum": 0,
"clickNum": 0,
"convertNum": 0,
"consume": 0,
"clickRatio": "0.00%",
"cpc": "0.00",
"convertRatio": 0,
"planId": 101073760,
"planName": "鹿晗>>>",
"isPaused": 0,
"reviewState": 0,
"frontState": 5,
"isPromotionAbnormal": true,
"unitId": 460829881,
"unitName": "APP拆分ios",
"planIsDelete": 0,
"unitIsDelete": 0,
"id": 2002729085,
"idStr": "2002729085",
"styleType": 1004,
"level": 17
},
{
"userId": 15092483,
"content": "{\"1_consult_url\":\"https://kuaishang.cn\"}",
"showNum": 0,
"clickNum": 0,
"convertNum": 0,
"consume": 0,
"clickRatio": "0.00%",
"cpc": "0.00",
"convertRatio": 0,
"planId": 101073760,
"planName": "鹿晗>>>",
"isPaused": 0,
"reviewState": 0,
"frontState": 5,
"isPromotionAbnormal": true,
"unitId": 488707502,
"unitName": "APP拆分android",
"planIsDelete": 0,
"unitIsDelete": 0,
"id": 2002729086,
"idStr": "2002729086",
"styleType": 1004,
"level": 17
},
{
"userId": 15092483,
"content": "{\"1_consult_url\":\"https://kuaishang.cn\"}",
"showNum": 0,
"clickNum": 0,
"convertNum": 0,
"consume": 0,
"clickRatio": "0.00%",
"cpc": "0.00",
"convertRatio": 0,
"planId": 101073760,
"planName": "鹿晗>>>",
"isPaused": 0,
"reviewState": 0,
"frontState": 5,
"isPromotionAbnormal": true,
"unitId": 508845508,
"unitName": "包含推广APP",
"planIsDelete": 0,
"unitIsDelete": 0,
"id": 2002729087,
"idStr": "2002729087",
"styleType": 1004,
"level": 17
},
{
"userId": 15092483,
"content": "{\"1_consult_url\":\"https://kuaishang.cn\"}",
"showNum": 0,
"clickNum": 0,
"convertNum": 0,
"consume": 0,
"clickRatio": "0.00%",
"cpc": "0.00",
"convertRatio": 0,
"planId": 101073760,
"planName": "鹿晗>>>",
"isPaused": 0,
"reviewState": 0,
"frontState": 5,
"isPromotionAbnormal": true,
"unitId": 508833990,
"unitName": "APP拆分附加APP手动ios",
"planIsDelete": 0,
"unitIsDelete": 0,
"id": 2002729088,
"idStr": "2002729088",
"styleType": 1004,
"level": 17
},
{
"userId": 15092483,
"content": "{\"1_consult_url\":\"https://kuaishang.cn\"}",
"showNum": 0,
"clickNum": 0,
"convertNum": 0,
"consume": 0,
"clickRatio": "0.00%",
"cpc": "0.00",
"convertRatio": 0,
"planId": 101073760,
"planName": "鹿晗>>>",
"isPaused": 0,
"reviewState": 0,
"frontState": 5,
"isPromotionAbnormal": true,
"unitId": 508845190,
"unitName": "手动添加-黄金地带",
"planIsDelete": 0,
"unitIsDelete": 0,
"id": 2002729089,
"idStr": "2002729089",
"styleType": 1004,
"level": 17
},
{
"userId": 15092483,
"content": "{\"1_consult_url\":\"https://kuaishang.cn\"}",
"showNum": 0,
"clickNum": 0,
"convertNum": 0,
"consume": 0,
"clickRatio": "0.00%",
"cpc": "0.00",
"convertRatio": 0,
"planId": 101073760,
"planName": "鹿晗>>>",
"isPaused": 0,
"reviewState": 0,
"frontState": 5,
"isPromotionAbnormal": true,
"unitId": 508845194,
"unitName": "手动添加-产品详情",
"planIsDelete": 0,
"unitIsDelete": 0,
"id": 2002729090,
"idStr": "2002729090",
"styleType": 1004,
"level": 17
},
{
"userId": 15092483,
"content": "{\"1_consult_url\":\"https://shop.kuaishang.cn/index.htm\"}",
"showNum": 0,
"clickNum": 0,
"convertNum": 0,
"consume": 0,
"clickRatio": "0.00%",
"cpc": "0.00",
"convertRatio": 0,
"planId": 102470217,
"planName": "测试增量",
"isPaused": 0,
"reviewState": 0,
"frontState": 5,
"isPromotionAbnormal": true,
"unitId": 529814420,
"unitName": "增量unit",
"planIsDelete": 0,
"unitIsDelete": 0,
"id": 2003594694,
"idStr": "2003594694",
"styleType": 1004,
"level": 17
},
{
"userId": 15092483,
"content": "{\"1_consult_url\":\"https://shop.kuaishang.cn/\"}",
"showNum": 2,
"clickNum": 0,
"convertNum": 0,
"consume": 0,
"clickRatio": "0.00%",
"cpc": "0",
"convertRatio": 0,
"planId": 102559668,
"planName": "审核",
"isPaused": 1,
"reviewState": 0,
"frontState": 0,
"isPromotionAbnormal": false,
"unitId": 535598332,
"unitName": "审核测试",
"planIsDelete": 0,
"unitIsDelete": 0,
"id": 2003594695,
"idStr": "2003594695",
"styleType": 1004,
"level": 17
},
{
"userId": 15092483,
"content": "{\"1_consult_url\":\"https://shop.kuaishang.cn/\"}",
"showNum": 0,
"clickNum": 0,
"convertNum": 0,
"consume": 0,
"clickRatio": "0.00%",
"cpc": "0.00",
"convertRatio": 0,
"planId": 102559668,
"planName": "审核",
"isPaused": 0,
"reviewState": 0,
"frontState": 5,
"isPromotionAbnormal": true,
"unitId": 535632890,
"unitName": "审核测试1",
"planIsDelete": 0,
"unitIsDelete": 0,
"id": 2003594696,
"idStr": "2003594696",
"styleType": 1004,
"level": 17
}
]
},
"success": true
}