{"status":0,"data":{"queryCondition":{"ascend":false,"totalSize":1027,"pageSize":20,"currentPage":1,"totalPage":52,"firstResult":0,"isQueryAll":false},"target":[{"userId":15092483,"content":"{\"logo_img\":\"http://image-ad.sm.cn/admaterial/logo/170104c259641867644934b672e5002a3f11ce.png\"}","showNum":-1,"clickNum":-1,"convertNum":-1,"consume":-1,"clickRatio":"-","cpc":"-","convertRatio":0.0,"planId":101191776,"planName":"医疗高级样式(勿删勿改)","isPaused":1,"reviewState":0,"frontState":0,"isPromotionAbnormal":false,"unitId":467140911,"unitName":"2个子链","planIsDelete":1,"unitIsDelete":1,"id":2000381501,"idStr":"2000381501","styleType":1000,"materialLibRelations":[{"libType":1,"libId":603,"indexInMaterial":1},{"libType":1,"libId":603,"indexInMaterial":1}],"level":17},{"userId":15092483,"content":"{\"logo_img\":\"http://image-ad.sm.cn/admaterial/logo/1703233ba09cb9d12d4e32917930bb0cbab483.jpg\"}","showNum":-1,"clickNum":-1,"convertNum":-1,"consume":-1,"clickRatio":"-","cpc":"-","convertRatio":0.0,"planId":101191776,"planName":"医疗高级样式(勿删勿改)","isPaused":1,"reviewState":0,"frontState":2,"isPromotionAbnormal":false,"unitId":467141030,"unitName":"APP-Android","planIsDelete":1,"unitIsDelete":1,"id":2000381502,"idStr":"2000381502","styleType":1000,"materialLibRelations":[{"libType":1,"libId":254,"indexInMaterial":1},{"libType":1,"libId":254,"indexInMaterial":1}],"level":17},{"userId":15092483,"content":"{\"logo_img\":\"http://image-ad.sm.cn/admaterial/logo/1703233ba09cb9d12d4e32917930bb0cbab483.jpg\"}","showNum":-1,"clickNum":-1,"convertNum":-1,"consume":-1,"clickRatio":"-","cpc":"-","convertRatio":0.0,"planId":101296623,"planName":"again","isPaused":1,"reviewState":0,"frontState":2,"isPromotionAbnormal":false,"unitId":471901869,"unitName":"阿萨德","planIsDelete":1,"unitIsDelete":1,"id":2000394621,"idStr":"2000394621","styleType":1000,"materialLibRelations":[{"libType":1,"libId":254,"indexInMaterial":1},{"libType":1,"libId":254,"indexInMaterial":1}],"level":17},{"userId":15092483,"content":"{\"logo_img\":\"http://image-ad.sm.cn/admaterial/logo/1703233ba09cb9d12d4e32917930bb0cbab483.jpg\"}","showNum":-1,"clickNum":-1,"convertNum":-1,"consume":-1,"clickRatio":"-","cpc":"-","convertRatio":0.0,"planId":101344446,"planName":"23333333333333","isPaused":1,"reviewState":111,"frontState":2,"isPromotionAbnormal":false,"unitId":473896074,"unitName":"098890","planIsDelete":1,"unitIsDelete":1,"id":2000447855,"idStr":"2000447855","styleType":1000,"materialLibRelations":[{"libType":1,"libId":254,"indexInMaterial":1},{"libType":1,"libId":254,"indexInMaterial":1}],"level":17},{"userId":15092483,"content":"{\"logo_img\":\"http://image-ad.sm.cn/admaterial/logo/1703233ba09cb9d12d4e32917930bb0cbab483.jpg\"}","showNum":-1,"clickNum":-1,"convertNum":-1,"consume":-1,"clickRatio":"-","cpc":"-","convertRatio":0.0,"planId":101371209,"planName":"新建临时计划","isPaused":1,"reviewState":0,"frontState":2,"isPromotionAbnormal":false,"unitId":475025062,"unitName":"新建临时单元","planIsDelete":1,"unitIsDelete":1,"id":2000456915,"idStr":"2000456915","styleType":1000,"materialLibRelations":[{"libType":1,"libId":254,"indexInMaterial":1},{"libType":1,"libId":254,"indexInMaterial":1}],"level":17},{"userId":15092483,"content":"{\"logo_img\":\"http://image-ad.sm.cn/admaterial/logo/1703233ba09cb9d12d4e32917930bb0cbab483.jpg\"}","showNum":-1,"clickNum":-1,"convertNum":-1,"consume":-1,"clickRatio":"-","cpc":"-","convertRatio":0.0,"planId":101380393,"planName":"推广计划5","isPaused":1,"reviewState":0,"frontState":2,"isPromotionAbnormal":false,"unitId":475546139,"unitName":"测试1","planIsDelete":1,"unitIsDelete":1,"id":2000459408,"idStr":"2000459408","styleType":1000,"materialLibRelations":[{"libType":1,"libId":254,"indexInMaterial":1},{"libType":1,"libId":254,"indexInMaterial":1}],"level":17},{"userId":15092483,"content":"{\"logo_img\":\"http://image-ad.sm.cn/admaterial/logo/1703233ba09cb9d12d4e32917930bb0cbab483.jpg\"}","showNum":-1,"clickNum":-1,"convertNum":-1,"consume":-1,"clickRatio":"-","cpc":"-","convertRatio":0.0,"planId":101380393,"planName":"推广计划5","isPaused":1,"reviewState":0,"frontState":2,"isPromotionAbnormal":false,"unitId":475549292,"unitName":"测试2","planIsDelete":1,"unitIsDelete":1,"id":2000459409,"idStr":"2000459409","styleType":1000,"materialLibRelations":[{"libType":1,"libId":254,"indexInMaterial":1},{"libType":1,"libId":254,"indexInMaterial":1}],"level":17},{"userId":15092483,"content":"{\"logo_img\":\"http://image-ad.sm.cn/admaterial/logo/1703233ba09cb9d12d4e32917930bb0cbab483.jpg\"}","showNum":-1,"clickNum":-1,"convertNum":-1,"consume":-1,"clickRatio":"-","cpc":"-","convertRatio":0.0,"planId":101380393,"planName":"推广计划5","isPaused":1,"reviewState":0,"frontState":2,"isPromotionAbnormal":false,"unitId":475549293,"unitName":"测试3","planIsDelete":1,"unitIsDelete":1,"id":2000459410,"idStr":"2000459410","styleType":1000,"materialLibRelations":[{"libType":1,"libId":254,"indexInMaterial":1},{"libType":1,"libId":254,"indexInMaterial":1}],"level":17},{"userId":15092483,"content":"{\"logo_img\":\"http://image-ad.sm.cn/admaterial/logo/1703233ba09cb9d12d4e32917930bb0cbab483.jpg\"}","showNum":-1,"clickNum":-1,"convertNum":-1,"consume":-1,"clickRatio":"-","cpc":"-","convertRatio":0.0,"planId":101380393,"planName":"推广计划5","isPaused":1,"reviewState":0,"frontState":2,"isPromotionAbnormal":false,"unitId":475549294,"unitName":"测试4","planIsDelete":1,"unitIsDelete":1,"id":2000459411,"idStr":"2000459411","styleType":1000,"materialLibRelations":[{"libType":1,"libId":254,"indexInMaterial":1},{"libType":1,"libId":254,"indexInMaterial":1}],"level":17},{"userId":15092483,"content":"{\"logo_img\":\"http://image-ad.sm.cn/admaterial/logo/1703233ba09cb9d12d4e32917930bb0cbab483.jpg\"}","showNum":-1,"clickNum":-1,"convertNum":-1,"consume":-1,"clickRatio":"-","cpc":"-","convertRatio":0.0,"planId":101391049,"planName":"预发环境","isPaused":1,"reviewState":0,"frontState":2,"isPromotionAbnormal":false,"unitId":476145141,"unitName":"阿萨德","planIsDelete":0,"unitIsDelete":0,"id":2000468015,"idStr":"2000468015","styleType":1000,"materialLibRelations":[{"libType":1,"libId":254,"indexInMaterial":1},{"libType":1,"libId":254,"indexInMaterial":1}],"level":17},{"userId":15092483,"content":"{\"logo_img\":\"http://image-ad.sm.cn/admaterial/logo/1703233ba09cb9d12d4e32917930bb0cbab483.jpg\"}","showNum":-1,"clickNum":-1,"convertNum":-1,"consume":-1,"clickRatio":"-","cpc":"-","convertRatio":0.0,"planId":101391355,"planName":"推广计划3","isPaused":1,"reviewState":0,"frontState":2,"isPromotionAbnormal":false,"unitId":476161841,"unitName":"阿萨德1","planIsDelete":1,"unitIsDelete":1,"id":2000468020,"idStr":"2000468020","styleType":1000,"materialLibRelations":[{"libType":1,"libId":254,"indexInMaterial":1},{"libType":1,"libId":254,"indexInMaterial":1}],"level":17},{"userId":15092483,"content":"{\"logo_img\":\"http://image-ad.sm.cn/admaterial/logo/1703233ba09cb9d12d4e32917930bb0cbab483.jpg\"}","showNum":-1,"clickNum":-1,"convertNum":-1,"consume":-1,"clickRatio":"-","cpc":"-","convertRatio":0.0,"planId":101391355,"planName":"推广计划3","isPaused":1,"reviewState":0,"frontState":2,"isPromotionAbnormal":false,"unitId":476161839,"unitName":"阿萨德","planIsDelete":1,"unitIsDelete":1,"id":2000468021,"idStr":"2000468021","styleType":1000,"materialLibRelations":[{"libType":1,"libId":254,"indexInMaterial":1},{"libType":1,"libId":254,"indexInMaterial":1}],"level":17},{"userId":15092483,"content":"{\"logo_img\":\"http://image-ad.sm.cn/admaterial/logo/1703233ba09cb9d12d4e32917930bb0cbab483.jpg\"}","showNum":-1,"clickNum":-1,"convertNum":-1,"consume":-1,"clickRatio":"-","cpc":"-","convertRatio":0.0,"planId":101073760,"planName":"鹿晗>>>","isPaused":1,"reviewState":0,"frontState":2,"isPromotionAbnormal":false,"unitId":460829883,"unitName":"测试3","planIsDelete":0,"unitIsDelete":0,"id":2000468123,"idStr":"2000468123","styleType":1000,"materialLibRelations":[{"libType":1,"libId":254,"indexInMaterial":1},{"libType":1,"libId":254,"indexInMaterial":1}],"level":17},{"userId":15092483,"content":"{\"logo_img\":\"http://image-ad.sm.cn/admaterial/logo/1703233ba09cb9d12d4e32917930bb0cbab483.jpg\"}","showNum":-1,"clickNum":-1,"convertNum":-1,"consume":-1,"clickRatio":"-","cpc":"-","convertRatio":0.0,"planId":101394771,"planName":"推广计划","isPaused":1,"reviewState":0,"frontState":2,"isPromotionAbnormal":false,"unitId":476371570,"unitName":"33455","planIsDelete":1,"unitIsDelete":1,"id":2000477062,"idStr":"2000477062","styleType":1000,"materialLibRelations":[{"libType":1,"libId":254,"indexInMaterial":1},{"libType":1,"libId":254,"indexInMaterial":1}],"level":17},{"userId":15092483,"content":"{\"logo_img\":\"http://image-ad.sm.cn/admaterial/logo/1703233ba09cb9d12d4e32917930bb0cbab483.jpg\"}","showNum":-1,"clickNum":-1,"convertNum":-1,"consume":-1,"clickRatio":"-","cpc":"-","convertRatio":0.0,"planId":101073760,"planName":"鹿晗>>>","isPaused":1,"reviewState":0,"frontState":2,"isPromotionAbnormal":false,"unitId":460829881,"unitName":"测试1","planIsDelete":0,"unitIsDelete":0,"id":2000481289,"idStr":"2000481289","styleType":1000,"materialLibRelations":[{"libType":1,"libId":254,"indexInMaterial":1},{"libType":1,"libId":254,"indexInMaterial":1}],"level":17},{"userId":15092483,"content":"{\"logo_img\":\"http://image-ad.sm.cn/admaterial/logo/1703233ba09cb9d12d4e32917930bb0cbab483.jpg\"}","showNum":-1,"clickNum":-1,"convertNum":-1,"consume":-1,"clickRatio":"-","cpc":"-","convertRatio":0.0,"planId":101073760,"planName":"鹿晗>>>","isPaused":0,"reviewState":0,"frontState":2,"isPromotionAbnormal":false,"unitId":460829884,"unitName":"测试4","planIsDelete":0,"unitIsDelete":0,"id":2000592943,"idStr":"2000592943","styleType":1000,"materialLibRelations":[{"libType":1,"libId":254,"indexInMaterial":1},{"libType":1,"libId":254,"indexInMaterial":1}],"level":17},{"userId":15092483,"content":"{\"logo_img\":\"http://image-ad.sm.cn/admaterial/logo/1703233ba09cb9d12d4e32917930bb0cbab483.jpg\"}","showNum":-1,"clickNum":-1,"convertNum":-1,"consume":-1,"clickRatio":"-","cpc":"-","convertRatio":0.0,"planId":101570637,"planName":"20170623-test-fff","isPaused":1,"reviewState":0,"frontState":2,"isPromotionAbnormal":false,"unitId":484529710,"unitName":"test_unit_1","planIsDelete":0,"unitIsDelete":0,"id":2000595344,"idStr":"2000595344","styleType":1000,"materialLibRelations":[{"libType":1,"libId":254,"indexInMaterial":1},{"libType":1,"libId":254,"indexInMaterial":1}],"level":17},{"userId":15092483,"content":"{\"logo_img\":\"http://image-ad.sm.cn/admaterial/logo/1703233ba09cb9d12d4e32917930bb0cbab483.jpg\"}","showNum":-1,"clickNum":-1,"convertNum":-1,"consume":-1,"clickRatio":"-","cpc":"-","convertRatio":0.0,"planId":101708331,"planName":"newest","isPaused":0,"reviewState":0,"frontState":2,"isPromotionAbnormal":false,"unitId":491456826,"unitName":"阿萨德","planIsDelete":0,"unitIsDelete":0,"id":2000717273,"idStr":"2000717273","styleType":1000,"materialLibRelations":[{"libType":1,"libId":254,"indexInMaterial":1},{"libType":1,"libId":254,"indexInMaterial":1}],"level":17},{"userId":15092483,"content":"{\"logo_img\":\"http://image-ad.sm.cn/admaterial/logo/170104c259641867644934b672e5002a3f11ce.png\"}","showNum":-1,"clickNum":-1,"convertNum":-1,"consume":-1,"clickRatio":"-","cpc":"-","convertRatio":0.0,"planId":101738041,"planName":"23333333333333","isPaused":0,"reviewState":0,"frontState":5,"isPromotionAbnormal":true,"unitId":492724047,"unitName":"阿萨德","planIsDelete":0,"unitIsDelete":0,"id":2000739261,"idStr":"2000739261","styleType":1000,"materialLibRelations":[{"libType":1,"libId":603,"indexInMaterial":1},{"libType":1,"libId":603,"indexInMaterial":1}],"level":17},{"userId":15092483,"content":"{\"logo_img\":\"http://image-ad.sm.cn/admaterial/logo/170104c259641867644934b672e5002a3f11ce.png\"}","showNum":-1,"clickNum":-1,"convertNum":-1,"consume":-1,"clickRatio":"-","cpc":"-","convertRatio":0.0,"planId":101073760,"planName":"鹿晗>>>","isPaused":0,"reviewState":0,"frontState":5,"isPromotionAbnormal":true,"unitId":488707502,"unitName":"UI优化","planIsDelete":0,"unitIsDelete":0,"id":2000806786,"idStr":"2000806786","styleType":1000,"materialLibRelations":[{"libType":1,"libId":603,"indexInMaterial":1},{"libType":1,"libId":603,"indexInMaterial":1}],"level":17}]},"success":true}