{"status":0,"data":{"queryCondition":{"ascend":false,"totalSize":4921,"pageSize":20,"currentPage":1,"totalPage":247,"firstResult":0,"isQueryAll":false},"target":[{"userId":15092483,"content":"{\"title\":\"若要{www}顺'利推广,每个'''{}推广单元包含至少一个广告创意\",\"desc_text\":\"打点推广,中小企业的营销方式!为您提供优质的网站营销一站式服务\",\"show_url\":\"test.sm.cn\",\"target_url\":\"http://www.sm.cn\"}","showNum":0,"clickNum":0,"convertNum":0,"consume":0.00,"clickRatio":"0.00%","cpc":"0.00","convertRatio":0.0,"planId":100851122,"planName":"门票价格_华南_phrase测异步专用","isPaused":0,"reviewState":0,"frontState":5,"isPromotionAbnormal":true,"unitId":449423122,"unitName":"126715_河南_隋唐洛阳城国家遗址","planIsDelete":0,"unitIsDelete":0,"id":2631713886,"idStr":"2631713886","styleType":0,"level":5},{"userId":15092483,"content":"{\"title\":\"啊是的噶速度发的说法{是}\",\"desc_text\":\"噶桑十分大时代发生的312{fa }\",\"show_url\":\"test.sm.cn\",\"target_url\":\"http://www.sm.cn\"}","showNum":0,"clickNum":0,"convertNum":0,"consume":0.00,"clickRatio":"0.00%","cpc":"0.00","convertRatio":0.0,"planId":100851122,"planName":"门票价格_华南_phrase测异步专用","isPaused":0,"reviewState":0,"frontState":5,"isPromotionAbnormal":true,"unitId":449423122,"unitName":"126715_河南_隋唐洛阳城国家遗址","planIsDelete":0,"unitIsDelete":0,"id":2631713887,"idStr":"2631713887","styleType":0,"level":5},{"userId":15092483,"content":"{\"title\":\"若要顺利推广,每个推广单元包含至少一个广告创意\",\"desc_text\":\"打点推广,中小企业的营销方式!为您提供优质的网站营销一站式服务\",\"show_url\":\"test.sm.cn\",\"target_url\":\"http://www.sm.cn\"}","showNum":0,"clickNum":0,"convertNum":0,"consume":0.00,"clickRatio":"0.00%","cpc":"0.00","convertRatio":0.0,"planId":100851122,"planName":"门票价格_华南_phrase测异步专用","isPaused":0,"reviewState":0,"frontState":5,"isPromotionAbnormal":true,"unitId":449423122,"unitName":"126715_河南_隋唐洛阳城国家遗址","planIsDelete":0,"unitIsDelete":0,"id":2631713888,"idStr":"2631713888","styleType":0,"level":5},{"userId":15092483,"content":"{\"title\":\"啊是的噶速度发的说法{是}\",\"desc_text\":\"噶桑十分大时代发生的312{fa }\",\"show_url\":\"test.sm.cn\",\"target_url\":\"http://www.sm.cn\"}","showNum":0,"clickNum":0,"convertNum":0,"consume":0.00,"clickRatio":"0.00%","cpc":"0.00","convertRatio":0.0,"planId":100851122,"planName":"门票价格_华南_phrase测异步专用","isPaused":0,"reviewState":0,"frontState":5,"isPromotionAbnormal":true,"unitId":449423122,"unitName":"126715_河南_隋唐洛阳城国家遗址","planIsDelete":0,"unitIsDelete":0,"id":2631713889,"idStr":"2631713889","styleType":0,"level":5},{"userId":15092483,"content":"{\"title\":\"创意-鲜花的标题1111a\",\"desc_text\":\"创意-鲜花的标题描述\",\"show_url\":\"test.sm.cn\",\"target_url\":\"http://www.sm.cn\"}","showNum":30,"clickNum":0,"convertNum":0,"consume":0.00,"clickRatio":"0.00%","cpc":"0","convertRatio":0.0,"planId":101570637,"planName":"20170623-test-fff","isPaused":0,"reviewState":0,"frontState":5,"isPromotionAbnormal":true,"unitId":484529713,"unitName":"test_unit_2","planIsDelete":0,"unitIsDelete":0,"id":2639977211,"idStr":"2639977211","styleType":0,"level":5},{"userId":15092483,"content":"{\"title\":\"鲜花实体店3个小时送货上门a\",\"desc_text\":\"鲜花实体店1-2个小时就可送达,专人专送\",\"show_url\":\"test.sm.cn\",\"target_url\":\"http://www.sm.cn\"}","showNum":1,"clickNum":0,"convertNum":0,"consume":0.00,"clickRatio":"0.00%","cpc":"0","convertRatio":0.0,"planId":101570637,"planName":"20170623-test-fff","isPaused":0,"reviewState":0,"frontState":5,"isPromotionAbnormal":true,"unitId":484529710,"unitName":"test_unit_1","planIsDelete":0,"unitIsDelete":0,"id":2639977212,"idStr":"2639977212","styleType":0,"level":5},{"userId":15092483,"content":"{\"title\":\"卧龙推广,中小企业营销方式!\",\"desc_text\":\"卧龙推广,中小企业营销方式!\",\"show_url\":\"test.sm.cn\",\"target_url\":\"http://www.sm.cn\"}","showNum":0,"clickNum":0,"convertNum":0,"consume":0.00,"clickRatio":"0.00%","cpc":"0.00","convertRatio":0.0,"planId":101433090,"planName":"(勿删勿改!!!)线上监控用","isPaused":0,"reviewState":0,"frontState":5,"isPromotionAbnormal":true,"unitId":478075940,"unitName":"线上监控用_更新流","planIsDelete":0,"unitIsDelete":0,"id":2646269915,"idStr":"2646269915","styleType":0,"level":5},{"userId":15092483,"content":"{\"title\":\"ipad是你的好助手a\",\"desc_text\":\"ipad是你的好助手123\",\"show_url\":\"test.sm.cn\",\"target_url\":\"http://www.sm.cn\"}","showNum":0,"clickNum":0,"convertNum":0,"consume":0.00,"clickRatio":"0.00%","cpc":"0.00","convertRatio":0.0,"planId":101570637,"planName":"20170623-test-fff","isPaused":0,"reviewState":1121,"frontState":2,"isPromotionAbnormal":false,"unitId":484529996,"unitName":"test_unit_3","planIsDelete":0,"unitIsDelete":0,"id":2659012009,"idStr":"2659012009","styleType":0,"level":5},{"userId":15092483,"content":"{\"title\":\"样式UI优化测试要用\",\"desc_text\":\"样式UI优化测试要用\",\"show_url\":\"test.sm.cn\",\"target_url\":\"http://www.sm.cn\"}","showNum":0,"clickNum":0,"convertNum":0,"consume":0.00,"clickRatio":"0.00%","cpc":"0.00","convertRatio":0.0,"planId":101073760,"planName":"鹿晗>>>","isPaused":1,"reviewState":0,"frontState":0,"isPromotionAbnormal":false,"unitId":488707502,"unitName":"UI优化","planIsDelete":0,"unitIsDelete":0,"id":2662863275,"idStr":"2662863275","styleType":0,"level":5},{"userId":15092483,"content":"{\"title\":\"sdddd{dsd}插入关键词通配符\",\"desc_text\":\"ee{eeeeee}插入关键词通配符\",\"show_url\":\"test.sm.cn\",\"target_url\":\"http://www.sm.cn\"}","showNum":0,"clickNum":0,"convertNum":0,"consume":0.00,"clickRatio":"0.00%","cpc":"0.00","convertRatio":0.0,"planId":101678779,"planName":"fff","isPaused":0,"reviewState":0,"frontState":5,"isPromotionAbnormal":true,"unitId":490063812,"unitName":"eeee","planIsDelete":0,"unitIsDelete":0,"id":2670569717,"idStr":"2670569717","styleType":0,"level":5},{"userId":15092483,"content":"{\"title\":\"两节课的说法反倒是123\",\"desc_text\":\"噶桑十分大时代发生的312\",\"show_url\":\"test.sm.cn\",\"target_url\":\"http://www.sm.cn\"}","showNum":0,"clickNum":0,"convertNum":0,"consume":0.00,"clickRatio":"0.00%","cpc":"0.00","convertRatio":0.0,"planId":101708331,"planName":"newest","isPaused":0,"reviewState":0,"frontState":5,"isPromotionAbnormal":true,"unitId":491456826,"unitName":"阿萨德","planIsDelete":0,"unitIsDelete":0,"id":2679227945,"idStr":"2679227945","styleType":0,"level":5},{"userId":15092483,"content":"{\"title\":\"fff{ff}每个推广单元包含至少一个广告创意a\",\"desc_text\":\"eeee每个推广单元包含至少一个广告创意\",\"show_url\":\"test.sm.cn\",\"target_url\":\"http://www.sm.cn\"}","showNum":2896,"clickNum":27,"convertNum":0,"consume":43.68,"clickRatio":"0.93%","cpc":"1.62","convertRatio":0.0,"planId":101570637,"planName":"20170623-test-fff","isPaused":0,"reviewState":0,"frontState":5,"isPromotionAbnormal":true,"unitId":484529713,"unitName":"test_unit_2","planIsDelete":0,"unitIsDelete":0,"id":2682973365,"idStr":"2682973365","styleType":0,"level":5},{"userId":15092483,"content":"{\"title\":\"fff{ff}每个推广单元包含至少一个广告创意\",\"desc_text\":\"eeee每个推广单元包含至少一个广告创意\",\"show_url\":\"test.sm.cn\",\"target_url\":\"http://www.sm.cn\"}","showNum":0,"clickNum":0,"convertNum":0,"consume":0.00,"clickRatio":"0.00%","cpc":"0.00","convertRatio":0.0,"planId":101678779,"planName":"fff","isPaused":0,"reviewState":0,"frontState":5,"isPromotionAbnormal":true,"unitId":490063812,"unitName":"eeee","planIsDelete":0,"unitIsDelete":0,"id":2682973366,"idStr":"2682973366","styleType":0,"level":5},{"userId":15092483,"content":"{\"title\":\"fff{ff}每个推广单元包含至少一个广告创意a\",\"desc_text\":\"eeee每个推广单元包含至少一个广告创意\",\"show_url\":\"test.sm.cn\",\"target_url\":\"http://www.sm.cn\"}","showNum":33,"clickNum":0,"convertNum":0,"consume":0.00,"clickRatio":"0.00%","cpc":"0","convertRatio":0.0,"planId":101570637,"planName":"20170623-test-fff","isPaused":0,"reviewState":0,"frontState":5,"isPromotionAbnormal":true,"unitId":484529996,"unitName":"test_unit_3","planIsDelete":0,"unitIsDelete":0,"id":2682973367,"idStr":"2682973367","styleType":0,"level":5},{"userId":15092483,"content":"{\"title\":\"fff{ff}每个推广单元包含至少一个广告创意a\",\"desc_text\":\"eeee每个推广单元包含至少一个广告创意\",\"show_url\":\"test.sm.cn\",\"target_url\":\"http://www.sm.cn\"}","showNum":0,"clickNum":0,"convertNum":0,"consume":0.00,"clickRatio":"0.00%","cpc":"0.00","convertRatio":0.0,"planId":101570637,"planName":"20170623-test-fff","isPaused":0,"reviewState":0,"frontState":5,"isPromotionAbnormal":true,"unitId":484529710,"unitName":"test_unit_1","planIsDelete":0,"unitIsDelete":0,"id":2682973368,"idStr":"2682973368","styleType":0,"level":5},{"userId":15092483,"content":"{\"title\":\"dsafasdafdsfasdfadsf\",\"desc_text\":\"噶是的范德萨噶都是发生123\",\"show_url\":\"test.sm.cn\",\"target_url\":\"http://www.sm.cn\"}","showNum":0,"clickNum":0,"convertNum":0,"consume":0.00,"clickRatio":"0.00%","cpc":"0.00","convertRatio":0.0,"planId":101738041,"planName":"23333333333333","isPaused":0,"reviewState":0,"frontState":5,"isPromotionAbnormal":true,"unitId":492724047,"unitName":"阿萨德","planIsDelete":0,"unitIsDelete":0,"id":2687034453,"idStr":"2687034453","styleType":0,"level":5},{"userId":15092483,"content":"{\"title\":\"dsafasdafdsfasdfadsf\",\"desc_text\":\"噶是的范德萨噶都是发生123\",\"show_url\":\"test.sm.cn\",\"target_url\":\"http://www.sm.cn\"}","showNum":0,"clickNum":0,"convertNum":0,"consume":0.00,"clickRatio":"0.00%","cpc":"0.00","convertRatio":0.0,"planId":101738041,"planName":"23333333333333","isPaused":0,"reviewState":0,"frontState":5,"isPromotionAbnormal":true,"unitId":492724047,"unitName":"阿萨德","planIsDelete":0,"unitIsDelete":0,"id":2687137573,"idStr":"2687137573","styleType":0,"level":5},{"userId":15092483,"content":"{\"title\":\"dsafasdafdsfasdfadsf\",\"desc_text\":\"噶是的范德萨噶都是发生123\",\"show_url\":\"test.sm.cn\",\"target_url\":\"http://www.sm.cn\"}","showNum":0,"clickNum":0,"convertNum":0,"consume":0.00,"clickRatio":"0.00%","cpc":"0.00","convertRatio":0.0,"planId":101738041,"planName":"23333333333333","isPaused":0,"reviewState":0,"frontState":5,"isPromotionAbnormal":true,"unitId":492724047,"unitName":"阿萨德","planIsDelete":0,"unitIsDelete":0,"id":2687137974,"idStr":"2687137974","styleType":0,"level":5},{"userId":15092483,"content":"{\"title\":\"dsafasdafdsfasdfadsf\",\"desc_text\":\"噶是的范德萨噶都是发生123\",\"show_url\":\"test.sm.cn\",\"target_url\":\"http://www.sm.cn\"}","showNum":0,"clickNum":0,"convertNum":0,"consume":0.00,"clickRatio":"0.00%","cpc":"0.00","convertRatio":0.0,"planId":101738041,"planName":"23333333333333","isPaused":0,"reviewState":0,"frontState":5,"isPromotionAbnormal":true,"unitId":492724047,"unitName":"阿萨德","planIsDelete":0,"unitIsDelete":0,"id":2687137975,"idStr":"2687137975","styleType":0,"level":5},{"userId":15092483,"content":"{\"title\":\"TA's Time披萨招商加盟测试\",\"desc_text\":\"TA's Time披萨招商加盟测试\",\"show_url\":\"test.sm.cn\",\"target_url\":\"http://www.sm.cn\"}","showNum":0,"clickNum":0,"convertNum":0,"consume":0.00,"clickRatio":"0.00%","cpc":"0.00","convertRatio":0.0,"planId":101433090,"planName":"(勿删勿改!!!)线上监控用","isPaused":1,"reviewState":0,"frontState":0,"isPromotionAbnormal":false,"unitId":478075940,"unitName":"线上监控用_更新流","planIsDelete":0,"unitIsDelete":0,"id":2732422160,"idStr":"2732422160","styleType":0,"level":5}]},"success":true}