{
  "status": 0,
  "data": {
    "queryCondition": {
      "ascend": false,
      "totalSize": 66,
      "pageSize": 10,
      "currentPage": 1,
      "totalPage": 7,
      "firstResult": 0,
      "isQueryAll": false
    },
    "target": [
      {
        "id": 0,
        "userId": 1061,
        "userName": "携程旅行网",
        "styleName": "test",
        "planId": 0,
        "styleType": 10,
        "premiumShow": 8,
        "show": 52,
        "priceRate": "0.0",
        "priceLevel": 0,
        "levelName": "推广账户",
        "isPaused": 0,
        "timeRange": "2017-06-08"
      },
      {
        "id": 0,
        "userId": 1061,
        "userName": "携程旅行网",
        "styleName": "test",
        "planId": 0,
        "styleType": 11,
        "premiumShow": 7,
        "show": 81,
        "priceRate": "0.0",
        "priceLevel": 0,
        "levelName": "推广账户",
        "isPaused": 0,
        "timeRange": "2017-06-08"
      },
      {
        "id": 0,
        "userId": 1061,
        "userName": "携程旅行网",
        "styleName": "test",
        "planId": 0,
        "styleType": 12,
        "premiumShow": 8,
        "show": 55,
        "priceRate": "0.0",
        "priceLevel": 0,
        "levelName": "推广账户",
        "isPaused": 0,
        "timeRange": "2017-06-08"
      },
      {
        "id": 0,
        "userId": 1061,
        "userName": "携程旅行网",
        "styleName": "test",
        "planId": 0,
        "styleType": 14,
        "premiumShow": 7,
        "show": 55,
        "priceRate": "0.0",
        "priceLevel": 0,
        "levelName": "推广账户",
        "isPaused": 0,
        "timeRange": "2017-06-08"
      },
      {
        "id": 0,
        "userId": 1061,
        "userName": "携程旅行网",
        "styleName": "test",
        "planId": 0,
        "styleType": 112,
        "premiumShow": 2,
        "show": 19,
        "priceRate": "0.0",
        "priceLevel": 0,
        "levelName": "推广账户",
        "isPaused": 0,
        "timeRange": "2017-06-08"
      },
      {
        "id": 0,
        "userId": 1061,
        "userName": "携程旅行网",
        "styleName": "test",
        "planId": 0,
        "styleType": 113,
        "premiumShow": 8,
        "show": 98,
        "priceRate": "0.0",
        "priceLevel": 0,
        "levelName": "推广账户",
        "isPaused": 0,
        "timeRange": "2017-06-08"
      },
      {
        "id": 0,
        "userId": 1061,
        "userName": "携程旅行网",
        "styleName": "test",
        "planId": 0,
        "styleType": 116,
        "premiumShow": 6,
        "show": 61,
        "priceRate": "0.0",
        "priceLevel": 0,
        "levelName": "推广账户",
        "isPaused": 0,
        "timeRange": "2017-06-08"
      },
      {
        "id": 0,
        "userId": 1061,
        "userName": "携程旅行网",
        "styleName": "test",
        "planId": 0,
        "styleType": 117,
        "premiumShow": 6,
        "show": 86,
        "priceRate": "0.0",
        "priceLevel": 0,
        "levelName": "推广账户",
        "isPaused": 0,
        "timeRange": "2017-06-08"
      },
      {
        "id": 0,
        "userId": 1061,
        "userName": "携程旅行网",
        "styleName": "test",
        "planId": 0,
        "styleType": 118,
        "premiumShow": 0,
        "show": 47,
        "priceRate": "0.0",
        "priceLevel": 0,
        "levelName": "推广账户",
        "isPaused": 0,
        "timeRange": "2017-06-08"
      },
      {
        "id": 0,
        "userId": 1061,
        "userName": "携程旅行网",
        "styleName": "test",
        "planId": 0,
        "styleType": 119,
        "premiumShow": 9,
        "show": 87,
        "priceRate": "0.0",
        "priceLevel": 0,
        "levelName": "推广账户",
        "isPaused": 0,
        "timeRange": "2017-06-08"
      }
    ]
  },
  "success": true
}