{"status":0,"data":{"queryCondition":{"ascend":false,"totalSize":24,"pageSize":20,"currentPage":1,"totalPage":2,"firstResult":0,"isQueryAll":false},"target":[{"userId":15092483,"showNum":0,"clickNum":0,"convertNum":0,"consume":0.00,"clickRatio":"0.00%","cpc":"0.00","convertRatio":0.0,"planId":101433090,"planName":"(勿删勿改!!!)线上监控用","isPaused":1,"frontState":0,"isPromotionAbnormal":false,"budget":-1.0,"budgetUnlimited":true,"ideaShowMode":1,"period":"100-124;200-224;300-324;400-424;500-524;616-617;716-717","region":"使用账户地域设置","useAccountRegion":1,"useAllRegion":0,"useIntentLocate":1,"ipBlack":"127.0.0.1","negWord":"dddddd","negQuery":"","exbudget":0,"id":101433090,"level":2},{"userId":15092483,"showNum":0,"clickNum":0,"convertNum":0,"consume":0.00,"clickRatio":"0.00%","cpc":"0.00","convertRatio":0.0,"planId":101570637,"planName":"20170623-test-fff","isPaused":1,"frontState":0,"isPromotionAbnormal":false,"budget":10.0,"budgetUnlimited":false,"ideaShowMode":1,"period":"100-124;200-224;300-324;400-424;500-524;600-624;700-724","region":"北京;河北;山西;内蒙古;上海;江苏;浙江;安徽;福建;江西;山东;河南;湖北;湖南;广东;广西;海南;重庆;四川;贵州;云南;西藏;陕西;甘肃;青海;宁夏;新疆;辽宁;吉林;黑龙江;香港;澳门;台湾","useAccountRegion":0,"useAllRegion":0,"useIntentLocate":1,"ipBlack":"","negWord":"ddd","negQuery":"","exbudget":0,"id":101570637,"level":2},{"userId":15092483,"showNum":0,"clickNum":0,"convertNum":0,"consume":0.00,"clickRatio":"0.00%","cpc":"0.00","convertRatio":0.0,"planId":101738041,"planName":"23333333333333","isPaused":1,"frontState":0,"isPromotionAbnormal":false,"budget":-1.0,"budgetUnlimited":true,"ideaShowMode":0,"period":"100-124;200-224;300-324;400-424;500-524","region":"北京;天津;河北;江苏","useAccountRegion":0,"useAllRegion":0,"useIntentLocate":1,"ipBlack":"1.2.3.4","negWord":"","negQuery":"34","exbudget":0,"id":101738041,"level":2},{"userId":15092483,"showNum":0,"clickNum":0,"convertNum":0,"consume":0.00,"clickRatio":"0.00%","cpc":"0.00","convertRatio":0.0,"planId":101678779,"planName":"fff","isPaused":1,"frontState":0,"isPromotionAbnormal":false,"budget":-1.0,"budgetUnlimited":true,"ideaShowMode":1,"period":"100-124;200-224;300-324;400-424;500-524;600-624;700-724","region":"北京;天津;河北;山西;内蒙古;江苏-徐州;江苏-连云港;江苏-宿迁;江苏-盐城;江苏-扬州;江苏-泰州;江苏-南通;江苏-镇江;江苏-常州;江苏-无锡;江苏-苏州;浙江;安徽;福建;江西;山东;河南;湖北;湖南;广东;广西;海南;重庆;四川;贵州;云南;西藏;陕西;甘肃;青海;宁夏;新疆;辽宁;吉林;黑龙江;香港;澳门;台湾","useAccountRegion":0,"useAllRegion":0,"useIntentLocate":0,"ipBlack":"","negWord":"","negQuery":"","exbudget":0,"id":101678779,"level":2},{"userId":15092483,"showNum":0,"clickNum":0,"convertNum":0,"consume":0.00,"clickRatio":"0.00%","cpc":"0.00","convertRatio":0.0,"planId":101671565,"planName":"lld-dddd","isPaused":1,"frontState":0,"isPromotionAbnormal":false,"budget":-1.0,"budgetUnlimited":true,"ideaShowMode":0,"period":"100-124;200-224;300-324;400-424;500-524;600-624;700-724","region":"使用账户地域设置","useAccountRegion":1,"useAllRegion":0,"useIntentLocate":1,"ipBlack":"","negWord":"","negQuery":"","exbudget":0,"id":101671565,"level":2},{"userId":15092483,"showNum":0,"clickNum":0,"convertNum":0,"consume":0.00,"clickRatio":"0.00%","cpc":"0.00","convertRatio":0.0,"planId":101671491,"planName":"lld-sssss","isPaused":1,"frontState":0,"isPromotionAbnormal":false,"budget":-1.0,"budgetUnlimited":true,"ideaShowMode":0,"period":"100-102;103-124;300-302;303-324;400-402;403-424;500-502;503-524;600-602;603-624;700-702;703-724","region":"天津;河北;山西;内蒙古;江苏;浙江;安徽;福建;江西;山东;河南;湖北;湖南;广东;广西;海南;重庆;四川;贵州;云南;西藏;陕西;甘肃;青海;宁夏;新疆;辽宁;吉林;黑龙江;香港;澳门;台湾","useAccountRegion":0,"useAllRegion":0,"useIntentLocate":0,"ipBlack":"","negWord":"","negQuery":"","exbudget":0,"id":101671491,"level":2},{"userId":15092483,"showNum":0,"clickNum":0,"convertNum":0,"consume":0.00,"clickRatio":"0.00%","cpc":"0.00","convertRatio":0.0,"planId":101708331,"planName":"newest","isPaused":1,"frontState":0,"isPromotionAbnormal":false,"budget":-1.0,"budgetUnlimited":true,"ideaShowMode":1,"period":"100-124;200-224;300-324;400-424;500-524;600-624;700-724","region":"使用账户地域设置","useAccountRegion":1,"useAllRegion":0,"useIntentLocate":1,"ipBlack":"","negWord":"","negQuery":"","exbudget":0,"id":101708331,"level":2},{"userId":15092483,"showNum":0,"clickNum":0,"convertNum":0,"consume":0.00,"clickRatio":"0.00%","cpc":"0.00","convertRatio":0.0,"planId":101439560,"planName":"plan_sdk_test","isPaused":1,"frontState":0,"isPromotionAbnormal":false,"budget":10.0,"budgetUnlimited":false,"ideaShowMode":0,"period":"100-124;200-224;300-324;400-424;500-524","region":"北京","useAccountRegion":0,"useAllRegion":0,"useIntentLocate":0,"ipBlack":"127.0.0.1\n127.0.0.3","negWord":"neg123\nneg456","negQuery":"123\n456","exbudget":0,"id":101439560,"level":2},{"userId":15092483,"showNum":0,"clickNum":0,"convertNum":0,"consume":0.00,"clickRatio":"0.00%","cpc":"0.00","convertRatio":0.0,"planId":101590923,"planName":"wmjtest01","isPaused":1,"frontState":0,"isPromotionAbnormal":false,"budget":234.0,"budgetUnlimited":false,"ideaShowMode":0,"period":"100-124;200-224;300-324;400-424;500-524","region":"河北","useAccountRegion":0,"useAllRegion":0,"useIntentLocate":1,"ipBlack":"1.2.3.4\n2.3.4.5","negWord":"黑科技","negQuery":"减肥","exbudget":0,"id":101590923,"level":2},{"userId":15092483,"showNum":0,"clickNum":0,"convertNum":0,"consume":0.00,"clickRatio":"0.00%","cpc":"0.00","convertRatio":0.0,"planId":101804608,"planName":"测试批量工具--高短","isPaused":1,"frontState":0,"isPromotionAbnormal":false,"budget":-1.0,"budgetUnlimited":true,"ideaShowMode":1,"period":"100-124;200-224;300-324;400-424;500-524;600-624;700-724","region":"使用账户地域设置","useAccountRegion":1,"useAllRegion":0,"useIntentLocate":1,"ipBlack":"","negWord":"","negQuery":"","exbudget":0,"id":101804608,"level":2},{"userId":15092483,"showNum":0,"clickNum":0,"convertNum":0,"consume":0.00,"clickRatio":"0.00%","cpc":"0.00","convertRatio":0.0,"planId":101807378,"planName":"神马搜索","isPaused":1,"frontState":0,"isPromotionAbnormal":false,"budget":1000.0,"budgetUnlimited":false,"ideaShowMode":0,"period":"100-124;200-224;300-324;400-424;500-524;600-624;700-724","region":"所有地域","useAccountRegion":0,"useAllRegion":1,"useIntentLocate":0,"ipBlack":"","negWord":"为什么\n神么","negQuery":"什么","exbudget":0,"id":101807378,"level":2},{"userId":15092483,"showNum":0,"clickNum":0,"convertNum":0,"consume":0.00,"clickRatio":"0.00%","cpc":"0.00","convertRatio":0.0,"planId":101807379,"planName":"神马搜索1","isPaused":1,"frontState":0,"isPromotionAbnormal":false,"budget":1000.0,"budgetUnlimited":false,"ideaShowMode":1,"period":"100-124;200-224;300-324;400-424;500-524;600-624;700-724","region":"所有地域","useAccountRegion":0,"useAllRegion":1,"useIntentLocate":0,"ipBlack":"","negWord":"为什么\n神么","negQuery":"什么","exbudget":0,"id":101807379,"level":2},{"userId":15092483,"showNum":0,"clickNum":0,"convertNum":0,"consume":0.00,"clickRatio":"0.00%","cpc":"0.00","convertRatio":0.0,"planId":101807380,"planName":"神马搜索2","isPaused":1,"frontState":0,"isPromotionAbnormal":false,"budget":1000.0,"budgetUnlimited":false,"ideaShowMode":0,"period":"100-124;200-224;300-324;400-424;500-524;600-624;700-724","region":"所有地域","useAccountRegion":0,"useAllRegion":1,"useIntentLocate":0,"ipBlack":"","negWord":"为什么","negQuery":"什么","exbudget":0,"id":101807380,"level":2},{"userId":15092483,"showNum":0,"clickNum":0,"convertNum":0,"consume":0.00,"clickRatio":"0.00%","cpc":"0.00","convertRatio":0.0,"planId":101898698,"planName":"神马搜索3","isPaused":1,"frontState":0,"isPromotionAbnormal":false,"budget":1000.0,"budgetUnlimited":false,"ideaShowMode":0,"period":"100-124;200-224;300-324;400-424;500-524;600-624;700-724","region":"所有地域","useAccountRegion":0,"useAllRegion":1,"useIntentLocate":0,"ipBlack":"","negWord":"为什么\n神么","negQuery":"什么","exbudget":0,"id":101898698,"level":2},{"userId":15092483,"showNum":0,"clickNum":0,"convertNum":0,"consume":0.00,"clickRatio":"0.00%","cpc":"0.00","convertRatio":0.0,"planId":100851126,"planName":"门票价格_华南_exact测异步专用","isPaused":1,"frontState":0,"isPromotionAbnormal":false,"budget":11.0,"budgetUnlimited":false,"ideaShowMode":0,"period":"100-124;200-224;300-324;400-424;500-524","region":"北京;天津;河北;山西;内蒙古;上海;江苏;浙江;安徽;福建;江西;山东;河南;湖北;湖南;广东;广西;海南;重庆;四川;贵州;云南;西藏;陕西;甘肃;青海;宁夏;新疆;辽宁;吉林;黑龙江;香港;澳门;台湾","useAccountRegion":0,"useAllRegion":0,"useIntentLocate":1,"ipBlack":"192.168.1.1","negWord":"ddd","negQuery":"","exbudget":0,"id":100851126,"level":2},{"userId":15092483,"showNum":0,"clickNum":0,"convertNum":0,"consume":0.00,"clickRatio":"0.00%","cpc":"0.00","convertRatio":0.0,"planId":100851122,"planName":"门票价格_华南_phrase测异步专用","isPaused":1,"frontState":0,"isPromotionAbnormal":false,"budget":10.0,"budgetUnlimited":false,"ideaShowMode":1,"period":"100-124;200-224;300-324;400-424;500-524","region":"使用账户地域设置","useAccountRegion":1,"useAllRegion":0,"useIntentLocate":0,"ipBlack":"","negWord":"ppt\n上班\n丢了\n事故\n二手房\n传销\n住宿\n作文\n免税店\n兼职\n出事\n出租\n别墅\n医院\n句子\n后台\n员工\n图片\n天气\n好贵\n姓氏\n字\n安卓\n寄存\n寒假兼职\n寒假工\n小学\n工作\n带头人\n开光\n形容词\n心咒\n怎么读\n总经理\n总裁\n愿经\n房价\n房子\n房源\n手机店\n护照\n报名\n押金\n抽奖\n拆迁\n招商\n招工\n招聘\n描写\n搬迁\n教师资格证\n教育局\n文章\n新闻\n楼盘\n歌曲\n死人\n浏览器\n涨价\n漫画\n烧烤\n爱奇艺\n电话\n科目一\n租房\n自助餐\n英语\n词句\n词语\n诗\n诗句\n诗词\n贴吧\n转让\n退票\n邮编\n钥匙圈\n集团\n骗\n鸡\n黄牛","negQuery":"","exbudget":0,"id":100851122,"level":2},{"userId":15092483,"showNum":0,"clickNum":0,"convertNum":0,"consume":0.00,"clickRatio":"0.00%","cpc":"0.00","convertRatio":0.0,"planId":100851079,"planName":"门票团购_华东2_exact测异步专用","isPaused":1,"frontState":0,"isPromotionAbnormal":false,"budget":10.0,"budgetUnlimited":false,"ideaShowMode":0,"period":"100-124;200-224;300-324;400-424;500-524","region":"使用账户地域设置","useAccountRegion":1,"useAllRegion":0,"useIntentLocate":0,"ipBlack":"","negWord":"ppt\n上班\n丢了\n事故\n二手房\n传销\n住宿\n作文\n免税店\n兼职\n出事\n出租\n别墅\n医院\n句子\n后台\n员工\n图片\n天气\n好贵\n姓氏\n字\n安卓\n寄存\n寒假兼职\n寒假工\n小学\n工作\n带头人\n开光\n形容词\n心咒\n怎么读\n总经理\n总裁\n愿经\n房价\n房子\n房源\n手机店\n护照\n报名\n押金\n抽奖\n拆迁\n招商\n招工\n招聘\n描写\n搬迁\n教师资格证\n教育局\n文章\n新闻\n楼盘\n歌曲\n死人\n浏览器\n涨价\n漫画\n烧烤\n爱奇艺\n电话\n科目一\n租房\n自助餐\n英语\n词句\n词语\n诗\n诗句\n诗词\n贴吧\n转让\n退票\n邮编\n钥匙圈\n集团\n骗\n鸡\n黄牛","negQuery":"","exbudget":0,"id":100851079,"level":2},{"userId":15092483,"showNum":0,"clickNum":0,"convertNum":0,"consume":0.00,"clickRatio":"0.00%","cpc":"0.00","convertRatio":0.0,"planId":100851080,"planName":"门票团购_华东_exact测异步专用","isPaused":1,"frontState":0,"isPromotionAbnormal":false,"budget":10.0,"budgetUnlimited":false,"ideaShowMode":0,"period":"100-124;200-224;300-324;400-424;500-524","region":"使用账户地域设置","useAccountRegion":1,"useAllRegion":0,"useIntentLocate":0,"ipBlack":"","negWord":"ppt\n上班\n丢了\n事故\n二手房\n传销\n住宿\n作文\n免税店\n兼职\n出事\n出租\n别墅\n医院\n句子\n后台\n员工\n图片\n天气\n好贵\n姓氏\n字\n安卓\n寄存\n寒假兼职\n寒假工\n小学\n工作\n带头人\n开光\n形容词\n心咒\n怎么读\n总经理\n总裁\n愿经\n房价\n房子\n房源\n手机店\n护照\n报名\n押金\n抽奖\n拆迁\n招商\n招工\n招聘\n描写\n搬迁\n教师资格证\n教育局\n文章\n新闻\n楼盘\n歌曲\n死人\n浏览器\n涨价\n漫画\n烧烤\n爱奇艺\n电话\n科目一\n租房\n自助餐\n英语\n词句\n词语\n诗\n诗句\n诗词\n贴吧\n转让\n退票\n邮编\n钥匙圈\n集团\n骗\n鸡\n黄牛","negQuery":"","exbudget":0,"id":100851080,"level":2},{"userId":15092483,"showNum":0,"clickNum":0,"convertNum":0,"consume":0.00,"clickRatio":"0.00%","cpc":"0.00","convertRatio":0.0,"planId":100851082,"planName":"门票团购_华东_phrase测异步专用","isPaused":1,"frontState":0,"isPromotionAbnormal":false,"budget":10.0,"budgetUnlimited":false,"ideaShowMode":0,"period":"100-124;200-224;300-324;400-424;500-524","region":"使用账户地域设置","useAccountRegion":1,"useAllRegion":0,"useIntentLocate":0,"ipBlack":"","negWord":"ppt\n上班\n丢了\n事故\n二手房\n传销\n住宿\n作文\n免税店\n兼职\n出事\n出租\n别墅\n医院\n句子\n后台\n员工\n图片\n天气\n好贵\n姓氏\n字\n安卓\n寄存\n寒假兼职\n寒假工\n小学\n工作\n带头人\n开光\n形容词\n心咒\n怎么读\n总经理\n总裁\n愿经\n房价\n房子\n房源\n手机店\n护照\n报名\n押金\n抽奖\n拆迁\n招商\n招工\n招聘\n描写\n搬迁\n教师资格证\n教育局\n文章\n新闻\n楼盘\n歌曲\n死人\n浏览器\n涨价\n漫画\n烧烤\n爱奇艺\n电话\n科目一\n租房\n自助餐\n英语\n词句\n词语\n诗\n诗句\n诗词\n贴吧\n转让\n退票\n邮编\n钥匙圈\n集团\n骗\n鸡\n黄牛","negQuery":"","exbudget":0,"id":100851082,"level":2},{"userId":15092483,"showNum":0,"clickNum":0,"convertNum":0,"consume":0.00,"clickRatio":"0.00%","cpc":"0.00","convertRatio":0.0,"planId":100851115,"planName":"门票团购_华南2_exact测异步专用","isPaused":1,"frontState":0,"isPromotionAbnormal":false,"budget":10.0,"budgetUnlimited":false,"ideaShowMode":0,"period":"100-124;200-224;300-324;400-424;500-524","region":"使用账户地域设置","useAccountRegion":1,"useAllRegion":0,"useIntentLocate":0,"ipBlack":"","negWord":"ppt\n上班\n丢了\n事故\n二手房\n传销\n住宿\n作文\n免税店\n兼职\n出事\n出租\n别墅\n医院\n句子\n后台\n员工\n图片\n天气\n好贵\n姓氏\n字\n安卓\n寄存\n寒假兼职\n寒假工\n小学\n工作\n带头人\n开光\n形容词\n心咒\n怎么读\n总经理\n总裁\n愿经\n房价\n房子\n房源\n手机店\n护照\n报名\n押金\n抽奖\n拆迁\n招商\n招工\n招聘\n描写\n搬迁\n教师资格证\n教育局\n文章\n新闻\n楼盘\n歌曲\n死人\n浏览器\n涨价\n漫画\n烧烤\n爱奇艺\n电话\n科目一\n租房\n自助餐\n英语\n词句\n词语\n诗\n诗句\n诗词\n贴吧\n转让\n退票\n邮编\n钥匙圈\n集团\n骗\n鸡\n黄牛","negQuery":"","exbudget":0,"id":100851115,"level":2}]},"success":true}