{"status":0,"data":{"pageQuery":{"ascend":false,"totalSize":144,"pageSize":20,"currentPage":1,"totalPage":8,"firstResult":0,"isQueryAll":false},"list":[{"userId":15092483,"frequence":0,"state":0,"mailbox":"wb-sxh186717@alibaba-inc.com","title":"2017-05-02~2017-05-08 的高级创意-猎户","creatorName":"平台测试","createTime":"2017-05-09 20:58","id":6804},{"userId":15092483,"frequence":0,"state":0,"mailbox":"linkwisdom@qq.com","title":"xxx测试","creatorName":"平台测试","createTime":"2017-04-27 16:12","id":6615},{"userId":15092483,"frequence":2,"state":1,"mailbox":"yunyun.nyy@alibaba-inc.com","title":"每周分日单元报告","creatorName":"平台测试","createTime":"2017-04-18 23:31","id":6519},{"userId":15092483,"frequence":2,"state":1,"mailbox":"yunyun.nyy@alibaba-inc.com","title":"每周分周账户报告","creatorName":"平台测试","createTime":"2017-04-18 23:13","id":6518},{"userId":15092483,"frequence":0,"state":0,"mailbox":"yunyun.nyy@alibaba-inc.com","title":"2017-04-11~2017-04-17 的账户报告","creatorName":"平台测试","createTime":"2017-04-18 23:11","id":6516},{"userId":15092483,"frequence":0,"state":0,"mailbox":"yunyun.nyy@alibaba-inc.com","title":"2017-04-10~2017-04-16 的账户报告","creatorName":"平台测试","createTime":"2017-04-17 22:22","id":6506},{"userId":15092483,"frequence":0,"state":0,"mailbox":"wb-sxh186717@alibaba-inc.com","title":"dsf","creatorName":"平台测试","createTime":"2017-03-28 20:28","id":6243},{"userId":15092483,"frequence":0,"state":0,"mailbox":"wb-ly260641@alibaba-inc.com","title":"阿斯顿","creatorName":"平台测试","createTime":"2017-03-07 20:11","id":5924},{"userId":15092483,"frequence":0,"state":0,"mailbox":"wb-ly260641@alibaba-inc.com","title":"2017-02-01~2017-02-28 的账户报告","creatorName":"平台测试","createTime":"2017-03-07 10:59","id":5915},{"userId":15092483,"frequence":0,"state":0,"mailbox":"wb-ly260641@alibaba-inc.com","title":"2017-02-13~2017-02-13 的账户报告","creatorName":"平台测试","createTime":"2017-02-14 19:17","id":4215},{"userId":15092483,"frequence":0,"state":0,"mailbox":"wb-ly260641@alibaba-inc.com","title":"2017-02-07~2017-02-13 的账户报告","creatorName":"平台测试","createTime":"2017-02-14 19:17","id":4214},{"userId":15092483,"frequence":0,"state":0,"mailbox":"wb-ly260641@alibaba-inc.com","title":"2017-01-01~2017-01-31 的单元报告","creatorName":"平台测试","createTime":"2017-02-14 19:16","id":4211},{"userId":15092483,"frequence":0,"state":0,"mailbox":"wb-ly260641@alibaba-inc.com","title":"2017-01-01~2017-01-31 的计划报告","creatorName":"平台测试","createTime":"2017-02-14 19:16","id":4210},{"userId":15092483,"frequence":0,"state":0,"mailbox":"wb-ly260641@alibaba-inc.com","title":"2017-02-07~2017-02-13 的账户报告","creatorName":"平台测试","createTime":"2017-02-14 19:16","id":4209},{"userId":15092483,"frequence":0,"state":0,"mailbox":"wb-ly260641@alibaba-inc.com","title":"2017-02-09~2017-02-09 的高级创意-产品详情","creatorName":"平台测试","createTime":"2017-02-10 14:17","id":4189},{"userId":15092483,"frequence":0,"state":0,"mailbox":"wb-ly260641@alibaba-inc.com","title":"2017-02-03~2017-02-09 的账户报告","creatorName":"平台测试","createTime":"2017-02-10 13:27","id":4187},{"userId":15092483,"frequence":0,"state":0,"mailbox":"wb-sxh186717@alibaba-inc.com","title":"2017-02-01~2017-02-08 的创意报告","creatorName":"平台测试","createTime":"2017-02-09 20:14","id":4168},{"userId":15092483,"frequence":0,"state":0,"mailbox":"wb-ly260641@alibaba-inc.com","title":"2017-01-01~2017-01-31 的高级创意-产品详情","creatorName":"平台测试","createTime":"2017-02-09 20:08","id":4163},{"userId":15092483,"frequence":0,"state":0,"mailbox":"wb-ly260641@alibaba-inc.com","title":"2017-02-02~2017-02-08 的高级创意-服务预订","creatorName":"平台测试","createTime":"2017-02-09 20:08","id":4162},{"userId":15092483,"frequence":0,"state":0,"mailbox":"wb-ly260641@alibaba-inc.com","title":"2017-02-02~2017-02-08 的高级创意-星云横幅","creatorName":"平台测试","createTime":"2017-02-09 20:07","id":4161}]},"success":true}