{"status":0,"data":{"queryCondition":{"totalSize":255,"pageSize":20,"currentPage":1,"totalPage":13,"firstResult":0,"isQueryAll":false},"target":{"isChart":false,"tip":"","reportInfo":{"userId":15092483,"startDate":1493568000000,"endDate":1495555200000,"sourceType":"Winfo","statInfos":[{"id":0,"userId":0,"userName":"平台测试","planId":100865762,"planName":"<div>aaa1111</div>","unitId":451399891,"unitName":"<div>111</div>","keywordId":11791181856,"keyword":"按时的英文","ideaId":0,"idea":"","title":"","desc":"","showurl":"","xijingId":0,"xiJing":"","appId":0,"appName":"","phoneId":0,"phoneName":"","timeStr":"2017-05-01","query":"","queryState":"Valid","showNum":7,"clickNum":0,"convertNum":0,"consume":0.0,"clickRatio":"0.00%","cpc":"0","convertRatio":0.0,"rank":"1.00"},{"id":0,"userId":0,"userName":"平台测试","planId":100865762,"planName":"<div>aaa1111</div>","unitId":451399891,"unitName":"<div>111</div>","keywordId":11913689706,"keyword":"aaaa","ideaId":0,"idea":"","title":"","desc":"","showurl":"","xijingId":0,"xiJing":"","appId":0,"appName":"","phoneId":0,"phoneName":"","timeStr":"2017-05-01","query":"","queryState":"Valid","showNum":110,"clickNum":7,"convertNum":0,"consume":11.56,"clickRatio":"6.36%","cpc":"1.65","convertRatio":0.0,"rank":"1.33"},{"id":0,"userId":0,"userName":"平台测试","planId":100865762,"planName":"<div>aaa1111</div>","unitId":451399891,"unitName":"<div>111</div>","keywordId":12077062557,"keyword":"123aaaa","ideaId":0,"idea":"","title":"","desc":"","showurl":"","xijingId":0,"xiJing":"","appId":0,"appName":"","phoneId":0,"phoneName":"","timeStr":"2017-05-01","query":"","queryState":"Valid","showNum":1,"clickNum":0,"convertNum":0,"consume":0.0,"clickRatio":"0.00%","cpc":"0","convertRatio":0.0,"rank":"1.00"},{"id":0,"userId":0,"userName":"平台测试","planId":100839462,"planName":"ly测试(勿删)","unitId":448973440,"unitName":"测试1","keywordId":12078416246,"keyword":"87aaaa","ideaId":0,"idea":"","title":"","desc":"","showurl":"","xijingId":0,"xiJing":"","appId":0,"appName":"","phoneId":0,"phoneName":"","timeStr":"2017-05-01","query":"","queryState":"Valid","showNum":339,"clickNum":9,"convertNum":0,"consume":15.93,"clickRatio":"2.65%","cpc":"1.77","convertRatio":0.0,"rank":"2.08"},{"id":0,"userId":0,"userName":"平台测试","planId":100865762,"planName":"<div>aaa1111</div>","unitId":451399891,"unitName":"<div>111</div>","keywordId":12080562680,"keyword":"www.07aaaa","ideaId":0,"idea":"","title":"","desc":"","showurl":"","xijingId":0,"xiJing":"","appId":0,"appName":"","phoneId":0,"phoneName":"","timeStr":"2017-05-01","query":"","queryState":"Valid","showNum":26,"clickNum":1,"convertNum":0,"consume":0.45,"clickRatio":"3.85%","cpc":"0.45","convertRatio":0.0,"rank":"1.00"},{"id":0,"userId":0,"userName":"平台测试","planId":100865762,"planName":"<div>aaa1111</div>","unitId":451399891,"unitName":"<div>111</div>","keywordId":12080575777,"keyword":"aaaa97.com","ideaId":0,"idea":"","title":"","desc":"","showurl":"","xijingId":0,"xiJing":"","appId":0,"appName":"","phoneId":0,"phoneName":"","timeStr":"2017-05-01","query":"","queryState":"Valid","showNum":10,"clickNum":0,"convertNum":0,"consume":0.0,"clickRatio":"0.00%","cpc":"0","convertRatio":0.0,"rank":"1.00"},{"id":0,"userId":0,"userName":"平台测试","planId":100839462,"planName":"ly测试(勿删)","unitId":448973440,"unitName":"测试1","keywordId":12109826929,"keyword":"客服","ideaId":0,"idea":"","title":"","desc":"","showurl":"","xijingId":0,"xiJing":"","appId":0,"appName":"","phoneId":0,"phoneName":"","timeStr":"2017-05-01","query":"","queryState":"Valid","showNum":88,"clickNum":3,"convertNum":0,"consume":1.35,"clickRatio":"3.41%","cpc":"0.45","convertRatio":0.0,"rank":"2.86"},{"id":0,"userId":0,"userName":"平台测试","planId":100859934,"planName":"oplog","unitId":451454272,"unitName":"测试","keywordId":12120380062,"keyword":"鲜花","ideaId":0,"idea":"","title":"","desc":"","showurl":"","xijingId":0,"xiJing":"","appId":0,"appName":"","phoneId":0,"phoneName":"","timeStr":"2017-05-01","query":"","queryState":"Valid","showNum":493,"clickNum":10,"convertNum":0,"consume":43.46,"clickRatio":"2.03%","cpc":"4.35","convertRatio":0.0,"rank":"3.57"},{"id":0,"userId":0,"userName":"平台测试","planId":100859934,"planName":"oplog","unitId":455525158,"unitName":"haobuhao","keywordId":12160000421,"keyword":"要求","ideaId":0,"idea":"","title":"","desc":"","showurl":"","xijingId":0,"xiJing":"","appId":0,"appName":"","phoneId":0,"phoneName":"","timeStr":"2017-05-01","query":"","queryState":"Valid","showNum":190,"clickNum":3,"convertNum":0,"consume":6.89,"clickRatio":"1.58%","cpc":"2.30","convertRatio":0.0,"rank":"1.57"},{"id":0,"userId":0,"userName":"平台测试","planId":100859934,"planName":"oplog","unitId":455525158,"unitName":"haobuhao","keywordId":12160000422,"keyword":"多","ideaId":0,"idea":"","title":"","desc":"","showurl":"","xijingId":0,"xiJing":"","appId":0,"appName":"","phoneId":0,"phoneName":"","timeStr":"2017-05-01","query":"","queryState":"Valid","showNum":1163,"clickNum":18,"convertNum":0,"consume":88.18,"clickRatio":"1.55%","cpc":"4.90","convertRatio":0.0,"rank":"1.17"},{"id":0,"userId":0,"userName":"平台测试","planId":100865762,"planName":"<div>aaa1111</div>","unitId":451399891,"unitName":"<div>111</div>","keywordId":11791181855,"keyword":"按时英文","ideaId":0,"idea":"","title":"","desc":"","showurl":"","xijingId":0,"xiJing":"","appId":0,"appName":"","phoneId":0,"phoneName":"","timeStr":"2017-05-02","query":"","queryState":"Valid","showNum":1,"clickNum":0,"convertNum":0,"consume":0.0,"clickRatio":"0.00%","cpc":"0","convertRatio":0.0,"rank":"1.00"},{"id":0,"userId":0,"userName":"平台测试","planId":100865762,"planName":"<div>aaa1111</div>","unitId":451399891,"unitName":"<div>111</div>","keywordId":11791181856,"keyword":"按时的英文","ideaId":0,"idea":"","title":"","desc":"","showurl":"","xijingId":0,"xiJing":"","appId":0,"appName":"","phoneId":0,"phoneName":"","timeStr":"2017-05-02","query":"","queryState":"Valid","showNum":24,"clickNum":0,"convertNum":0,"consume":0.0,"clickRatio":"0.00%","cpc":"0","convertRatio":0.0,"rank":"1.50"},{"id":0,"userId":0,"userName":"平台测试","planId":100865762,"planName":"<div>aaa1111</div>","unitId":451399891,"unitName":"<div>111</div>","keywordId":11913689706,"keyword":"aaaa","ideaId":0,"idea":"","title":"","desc":"","showurl":"","xijingId":0,"xiJing":"","appId":0,"appName":"","phoneId":0,"phoneName":"","timeStr":"2017-05-02","query":"","queryState":"Valid","showNum":116,"clickNum":2,"convertNum":0,"consume":3.03,"clickRatio":"1.72%","cpc":"1.52","convertRatio":0.0,"rank":"1.30"},{"id":0,"userId":0,"userName":"平台测试","planId":100865762,"planName":"<div>aaa1111</div>","unitId":451399891,"unitName":"<div>111</div>","keywordId":12077062557,"keyword":"123aaaa","ideaId":0,"idea":"","title":"","desc":"","showurl":"","xijingId":0,"xiJing":"","appId":0,"appName":"","phoneId":0,"phoneName":"","timeStr":"2017-05-02","query":"","queryState":"Valid","showNum":2,"clickNum":0,"convertNum":0,"consume":0.0,"clickRatio":"0.00%","cpc":"0","convertRatio":0.0,"rank":"4.00"},{"id":0,"userId":0,"userName":"平台测试","planId":100839462,"planName":"ly测试(勿删)","unitId":448973440,"unitName":"测试1","keywordId":12078416246,"keyword":"87aaaa","ideaId":0,"idea":"","title":"","desc":"","showurl":"","xijingId":0,"xiJing":"","appId":0,"appName":"","phoneId":0,"phoneName":"","timeStr":"2017-05-02","query":"","queryState":"Valid","showNum":113,"clickNum":2,"convertNum":0,"consume":2.77,"clickRatio":"1.77%","cpc":"1.39","convertRatio":0.0,"rank":"3.00"},{"id":0,"userId":0,"userName":"平台测试","planId":100865762,"planName":"<div>aaa1111</div>","unitId":451399891,"unitName":"<div>111</div>","keywordId":12080562680,"keyword":"www.07aaaa","ideaId":0,"idea":"","title":"","desc":"","showurl":"","xijingId":0,"xiJing":"","appId":0,"appName":"","phoneId":0,"phoneName":"","timeStr":"2017-05-02","query":"","queryState":"Valid","showNum":38,"clickNum":0,"convertNum":0,"consume":0.0,"clickRatio":"0.00%","cpc":"0","convertRatio":0.0,"rank":"1.00"},{"id":0,"userId":0,"userName":"平台测试","planId":100865762,"planName":"<div>aaa1111</div>","unitId":451399891,"unitName":"<div>111</div>","keywordId":12080575777,"keyword":"aaaa97.com","ideaId":0,"idea":"","title":"","desc":"","showurl":"","xijingId":0,"xiJing":"","appId":0,"appName":"","phoneId":0,"phoneName":"","timeStr":"2017-05-02","query":"","queryState":"Valid","showNum":10,"clickNum":0,"convertNum":0,"consume":0.0,"clickRatio":"0.00%","cpc":"0","convertRatio":0.0,"rank":"1.00"},{"id":0,"userId":0,"userName":"平台测试","planId":100865762,"planName":"<div>aaa1111</div>","unitId":451399891,"unitName":"<div>111</div>","keywordId":12085040102,"keyword":"为什么要按时吃药","ideaId":0,"idea":"","title":"","desc":"","showurl":"","xijingId":0,"xiJing":"","appId":0,"appName":"","phoneId":0,"phoneName":"","timeStr":"2017-05-02","query":"","queryState":"Valid","showNum":2,"clickNum":0,"convertNum":0,"consume":0.0,"clickRatio":"0.00%","cpc":"0","convertRatio":0.0,"rank":"1.00"},{"id":0,"userId":0,"userName":"平台测试","planId":100839462,"planName":"ly测试(勿删)","unitId":448973440,"unitName":"测试1","keywordId":12109826929,"keyword":"客服","ideaId":0,"idea":"","title":"","desc":"","showurl":"","xijingId":0,"xiJing":"","appId":0,"appName":"","phoneId":0,"phoneName":"","timeStr":"2017-05-02","query":"","queryState":"Valid","showNum":46,"clickNum":1,"convertNum":0,"consume":0.45,"clickRatio":"2.17%","cpc":"0.45","convertRatio":0.0,"rank":"2.29"},{"id":0,"userId":0,"userName":"平台测试","planId":100859934,"planName":"oplog","unitId":451454272,"unitName":"测试","keywordId":12120380062,"keyword":"鲜花","ideaId":0,"idea":"","title":"","desc":"","showurl":"","xijingId":0,"xiJing":"","appId":0,"appName":"","phoneId":0,"phoneName":"","timeStr":"2017-05-02","query":"","queryState":"Valid","showNum":121,"clickNum":4,"convertNum":0,"consume":15.8,"clickRatio":"3.31%","cpc":"3.95","convertRatio":0.0,"rank":"5.17"}],"summary":{"id":0,"userId":15092483,"userName":"","planId":0,"planName":"","unitId":0,"unitName":"","keywordId":0,"keyword":"","ideaId":0,"idea":"","title":"","desc":"","showurl":"","xijingId":0,"xiJing":"","appId":0,"appName":"","phoneId":0,"phoneName":"","timeStr":"2017-05-01~2017-05-24","query":"","queryState":"Valid","showNum":12631,"clickNum":213,"convertNum":0,"consume":974.76,"clickRatio":"1.69%","cpc":"4.58","convertRatio":0.0,"rank":"-"},"dataX":["2017-05-01","2017-05-02","2017-05-03","2017-05-04","2017-05-05","2017-05-06","2017-05-07","2017-05-08","2017-05-09","2017-05-10","2017-05-11","2017-05-12","2017-05-13","2017-05-14","2017-05-15","2017-05-16","2017-05-17","2017-05-18","2017-05-19","2017-05-20","2017-05-21","2017-05-22","2017-05-23","2017-05-24"],"totalRecord":255,"tip":""}}},"success":true}