{"status":0,"data":{"queryCondition":{"ascend":true,"totalSize":1254,"pageSize":20,"currentPage":6,"totalPage":63,"firstResult":100,"isQueryAll":false},"target":{"userId":15092483,"startDate":1496678400000,"endDate":1497196800000,"sourceType":"QueryLog","statInfos":[{"id":0,"userId":15092483,"userName":"平台测试","planId":101073760,"planName":"鹿晗>>>","unitId":460829881,"unitName":"测试1","keywordId":12161725840,"keyword":"36","ideaId":50000000148981388,"idea":"","title":"","desc":"","showurl":"","xijingId":0,"xiJing":"","appId":0,"appName":"","phoneId":0,"phoneName":"","timeStr":"2017-06-09","query":"^36:","queryState":"Valid","showNum":1,"clickNum":0,"convertNum":0,"consume":0.0,"clickRatio":"-","cpc":"-","convertRatio":0.0,"rank":"-","content":"{\"title\":\"{#region#}呼呼推广,让你找到客户\",\"pic_img\":\"http://image-ad.sm.cn/admaterial/idea_15092483_dc9dcbcc683725ec2adabce909eb7d0b2502bf2e.jpg\",\"desc1_text\":\"中小企业de营销方式\",\"desc2_text\":\"专注移动搜索营销\",\"desc3_text\":\"高效、优质、精准\",\"show_url\":\"e.sm.cn\",\"target_url\":\"https://e.sm.cn\",\"tel_phone\":\"4009008888\"}","styleType":10},{"id":0,"userId":15092483,"userName":"平台测试","planId":101073760,"planName":"鹿晗>>>","unitId":460829881,"unitName":"测试1","keywordId":12161725841,"keyword":"39","ideaId":50000000148981388,"idea":"","title":"","desc":"","showurl":"","xijingId":0,"xiJing":"","appId":0,"appName":"","phoneId":0,"phoneName":"","timeStr":"2017-06-09","query":"39","queryState":"IsKeyword","showNum":1,"clickNum":0,"convertNum":0,"consume":0.0,"clickRatio":"-","cpc":"-","convertRatio":0.0,"rank":"-","content":"{\"title\":\"{#region#}呼呼推广,让你找到客户\",\"pic_img\":\"http://image-ad.sm.cn/admaterial/idea_15092483_dc9dcbcc683725ec2adabce909eb7d0b2502bf2e.jpg\",\"desc1_text\":\"中小企业de营销方式\",\"desc2_text\":\"专注移动搜索营销\",\"desc3_text\":\"高效、优质、精准\",\"show_url\":\"e.sm.cn\",\"target_url\":\"https://e.sm.cn\",\"tel_phone\":\"4009008888\"}","styleType":10},{"id":0,"userId":15092483,"userName":"平台测试","planId":101073760,"planName":"鹿晗>>>","unitId":460829881,"unitName":"测试1","keywordId":12161725841,"keyword":"39","ideaId":50000000148981388,"idea":"","title":"","desc":"","showurl":"","xijingId":0,"xiJing":"","appId":0,"appName":"","phoneId":0,"phoneName":"","timeStr":"2017-06-09","query":"39健康","queryState":"Valid","showNum":2,"clickNum":0,"convertNum":0,"consume":0.0,"clickRatio":"-","cpc":"-","convertRatio":0.0,"rank":"-","content":"{\"title\":\"{#region#}呼呼推广,让你找到客户\",\"pic_img\":\"http://image-ad.sm.cn/admaterial/idea_15092483_dc9dcbcc683725ec2adabce909eb7d0b2502bf2e.jpg\",\"desc1_text\":\"中小企业de营销方式\",\"desc2_text\":\"专注移动搜索营销\",\"desc3_text\":\"高效、优质、精准\",\"show_url\":\"e.sm.cn\",\"target_url\":\"https://e.sm.cn\",\"tel_phone\":\"4009008888\"}","styleType":10},{"id":0,"userId":15092483,"userName":"平台测试","planId":101073760,"planName":"鹿晗>>>","unitId":460829881,"unitName":"测试1","keywordId":12161725841,"keyword":"39","ideaId":50000000148981388,"idea":"","title":"","desc":"","showurl":"","xijingId":0,"xiJing":"","appId":0,"appName":"","phoneId":0,"phoneName":"","timeStr":"2017-06-09","query":"39手机网","queryState":"Valid","showNum":4,"clickNum":1,"convertNum":0,"consume":10.02,"clickRatio":"-","cpc":"-","convertRatio":0.0,"rank":"-","content":"{\"title\":\"{#region#}呼呼推广,让你找到客户\",\"pic_img\":\"http://image-ad.sm.cn/admaterial/idea_15092483_dc9dcbcc683725ec2adabce909eb7d0b2502bf2e.jpg\",\"desc1_text\":\"中小企业de营销方式\",\"desc2_text\":\"专注移动搜索营销\",\"desc3_text\":\"高效、优质、精准\",\"show_url\":\"e.sm.cn\",\"target_url\":\"https://e.sm.cn\",\"tel_phone\":\"4009008888\"}","styleType":10},{"id":0,"userId":15092483,"userName":"平台测试","planId":101073760,"planName":"鹿晗>>>","unitId":460829881,"unitName":"测试1","keywordId":12639343603,"keyword":"是","ideaId":50000000148981388,"idea":"","title":"","desc":"","showurl":"","xijingId":0,"xiJing":"","appId":0,"appName":"","phoneId":0,"phoneName":"","timeStr":"2017-06-09","query":"是","queryState":"IsKeyword","showNum":37,"clickNum":0,"convertNum":0,"consume":0.0,"clickRatio":"-","cpc":"-","convertRatio":0.0,"rank":"-","content":"{\"title\":\"{#region#}呼呼推广,让你找到客户\",\"pic_img\":\"http://image-ad.sm.cn/admaterial/idea_15092483_dc9dcbcc683725ec2adabce909eb7d0b2502bf2e.jpg\",\"desc1_text\":\"中小企业de营销方式\",\"desc2_text\":\"专注移动搜索营销\",\"desc3_text\":\"高效、优质、精准\",\"show_url\":\"e.sm.cn\",\"target_url\":\"https://e.sm.cn\",\"tel_phone\":\"4009008888\"}","styleType":10},{"id":0,"userId":15092483,"userName":"平台测试","planId":101073760,"planName":"鹿晗>>>","unitId":460829881,"unitName":"测试1","keywordId":12639343603,"keyword":"是","ideaId":50000000148981388,"idea":"","title":"","desc":"","showurl":"","xijingId":0,"xiJing":"","appId":0,"appName":"","phoneId":0,"phoneName":"","timeStr":"2017-06-09","query":"是!'","queryState":"Valid","showNum":2,"clickNum":0,"convertNum":0,"consume":0.0,"clickRatio":"-","cpc":"-","convertRatio":0.0,"rank":"-","content":"{\"title\":\"{#region#}呼呼推广,让你找到客户\",\"pic_img\":\"http://image-ad.sm.cn/admaterial/idea_15092483_dc9dcbcc683725ec2adabce909eb7d0b2502bf2e.jpg\",\"desc1_text\":\"中小企业de营销方式\",\"desc2_text\":\"专注移动搜索营销\",\"desc3_text\":\"高效、优质、精准\",\"show_url\":\"e.sm.cn\",\"target_url\":\"https://e.sm.cn\",\"tel_phone\":\"4009008888\"}","styleType":10},{"id":0,"userId":15092483,"userName":"平台测试","planId":101073760,"planName":"鹿晗>>>","unitId":460829881,"unitName":"测试1","keywordId":12639343603,"keyword":"是","ideaId":50000000148981388,"idea":"","title":"","desc":"","showurl":"","xijingId":0,"xiJing":"","appId":0,"appName":"","phoneId":0,"phoneName":"","timeStr":"2017-06-09","query":"是,?","queryState":"Valid","showNum":2,"clickNum":0,"convertNum":0,"consume":0.0,"clickRatio":"-","cpc":"-","convertRatio":0.0,"rank":"-","content":"{\"title\":\"{#region#}呼呼推广,让你找到客户\",\"pic_img\":\"http://image-ad.sm.cn/admaterial/idea_15092483_dc9dcbcc683725ec2adabce909eb7d0b2502bf2e.jpg\",\"desc1_text\":\"中小企业de营销方式\",\"desc2_text\":\"专注移动搜索营销\",\"desc3_text\":\"高效、优质、精准\",\"show_url\":\"e.sm.cn\",\"target_url\":\"https://e.sm.cn\",\"tel_phone\":\"4009008888\"}","styleType":10},{"id":0,"userId":15092483,"userName":"平台测试","planId":101073760,"planName":"鹿晗>>>","unitId":460829881,"unitName":"测试1","keywordId":12821551655,"keyword":"是是是","ideaId":50000000148981388,"idea":"","title":"","desc":"","showurl":"","xijingId":0,"xiJing":"","appId":0,"appName":"","phoneId":0,"phoneName":"","timeStr":"2017-06-09","query":"!是是是","queryState":"Valid","showNum":2,"clickNum":0,"convertNum":0,"consume":0.0,"clickRatio":"-","cpc":"-","convertRatio":0.0,"rank":"-","content":"{\"title\":\"{#region#}呼呼推广,让你找到客户\",\"pic_img\":\"http://image-ad.sm.cn/admaterial/idea_15092483_dc9dcbcc683725ec2adabce909eb7d0b2502bf2e.jpg\",\"desc1_text\":\"中小企业de营销方式\",\"desc2_text\":\"专注移动搜索营销\",\"desc3_text\":\"高效、优质、精准\",\"show_url\":\"e.sm.cn\",\"target_url\":\"https://e.sm.cn\",\"tel_phone\":\"4009008888\"}","styleType":10},{"id":0,"userId":15092483,"userName":"平台测试","planId":101073760,"planName":"鹿晗>>>","unitId":460829881,"unitName":"测试1","keywordId":12161725793,"keyword":"11","ideaId":50000000149171978,"idea":"","title":"","desc":"","showurl":"","xijingId":0,"xiJing":"","appId":0,"appName":"","phoneId":0,"phoneName":"","timeStr":"2017-06-09","query":"11","queryState":"IsKeyword","showNum":1,"clickNum":0,"convertNum":0,"consume":0.0,"clickRatio":"-","cpc":"-","convertRatio":0.0,"rank":"-","content":"{\"title\":\"{#region#}fe推广,让你找到客户\",\"appname_h1\":\"sqdwe\",\"appdesc_text\":\"aerwedsadaxsaxzxa\",\"show_url\":\"e.sm.cn\",\"target_url\":\"https://e.sm.cn\",\"pic_img\":\"http://android-artworks.25pp.com/fs08/2017/06/09/9/110_610c1a2bc73bc08329e9741759a1d4f2_con.png\",\"androiddownload_url\":\"http://server.m.pp.cn/download/apk?appId=36557&ch_src=pm_hc&ch=default&md5=c350ebd618f70d62e7ac09bd0791cb25&custom=0&uc_param_str=frvecpeimintnidnut\",\"iosdownload_url\":\"http://itunes.apple.com/cn/app/id297368629?mt=8\"}","styleType":11},{"id":0,"userId":15092483,"userName":"平台测试","planId":101073760,"planName":"鹿晗>>>","unitId":460829881,"unitName":"测试1","keywordId":12161725795,"keyword":"8","ideaId":50000000149171978,"idea":"","title":"","desc":"","showurl":"","xijingId":0,"xiJing":"","appId":0,"appName":"","phoneId":0,"phoneName":"","timeStr":"2017-06-09","query":"8,","queryState":"Valid","showNum":2,"clickNum":0,"convertNum":0,"consume":0.0,"clickRatio":"-","cpc":"-","convertRatio":0.0,"rank":"-","content":"{\"title\":\"{#region#}fe推广,让你找到客户\",\"appname_h1\":\"sqdwe\",\"appdesc_text\":\"aerwedsadaxsaxzxa\",\"show_url\":\"e.sm.cn\",\"target_url\":\"https://e.sm.cn\",\"pic_img\":\"http://android-artworks.25pp.com/fs08/2017/06/09/9/110_610c1a2bc73bc08329e9741759a1d4f2_con.png\",\"androiddownload_url\":\"http://server.m.pp.cn/download/apk?appId=36557&ch_src=pm_hc&ch=default&md5=c350ebd618f70d62e7ac09bd0791cb25&custom=0&uc_param_str=frvecpeimintnidnut\",\"iosdownload_url\":\"http://itunes.apple.com/cn/app/id297368629?mt=8\"}","styleType":11},{"id":0,"userId":15092483,"userName":"平台测试","planId":101073760,"planName":"鹿晗>>>","unitId":460829881,"unitName":"测试1","keywordId":12161725795,"keyword":"8","ideaId":50000000149171978,"idea":"","title":"","desc":"","showurl":"","xijingId":0,"xiJing":"","appId":0,"appName":"","phoneId":0,"phoneName":"","timeStr":"2017-06-09","query":"”8","queryState":"Valid","showNum":2,"clickNum":0,"convertNum":0,"consume":0.0,"clickRatio":"-","cpc":"-","convertRatio":0.0,"rank":"-","content":"{\"title\":\"{#region#}fe推广,让你找到客户\",\"appname_h1\":\"sqdwe\",\"appdesc_text\":\"aerwedsadaxsaxzxa\",\"show_url\":\"e.sm.cn\",\"target_url\":\"https://e.sm.cn\",\"pic_img\":\"http://android-artworks.25pp.com/fs08/2017/06/09/9/110_610c1a2bc73bc08329e9741759a1d4f2_con.png\",\"androiddownload_url\":\"http://server.m.pp.cn/download/apk?appId=36557&ch_src=pm_hc&ch=default&md5=c350ebd618f70d62e7ac09bd0791cb25&custom=0&uc_param_str=frvecpeimintnidnut\",\"iosdownload_url\":\"http://itunes.apple.com/cn/app/id297368629?mt=8\"}","styleType":11},{"id":0,"userId":15092483,"userName":"平台测试","planId":101073760,"planName":"鹿晗>>>","unitId":460829881,"unitName":"测试1","keywordId":12161725805,"keyword":"4","ideaId":50000000149171978,"idea":"","title":"","desc":"","showurl":"","xijingId":0,"xiJing":"","appId":0,"appName":"","phoneId":0,"phoneName":"","timeStr":"2017-06-09","query":"çä»æ°ç¬¬4é¨","queryState":"Valid","showNum":2,"clickNum":0,"convertNum":0,"consume":0.0,"clickRatio":"-","cpc":"-","convertRatio":0.0,"rank":"-","content":"{\"title\":\"{#region#}fe推广,让你找到客户\",\"appname_h1\":\"sqdwe\",\"appdesc_text\":\"aerwedsadaxsaxzxa\",\"show_url\":\"e.sm.cn\",\"target_url\":\"https://e.sm.cn\",\"pic_img\":\"http://android-artworks.25pp.com/fs08/2017/06/09/9/110_610c1a2bc73bc08329e9741759a1d4f2_con.png\",\"androiddownload_url\":\"http://server.m.pp.cn/download/apk?appId=36557&ch_src=pm_hc&ch=default&md5=c350ebd618f70d62e7ac09bd0791cb25&custom=0&uc_param_str=frvecpeimintnidnut\",\"iosdownload_url\":\"http://itunes.apple.com/cn/app/id297368629?mt=8\"}","styleType":11},{"id":0,"userId":15092483,"userName":"平台测试","planId":101073760,"planName":"鹿晗>>>","unitId":460829881,"unitName":"测试1","keywordId":12161725810,"keyword":"26","ideaId":50000000149171978,"idea":"","title":"","desc":"","showurl":"","xijingId":0,"xiJing":"","appId":0,"appName":"","phoneId":0,"phoneName":"","timeStr":"2017-06-09","query":"26","queryState":"IsKeyword","showNum":4,"clickNum":0,"convertNum":0,"consume":0.0,"clickRatio":"-","cpc":"-","convertRatio":0.0,"rank":"-","content":"{\"title\":\"{#region#}fe推广,让你找到客户\",\"appname_h1\":\"sqdwe\",\"appdesc_text\":\"aerwedsadaxsaxzxa\",\"show_url\":\"e.sm.cn\",\"target_url\":\"https://e.sm.cn\",\"pic_img\":\"http://android-artworks.25pp.com/fs08/2017/06/09/9/110_610c1a2bc73bc08329e9741759a1d4f2_con.png\",\"androiddownload_url\":\"http://server.m.pp.cn/download/apk?appId=36557&ch_src=pm_hc&ch=default&md5=c350ebd618f70d62e7ac09bd0791cb25&custom=0&uc_param_str=frvecpeimintnidnut\",\"iosdownload_url\":\"http://itunes.apple.com/cn/app/id297368629?mt=8\"}","styleType":11},{"id":0,"userId":15092483,"userName":"平台测试","planId":101073760,"planName":"鹿晗>>>","unitId":460829881,"unitName":"测试1","keywordId":12161725811,"keyword":"2","ideaId":50000000149171978,"idea":"","title":"","desc":"","showurl":"","xijingId":0,"xiJing":"","appId":0,"appName":"","phoneId":0,"phoneName":"","timeStr":"2017-06-09","query":"。。2","queryState":"Valid","showNum":2,"clickNum":0,"convertNum":0,"consume":0.0,"clickRatio":"-","cpc":"-","convertRatio":0.0,"rank":"-","content":"{\"title\":\"{#region#}fe推广,让你找到客户\",\"appname_h1\":\"sqdwe\",\"appdesc_text\":\"aerwedsadaxsaxzxa\",\"show_url\":\"e.sm.cn\",\"target_url\":\"https://e.sm.cn\",\"pic_img\":\"http://android-artworks.25pp.com/fs08/2017/06/09/9/110_610c1a2bc73bc08329e9741759a1d4f2_con.png\",\"androiddownload_url\":\"http://server.m.pp.cn/download/apk?appId=36557&ch_src=pm_hc&ch=default&md5=c350ebd618f70d62e7ac09bd0791cb25&custom=0&uc_param_str=frvecpeimintnidnut\",\"iosdownload_url\":\"http://itunes.apple.com/cn/app/id297368629?mt=8\"}","styleType":11},{"id":0,"userId":15092483,"userName":"平台测试","planId":101073760,"planName":"鹿晗>>>","unitId":460829881,"unitName":"测试1","keywordId":12161725816,"keyword":"30","ideaId":50000000149171978,"idea":"","title":"","desc":"","showurl":"","xijingId":0,"xiJing":"","appId":0,"appName":"","phoneId":0,"phoneName":"","timeStr":"2017-06-09","query":"?+?+?=30","queryState":"Valid","showNum":1,"clickNum":0,"convertNum":0,"consume":0.0,"clickRatio":"-","cpc":"-","convertRatio":0.0,"rank":"-","content":"{\"title\":\"{#region#}fe推广,让你找到客户\",\"appname_h1\":\"sqdwe\",\"appdesc_text\":\"aerwedsadaxsaxzxa\",\"show_url\":\"e.sm.cn\",\"target_url\":\"https://e.sm.cn\",\"pic_img\":\"http://android-artworks.25pp.com/fs08/2017/06/09/9/110_610c1a2bc73bc08329e9741759a1d4f2_con.png\",\"androiddownload_url\":\"http://server.m.pp.cn/download/apk?appId=36557&ch_src=pm_hc&ch=default&md5=c350ebd618f70d62e7ac09bd0791cb25&custom=0&uc_param_str=frvecpeimintnidnut\",\"iosdownload_url\":\"http://itunes.apple.com/cn/app/id297368629?mt=8\"}","styleType":11},{"id":0,"userId":15092483,"userName":"平台测试","planId":101073760,"planName":"鹿晗>>>","unitId":460829881,"unitName":"测试1","keywordId":12161725824,"keyword":"19","ideaId":50000000149171978,"idea":"","title":"","desc":"","showurl":"","xijingId":0,"xiJing":"","appId":0,"appName":"","phoneId":0,"phoneName":"","timeStr":"2017-06-09","query":"19","queryState":"IsKeyword","showNum":1,"clickNum":0,"convertNum":0,"consume":0.0,"clickRatio":"-","cpc":"-","convertRatio":0.0,"rank":"-","content":"{\"title\":\"{#region#}fe推广,让你找到客户\",\"appname_h1\":\"sqdwe\",\"appdesc_text\":\"aerwedsadaxsaxzxa\",\"show_url\":\"e.sm.cn\",\"target_url\":\"https://e.sm.cn\",\"pic_img\":\"http://android-artworks.25pp.com/fs08/2017/06/09/9/110_610c1a2bc73bc08329e9741759a1d4f2_con.png\",\"androiddownload_url\":\"http://server.m.pp.cn/download/apk?appId=36557&ch_src=pm_hc&ch=default&md5=c350ebd618f70d62e7ac09bd0791cb25&custom=0&uc_param_str=frvecpeimintnidnut\",\"iosdownload_url\":\"http://itunes.apple.com/cn/app/id297368629?mt=8\"}","styleType":11},{"id":0,"userId":15092483,"userName":"平台测试","planId":101073760,"planName":"鹿晗>>>","unitId":460829881,"unitName":"测试1","keywordId":12161725827,"keyword":"15","ideaId":50000000149171978,"idea":"","title":"","desc":"","showurl":"","xijingId":0,"xiJing":"","appId":0,"appName":"","phoneId":0,"phoneName":"","timeStr":"2017-06-09","query":"1+5","queryState":"Valid","showNum":2,"clickNum":0,"convertNum":0,"consume":0.0,"clickRatio":"-","cpc":"-","convertRatio":0.0,"rank":"-","content":"{\"title\":\"{#region#}fe推广,让你找到客户\",\"appname_h1\":\"sqdwe\",\"appdesc_text\":\"aerwedsadaxsaxzxa\",\"show_url\":\"e.sm.cn\",\"target_url\":\"https://e.sm.cn\",\"pic_img\":\"http://android-artworks.25pp.com/fs08/2017/06/09/9/110_610c1a2bc73bc08329e9741759a1d4f2_con.png\",\"androiddownload_url\":\"http://server.m.pp.cn/download/apk?appId=36557&ch_src=pm_hc&ch=default&md5=c350ebd618f70d62e7ac09bd0791cb25&custom=0&uc_param_str=frvecpeimintnidnut\",\"iosdownload_url\":\"http://itunes.apple.com/cn/app/id297368629?mt=8\"}","styleType":11},{"id":0,"userId":15092483,"userName":"平台测试","planId":101073760,"planName":"鹿晗>>>","unitId":460829881,"unitName":"测试1","keywordId":12161725837,"keyword":"14","ideaId":50000000149171978,"idea":"","title":"","desc":"","showurl":"","xijingId":0,"xiJing":"","appId":0,"appName":"","phoneId":0,"phoneName":"","timeStr":"2017-06-09","query":"?@.14","queryState":"Valid","showNum":1,"clickNum":0,"convertNum":0,"consume":0.0,"clickRatio":"-","cpc":"-","convertRatio":0.0,"rank":"-","content":"{\"title\":\"{#region#}fe推广,让你找到客户\",\"appname_h1\":\"sqdwe\",\"appdesc_text\":\"aerwedsadaxsaxzxa\",\"show_url\":\"e.sm.cn\",\"target_url\":\"https://e.sm.cn\",\"pic_img\":\"http://android-artworks.25pp.com/fs08/2017/06/09/9/110_610c1a2bc73bc08329e9741759a1d4f2_con.png\",\"androiddownload_url\":\"http://server.m.pp.cn/download/apk?appId=36557&ch_src=pm_hc&ch=default&md5=c350ebd618f70d62e7ac09bd0791cb25&custom=0&uc_param_str=frvecpeimintnidnut\",\"iosdownload_url\":\"http://itunes.apple.com/cn/app/id297368629?mt=8\"}","styleType":11},{"id":0,"userId":15092483,"userName":"平台测试","planId":101073760,"planName":"鹿晗>>>","unitId":460829881,"unitName":"测试1","keywordId":12161725837,"keyword":"14","ideaId":50000000149171978,"idea":"","title":"","desc":"","showurl":"","xijingId":0,"xiJing":"","appId":0,"appName":"","phoneId":0,"phoneName":"","timeStr":"2017-06-09","query":"سېرقكىنو14چ","queryState":"Valid","showNum":1,"clickNum":0,"convertNum":0,"consume":0.0,"clickRatio":"-","cpc":"-","convertRatio":0.0,"rank":"-","content":"{\"title\":\"{#region#}fe推广,让你找到客户\",\"appname_h1\":\"sqdwe\",\"appdesc_text\":\"aerwedsadaxsaxzxa\",\"show_url\":\"e.sm.cn\",\"target_url\":\"https://e.sm.cn\",\"pic_img\":\"http://android-artworks.25pp.com/fs08/2017/06/09/9/110_610c1a2bc73bc08329e9741759a1d4f2_con.png\",\"androiddownload_url\":\"http://server.m.pp.cn/download/apk?appId=36557&ch_src=pm_hc&ch=default&md5=c350ebd618f70d62e7ac09bd0791cb25&custom=0&uc_param_str=frvecpeimintnidnut\",\"iosdownload_url\":\"http://itunes.apple.com/cn/app/id297368629?mt=8\"}","styleType":11},{"id":0,"userId":15092483,"userName":"平台测试","planId":101073760,"planName":"鹿晗>>>","unitId":460829881,"unitName":"测试1","keywordId":12161725840,"keyword":"36","ideaId":50000000149171978,"idea":"","title":"","desc":"","showurl":"","xijingId":0,"xiJing":"","appId":0,"appName":"","phoneId":0,"phoneName":"","timeStr":"2017-06-09","query":"36","queryState":"IsKeyword","showNum":3,"clickNum":1,"convertNum":0,"consume":5.37,"clickRatio":"-","cpc":"-","convertRatio":0.0,"rank":"-","content":"{\"title\":\"{#region#}fe推广,让你找到客户\",\"appname_h1\":\"sqdwe\",\"appdesc_text\":\"aerwedsadaxsaxzxa\",\"show_url\":\"e.sm.cn\",\"target_url\":\"https://e.sm.cn\",\"pic_img\":\"http://android-artworks.25pp.com/fs08/2017/06/09/9/110_610c1a2bc73bc08329e9741759a1d4f2_con.png\",\"androiddownload_url\":\"http://server.m.pp.cn/download/apk?appId=36557&ch_src=pm_hc&ch=default&md5=c350ebd618f70d62e7ac09bd0791cb25&custom=0&uc_param_str=frvecpeimintnidnut\",\"iosdownload_url\":\"http://itunes.apple.com/cn/app/id297368629?mt=8\"}","styleType":11}],"dataX":[],"totalRecord":1254,"tip":""}},"success":true}