{"status":0,"data":{"queryCondition":{"ascend":false,"totalSize":9564,"pageSize":20,"currentPage":1,"totalPage":479,"firstResult":0,"isQueryAll":false},"target":[{"userId":15092483,"showNum":0,"clickNum":0,"convertNum":0,"consume":0.00,"clickRatio":"0.00%","cpc":"0.00","convertRatio":0.0,"planId":101570637,"planName":"20170623-test-fff","isPaused":0,"reviewState":0,"frontState":7,"isPromotionAbnormal":true,"unitId":484529713,"unitName":"test_unit_2","planIsDelete":0,"unitIsDelete":0,"winfoId":13965501819,"showWord":"啤酒的功效","wmatch":2,"bid":0.45,"url":"","showq":3,"rank":"-","keyWinfo":false,"ding":false,"id":13965501819,"level":4},{"userId":15092483,"showNum":0,"clickNum":0,"convertNum":0,"consume":0.00,"clickRatio":"0.00%","cpc":"0.00","convertRatio":0.0,"planId":101570637,"planName":"20170623-test-fff","isPaused":0,"reviewState":0,"frontState":7,"isPromotionAbnormal":true,"unitId":484529713,"unitName":"test_unit_2","planIsDelete":0,"unitIsDelete":0,"winfoId":13965501820,"showWord":"奥古特啤酒","wmatch":2,"bid":0.45,"url":"","showq":4,"rank":"-","keyWinfo":false,"ding":false,"id":13965501820,"level":4},{"userId":15092483,"showNum":0,"clickNum":0,"convertNum":0,"consume":0.00,"clickRatio":"0.00%","cpc":"0.00","convertRatio":0.0,"planId":101570637,"planName":"20170623-test-fff","isPaused":0,"reviewState":0,"frontState":7,"isPromotionAbnormal":true,"unitId":484529713,"unitName":"test_unit_2","planIsDelete":0,"unitIsDelete":0,"winfoId":13965501821,"showWord":"啤酒功效","wmatch":0,"bid":0.86,"url":"","showq":3,"rank":"-","keyWinfo":false,"ding":false,"id":13965501821,"level":4},{"userId":15092483,"showNum":0,"clickNum":0,"convertNum":0,"consume":0.00,"clickRatio":"0.00%","cpc":"0.00","convertRatio":0.0,"planId":101570637,"planName":"20170623-test-fff","isPaused":0,"reviewState":0,"frontState":7,"isPromotionAbnormal":true,"unitId":484529713,"unitName":"test_unit_2","planIsDelete":0,"unitIsDelete":0,"winfoId":13965501822,"showWord":"啤酒的功效与作用","wmatch":2,"bid":0.84,"url":"","showq":3,"rank":"-","keyWinfo":false,"ding":false,"id":13965501822,"level":4},{"userId":15092483,"showNum":0,"clickNum":0,"convertNum":0,"consume":0.00,"clickRatio":"0.00%","cpc":"0.00","convertRatio":0.0,"planId":101570637,"planName":"20170623-test-fff","isPaused":0,"reviewState":0,"frontState":7,"isPromotionAbnormal":true,"unitId":484529713,"unitName":"test_unit_2","planIsDelete":0,"unitIsDelete":0,"winfoId":13965501823,"showWord":"德国啤酒图片","wmatch":2,"bid":0.45,"url":"","showq":4,"rank":"-","keyWinfo":false,"ding":false,"id":13965501823,"level":4},{"userId":15092483,"showNum":0,"clickNum":0,"convertNum":0,"consume":0.00,"clickRatio":"0.00%","cpc":"0.00","convertRatio":0.0,"planId":101570637,"planName":"20170623-test-fff","isPaused":0,"reviewState":0,"frontState":7,"isPromotionAbnormal":true,"unitId":484529713,"unitName":"test_unit_2","planIsDelete":0,"unitIsDelete":0,"winfoId":13965501824,"showWord":"啤酒杯","wmatch":2,"bid":0.45,"url":"","showq":3,"rank":"-","keyWinfo":false,"ding":false,"id":13965501824,"level":4},{"userId":15092483,"showNum":0,"clickNum":0,"convertNum":0,"consume":0.00,"clickRatio":"0.00%","cpc":"0.00","convertRatio":0.0,"planId":101570637,"planName":"20170623-test-fff","isPaused":0,"reviewState":0,"frontState":7,"isPromotionAbnormal":true,"unitId":484529713,"unitName":"test_unit_2","planIsDelete":0,"unitIsDelete":0,"winfoId":13965501825,"showWord":"梦见啤酒","wmatch":1,"bid":0.45,"url":"","showq":2,"rank":"-","keyWinfo":false,"ding":false,"id":13965501825,"level":4},{"userId":15092483,"showNum":0,"clickNum":0,"convertNum":0,"consume":0.00,"clickRatio":"0.00%","cpc":"0.00","convertRatio":0.0,"planId":101570637,"planName":"20170623-test-fff","isPaused":0,"reviewState":0,"frontState":7,"isPromotionAbnormal":true,"unitId":484529713,"unitName":"test_unit_2","planIsDelete":0,"unitIsDelete":0,"winfoId":13965501826,"showWord":"啤酒花","wmatch":2,"bid":1.54,"url":"","showq":2,"rank":"-","keyWinfo":false,"ding":false,"id":13965501826,"level":4},{"userId":15092483,"showNum":0,"clickNum":0,"convertNum":0,"consume":0.00,"clickRatio":"0.00%","cpc":"0.00","convertRatio":0.0,"planId":101570637,"planName":"20170623-test-fff","isPaused":0,"reviewState":0,"frontState":7,"isPromotionAbnormal":true,"unitId":484529713,"unitName":"test_unit_2","planIsDelete":0,"unitIsDelete":0,"winfoId":13965501827,"showWord":"小瓶啤酒批发","wmatch":0,"bid":0.88,"url":"","showq":4,"rank":"-","keyWinfo":false,"ding":false,"id":13965501827,"level":4},{"userId":15092483,"showNum":0,"clickNum":0,"convertNum":0,"consume":0.00,"clickRatio":"0.00%","cpc":"0.00","convertRatio":0.0,"planId":101570637,"planName":"20170623-test-fff","isPaused":0,"reviewState":0,"frontState":7,"isPromotionAbnormal":true,"unitId":484529713,"unitName":"test_unit_2","planIsDelete":0,"unitIsDelete":0,"winfoId":13965501828,"showWord":"德国黑啤哪个牌子好","wmatch":2,"bid":0.45,"url":"","showq":3,"rank":"-","keyWinfo":false,"ding":false,"id":13965501828,"level":4},{"userId":15092483,"showNum":0,"clickNum":0,"convertNum":0,"consume":0.00,"clickRatio":"0.00%","cpc":"0.00","convertRatio":0.0,"planId":101570637,"planName":"20170623-test-fff","isPaused":0,"reviewState":0,"frontState":7,"isPromotionAbnormal":true,"unitId":484529713,"unitName":"test_unit_2","planIsDelete":0,"unitIsDelete":0,"winfoId":13965501829,"showWord":"啤酒减肥","wmatch":2,"bid":0.85,"url":"","showq":4,"rank":"-","keyWinfo":false,"ding":false,"id":13965501829,"level":4},{"userId":15092483,"showNum":0,"clickNum":0,"convertNum":0,"consume":0.00,"clickRatio":"0.00%","cpc":"0.00","convertRatio":0.0,"planId":101570637,"planName":"20170623-test-fff","isPaused":0,"reviewState":0,"frontState":7,"isPromotionAbnormal":true,"unitId":484529713,"unitName":"test_unit_2","planIsDelete":0,"unitIsDelete":0,"winfoId":13965501830,"showWord":"德国酒","wmatch":0,"bid":0.86,"url":"","showq":3,"rank":"-","keyWinfo":false,"ding":false,"id":13965501830,"level":4},{"userId":15092483,"showNum":0,"clickNum":0,"convertNum":0,"consume":0.00,"clickRatio":"0.00%","cpc":"0.00","convertRatio":0.0,"planId":101570637,"planName":"20170623-test-fff","isPaused":0,"reviewState":0,"frontState":7,"isPromotionAbnormal":true,"unitId":484529713,"unitName":"test_unit_2","planIsDelete":0,"unitIsDelete":0,"winfoId":13965501831,"showWord":"凯撒德国啤酒","wmatch":1,"bid":0.93,"url":"","showq":4,"rank":"-","keyWinfo":false,"ding":false,"id":13965501831,"level":4},{"userId":15092483,"showNum":0,"clickNum":0,"convertNum":0,"consume":0.00,"clickRatio":"0.00%","cpc":"0.00","convertRatio":0.0,"planId":101570637,"planName":"20170623-test-fff","isPaused":0,"reviewState":0,"frontState":7,"isPromotionAbnormal":true,"unitId":484529713,"unitName":"test_unit_2","planIsDelete":0,"unitIsDelete":0,"winfoId":13965501832,"showWord":"啤酒英文","wmatch":2,"bid":0.75,"url":"","showq":2,"rank":"-","keyWinfo":false,"ding":false,"id":13965501832,"level":4},{"userId":15092483,"showNum":0,"clickNum":0,"convertNum":0,"consume":0.00,"clickRatio":"0.00%","cpc":"0.00","convertRatio":0.0,"planId":101570637,"planName":"20170623-test-fff","isPaused":0,"reviewState":0,"frontState":7,"isPromotionAbnormal":true,"unitId":484529713,"unitName":"test_unit_2","planIsDelete":0,"unitIsDelete":0,"winfoId":13965501833,"showWord":"啤酒度","wmatch":0,"bid":0.92,"url":"","showq":2,"rank":"-","keyWinfo":false,"ding":false,"id":13965501833,"level":4},{"userId":15092483,"showNum":0,"clickNum":0,"convertNum":0,"consume":0.00,"clickRatio":"0.00%","cpc":"0.00","convertRatio":0.0,"planId":101570637,"planName":"20170623-test-fff","isPaused":0,"reviewState":0,"frontState":7,"isPromotionAbnormal":true,"unitId":484529713,"unitName":"test_unit_2","planIsDelete":0,"unitIsDelete":0,"winfoId":13965501834,"showWord":"波尔多干红葡萄酒","wmatch":2,"bid":0.45,"url":"","showq":3,"rank":"-","keyWinfo":false,"ding":false,"id":13965501834,"level":4},{"userId":15092483,"showNum":0,"clickNum":0,"convertNum":0,"consume":0.00,"clickRatio":"0.00%","cpc":"0.00","convertRatio":0.0,"planId":101570637,"planName":"20170623-test-fff","isPaused":0,"reviewState":0,"frontState":7,"isPromotionAbnormal":true,"unitId":484529713,"unitName":"test_unit_2","planIsDelete":0,"unitIsDelete":0,"winfoId":13965501835,"showWord":"国内啤酒品牌","wmatch":0,"bid":0.9,"url":"","showq":4,"rank":"-","keyWinfo":false,"ding":false,"id":13965501835,"level":4},{"userId":15092483,"showNum":0,"clickNum":0,"convertNum":0,"consume":0.00,"clickRatio":"0.00%","cpc":"0.00","convertRatio":0.0,"planId":101738041,"planName":"23333333333333","isPaused":0,"reviewState":0,"frontState":7,"isPromotionAbnormal":true,"unitId":492724047,"unitName":"阿萨德","planIsDelete":0,"unitIsDelete":0,"winfoId":13966009094,"showWord":"bf366","wmatch":2,"bid":0.73,"url":"","showq":3,"rank":"-","keyWinfo":false,"ding":false,"id":13966009094,"level":4},{"userId":15092483,"showNum":0,"clickNum":0,"convertNum":0,"consume":0.00,"clickRatio":"0.00%","cpc":"0.00","convertRatio":0.0,"planId":101738041,"planName":"23333333333333","isPaused":0,"reviewState":0,"frontState":7,"isPromotionAbnormal":true,"unitId":492724047,"unitName":"阿萨德","planIsDelete":0,"unitIsDelete":0,"winfoId":13966009095,"showWord":"bf516","wmatch":2,"bid":0.73,"url":"","showq":4,"rank":"-","keyWinfo":false,"ding":false,"id":13966009095,"level":4},{"userId":15092483,"showNum":0,"clickNum":0,"convertNum":0,"consume":0.00,"clickRatio":"0.00%","cpc":"0.00","convertRatio":0.0,"planId":101570637,"planName":"20170623-test-fff","isPaused":0,"reviewState":111,"frontState":1,"isPromotionAbnormal":false,"unitId":484529710,"unitName":"test_unit_1","planIsDelete":0,"unitIsDelete":0,"winfoId":14060602430,"showWord":"dd","wmatch":2,"bid":0.45,"url":"","showq":0,"rank":"-","keyWinfo":false,"ding":false,"id":14060602430,"level":4}]},"success":true}