{"status":0,"data":{"queryCondition":{"ascend":false,"totalSize":1145,"pageSize":20,"currentPage":1,"totalPage":58,"firstResult":0,"isQueryAll":false},"target":[{"userId":15092483,"content":"{\"1_subpath_text\":\"测试喽\",\"2_subpath_text\":\"测试喽\",\"3_subpath_text\":\"测试喽\",\"4_subpath_text\":\"测试喽\",\"1_subpath_url\":\"https://e.sm.cn\",\"2_subpath_url\":\"https://e.sm.cn\",\"3_subpath_url\":\"https://e.sm.cn\",\"4_subpath_url\":\"https://e.sm.cn\"}","showNum":0,"clickNum":0,"convertNum":0,"consume":0.00,"clickRatio":"0.00%","cpc":"0.00","convertRatio":0.0,"planId":100851079,"planName":"门票团购_华东2_exact测异步专用","isPaused":1,"reviewState":0,"frontState":0,"isPromotionAbnormal":false,"unitId":449420606,"unitName":"140725_浙江_宁波_四明山地质公","planIsDelete":0,"unitIsDelete":0,"id":229064176,"idStr":"229064176","styleType":1003,"level":17},{"userId":15092483,"content":"{\"1_subpath_text\":\"测试喽\",\"2_subpath_text\":\"测试喽\",\"3_subpath_text\":\"测试喽\",\"4_subpath_text\":\"测试喽\",\"1_subpath_url\":\"https://e.sm.cn\",\"2_subpath_url\":\"https://e.sm.cn\",\"3_subpath_url\":\"https://e.sm.cn\",\"4_subpath_url\":\"https://e.sm.cn\"}","showNum":0,"clickNum":0,"convertNum":0,"consume":0.00,"clickRatio":"0.00%","cpc":"0.00","convertRatio":0.0,"planId":100851079,"planName":"门票团购_华东2_exact测异步专用","isPaused":1,"reviewState":0,"frontState":0,"isPromotionAbnormal":false,"unitId":449420593,"unitName":"115547_江苏_苏州_大阳山国家森","planIsDelete":0,"unitIsDelete":0,"id":229064177,"idStr":"229064177","styleType":1003,"level":17},{"userId":15092483,"content":"{\"1_subpath_text\":\"测试喽\",\"2_subpath_text\":\"测试喽\",\"3_subpath_text\":\"测试喽\",\"4_subpath_text\":\"测试喽\",\"1_subpath_url\":\"https://e.sm.cn\",\"2_subpath_url\":\"https://e.sm.cn\",\"3_subpath_url\":\"https://e.sm.cn\",\"4_subpath_url\":\"https://e.sm.cn\"}","showNum":0,"clickNum":0,"convertNum":0,"consume":0.00,"clickRatio":"0.00%","cpc":"0.00","convertRatio":0.0,"planId":100851079,"planName":"门票团购_华东2_exact测异步专用","isPaused":1,"reviewState":0,"frontState":0,"isPromotionAbnormal":false,"unitId":449420592,"unitName":"110106_江苏_南京_甘家大院","planIsDelete":0,"unitIsDelete":0,"id":229064178,"idStr":"229064178","styleType":1003,"level":17},{"userId":15092483,"content":"{\"1_subpath_text\":\"测试喽\",\"2_subpath_text\":\"测试喽\",\"3_subpath_text\":\"测试喽\",\"4_subpath_text\":\"测试喽\",\"1_subpath_url\":\"https://e.sm.cn\",\"2_subpath_url\":\"https://e.sm.cn\",\"3_subpath_url\":\"https://e.sm.cn\",\"4_subpath_url\":\"https://e.sm.cn\"}","showNum":0,"clickNum":0,"convertNum":0,"consume":0.00,"clickRatio":"0.00%","cpc":"0.00","convertRatio":0.0,"planId":100851079,"planName":"门票团购_华东2_exact测异步专用","isPaused":1,"reviewState":0,"frontState":0,"isPromotionAbnormal":false,"unitId":449420595,"unitName":"134947_江苏_苏州_江南农耕文化","planIsDelete":0,"unitIsDelete":0,"id":229064179,"idStr":"229064179","styleType":1003,"level":17},{"userId":15092483,"content":"{\"1_subpath_text\":\"测试喽\",\"2_subpath_text\":\"测试喽\",\"3_subpath_text\":\"测试喽\",\"4_subpath_text\":\"测试喽\",\"1_subpath_url\":\"https://e.sm.cn\",\"2_subpath_url\":\"https://e.sm.cn\",\"3_subpath_url\":\"https://e.sm.cn\",\"4_subpath_url\":\"https://e.sm.cn\"}","showNum":0,"clickNum":0,"convertNum":0,"consume":0.00,"clickRatio":"0.00%","cpc":"0.00","convertRatio":0.0,"planId":100851079,"planName":"门票团购_华东2_exact测异步专用","isPaused":1,"reviewState":0,"frontState":0,"isPromotionAbnormal":false,"unitId":449420594,"unitName":"118130_浙江_绍兴_会稽山龙华寺","planIsDelete":0,"unitIsDelete":0,"id":229064180,"idStr":"229064180","styleType":1003,"level":17},{"userId":15092483,"content":"{\"1_subpath_text\":\"测试喽\",\"2_subpath_text\":\"测试喽\",\"3_subpath_text\":\"测试喽\",\"4_subpath_text\":\"测试喽\",\"1_subpath_url\":\"https://e.sm.cn\",\"2_subpath_url\":\"https://e.sm.cn\",\"3_subpath_url\":\"https://e.sm.cn\",\"4_subpath_url\":\"https://e.sm.cn\"}","showNum":0,"clickNum":0,"convertNum":0,"consume":0.00,"clickRatio":"0.00%","cpc":"0.00","convertRatio":0.0,"planId":100851079,"planName":"门票团购_华东2_exact测异步专用","isPaused":1,"reviewState":0,"frontState":0,"isPromotionAbnormal":false,"unitId":449420597,"unitName":"135676_浙江_宁波_慈溪五磊山景","planIsDelete":0,"unitIsDelete":0,"id":229064181,"idStr":"229064181","styleType":1003,"level":17},{"userId":15092483,"content":"{\"1_subpath_text\":\"测试喽\",\"2_subpath_text\":\"测试喽\",\"3_subpath_text\":\"测试喽\",\"4_subpath_text\":\"测试喽\",\"1_subpath_url\":\"https://e.sm.cn\",\"2_subpath_url\":\"https://e.sm.cn\",\"3_subpath_url\":\"https://e.sm.cn\",\"4_subpath_url\":\"https://e.sm.cn\"}","showNum":0,"clickNum":0,"convertNum":0,"consume":0.00,"clickRatio":"0.00%","cpc":"0.00","convertRatio":0.0,"planId":100851079,"planName":"门票团购_华东2_exact测异步专用","isPaused":1,"reviewState":0,"frontState":0,"isPromotionAbnormal":false,"unitId":449420596,"unitName":"135640_浙江_宁波_保国寺古建筑","planIsDelete":0,"unitIsDelete":0,"id":229064182,"idStr":"229064182","styleType":1003,"level":17},{"userId":15092483,"content":"{\"1_subpath_text\":\"测试喽\",\"2_subpath_text\":\"测试喽\",\"3_subpath_text\":\"测试喽\",\"4_subpath_text\":\"测试喽\",\"1_subpath_url\":\"https://e.sm.cn\",\"2_subpath_url\":\"https://e.sm.cn\",\"3_subpath_url\":\"https://e.sm.cn\",\"4_subpath_url\":\"https://e.sm.cn\"}","showNum":0,"clickNum":0,"convertNum":0,"consume":0.00,"clickRatio":"0.00%","cpc":"0.00","convertRatio":0.0,"planId":100851079,"planName":"门票团购_华东2_exact测异步专用","isPaused":1,"reviewState":0,"frontState":0,"isPromotionAbnormal":false,"unitId":449420599,"unitName":"135800_浙江_温州_雁荡山","planIsDelete":0,"unitIsDelete":0,"id":229064183,"idStr":"229064183","styleType":1003,"level":17},{"userId":15092483,"content":"{\"1_subpath_text\":\"测试喽\",\"2_subpath_text\":\"测试喽\",\"3_subpath_text\":\"测试喽\",\"4_subpath_text\":\"测试喽\",\"1_subpath_url\":\"https://e.sm.cn\",\"2_subpath_url\":\"https://e.sm.cn\",\"3_subpath_url\":\"https://e.sm.cn\",\"4_subpath_url\":\"https://e.sm.cn\"}","showNum":0,"clickNum":0,"convertNum":0,"consume":0.00,"clickRatio":"0.00%","cpc":"0.00","convertRatio":0.0,"planId":100851079,"planName":"门票团购_华东2_exact测异步专用","isPaused":1,"reviewState":0,"frontState":0,"isPromotionAbnormal":false,"unitId":449420598,"unitName":"135774_浙江_横店_明清宫苑景区","planIsDelete":0,"unitIsDelete":0,"id":229064184,"idStr":"229064184","styleType":1003,"level":17},{"userId":15092483,"content":"{\"1_subpath_text\":\"大师傅\",\"2_subpath_text\":\"广东省\",\"3_subpath_text\":\"小团子\",\"4_subpath_text\":\"阿斯\",\"1_subpath_url\":\"https://e.sm.cn\",\"2_subpath_url\":\"https://e.sm.cn\",\"3_subpath_url\":\"https://e.sm.cn\",\"4_subpath_url\":\"https://e.sm.cn\"}","showNum":0,"clickNum":0,"convertNum":0,"consume":0.00,"clickRatio":"0.00%","cpc":"0.00","convertRatio":0.0,"planId":101073760,"planName":"鹿晗>>>","isPaused":1,"reviewState":0,"frontState":0,"isPromotionAbnormal":false,"unitId":460829881,"unitName":"测试1","planIsDelete":0,"unitIsDelete":0,"id":232994164,"idStr":"232994164","styleType":1003,"level":17},{"userId":15092483,"content":"{\"1_subpath_text\":\"sdf\",\"2_subpath_text\":\"sdf\",\"3_subpath_text\":\"\",\"4_subpath_text\":\"\",\"1_subpath_url\":\"http://e.sm.cn\",\"2_subpath_url\":\"http://e.sm.cn\",\"3_subpath_url\":\"\",\"4_subpath_url\":\"\"}","showNum":0,"clickNum":0,"convertNum":0,"consume":0.00,"clickRatio":"0.00%","cpc":"0.00","convertRatio":0.0,"planId":101391049,"planName":"预发环境","isPaused":1,"reviewState":0,"frontState":0,"isPromotionAbnormal":false,"unitId":476145141,"unitName":"阿萨德","planIsDelete":0,"unitIsDelete":0,"id":238050166,"idStr":"238050166","styleType":1003,"level":17},{"userId":15092483,"content":"{\"1_subpath_text\":\"小团子\",\"2_subpath_text\":\"小团子\",\"3_subpath_text\":\"\",\"4_subpath_text\":\"\",\"1_subpath_url\":\"https://e.sm.cn\",\"2_subpath_url\":\"https://e.sm.cn\",\"3_subpath_url\":\"\",\"4_subpath_url\":\"\"}","showNum":0,"clickNum":0,"convertNum":0,"consume":0.00,"clickRatio":"0.00%","cpc":"0.00","convertRatio":0.0,"planId":101073760,"planName":"鹿晗>>>","isPaused":0,"reviewState":0,"frontState":5,"isPromotionAbnormal":true,"unitId":460829883,"unitName":"测试3","planIsDelete":0,"unitIsDelete":0,"id":238160865,"idStr":"238160865","styleType":1003,"level":17},{"userId":15092483,"content":"{\"1_subpath_text\":\"小团子\",\"2_subpath_text\":\"小团子\",\"3_subpath_text\":\"小团子\",\"4_subpath_text\":\"\",\"1_subpath_url\":\"https://e.sm.cn\",\"2_subpath_url\":\"https://e.sm.cn\",\"3_subpath_url\":\"https://e.sm.cn\",\"4_subpath_url\":\"\"}","showNum":0,"clickNum":0,"convertNum":0,"consume":0.00,"clickRatio":"0.00%","cpc":"0.00","convertRatio":0.0,"planId":101073760,"planName":"鹿晗>>>","isPaused":1,"reviewState":0,"frontState":0,"isPromotionAbnormal":false,"unitId":460829882,"unitName":"测试2","planIsDelete":0,"unitIsDelete":0,"id":238302904,"idStr":"238302904","styleType":1003,"level":17},{"userId":15092483,"content":"{\"1_subpath_text\":\"小团子\",\"2_subpath_text\":\"小团子\",\"3_subpath_text\":\"\",\"4_subpath_text\":\"小团子\",\"1_subpath_url\":\"https://e.sm.cn\",\"2_subpath_url\":\"https://e.sm.cn\",\"3_subpath_url\":\"\",\"4_subpath_url\":\"https://e.sm.cn\"}","showNum":0,"clickNum":0,"convertNum":0,"consume":0.00,"clickRatio":"0.00%","cpc":"0.00","convertRatio":0.0,"planId":101073760,"planName":"鹿晗>>>","isPaused":1,"reviewState":0,"frontState":0,"isPromotionAbnormal":false,"unitId":460829884,"unitName":"测试4","planIsDelete":0,"unitIsDelete":0,"id":238302905,"idStr":"238302905","styleType":1003,"level":17},{"userId":15092483,"content":"{\"1_subpath_text\":\"12344\",\"2_subpath_text\":\"444444444\",\"3_subpath_text\":\"4444444444555\",\"4_subpath_text\":\"5555\",\"1_subpath_url\":\"https://e.sm.cn\",\"2_subpath_url\":\"https://e.sm.cn\",\"3_subpath_url\":\"https://e.sm.cn\",\"4_subpath_url\":\"https://e.sm.cn\"}","showNum":0,"clickNum":0,"convertNum":0,"consume":0.00,"clickRatio":"0.00%","cpc":"0.00","convertRatio":0.0,"planId":101073760,"planName":"鹿晗>>>","isPaused":1,"reviewState":0,"frontState":0,"isPromotionAbnormal":false,"unitId":460829885,"unitName":"测试5","planIsDelete":0,"unitIsDelete":0,"id":238302906,"idStr":"238302906","styleType":1003,"level":17},{"userId":15092483,"content":"{\"1_subpath_text\":\"11111112222\",\"2_subpath_text\":\"22222222222\",\"3_subpath_text\":\"\",\"4_subpath_text\":\"\",\"1_subpath_url\":\"https://e.sm.cn\",\"2_subpath_url\":\"https://e.sm.cn\",\"3_subpath_url\":\"\",\"4_subpath_url\":\"\"}","showNum":0,"clickNum":0,"convertNum":0,"consume":0.00,"clickRatio":"0.00%","cpc":"0.00","convertRatio":0.0,"planId":101570637,"planName":"20170623-test-fff","isPaused":1,"reviewState":1200,"frontState":2,"isPromotionAbnormal":false,"unitId":484529710,"unitName":"test_unit_1","planIsDelete":0,"unitIsDelete":0,"id":240999127,"idStr":"240999127","styleType":1003,"level":17},{"userId":15092483,"content":"{\"1_subpath_text\":\"小团子\",\"2_subpath_text\":\"小团子\",\"3_subpath_text\":\"小团子\",\"4_subpath_text\":\"\",\"1_subpath_url\":\"https://e.sm.cn\",\"2_subpath_url\":\"https://e.sm.cn\",\"3_subpath_url\":\"https://e.sm.cn\",\"4_subpath_url\":\"\"}","showNum":0,"clickNum":0,"convertNum":0,"consume":0.00,"clickRatio":"0.00%","cpc":"0.00","convertRatio":0.0,"planId":101570637,"planName":"20170623-test-fff","isPaused":0,"reviewState":0,"frontState":5,"isPromotionAbnormal":true,"unitId":484529713,"unitName":"test_unit_2","planIsDelete":0,"unitIsDelete":0,"id":242555961,"idStr":"242555961","styleType":1003,"level":17},{"userId":15092483,"content":"{\"1_subpath_text\":\"小团子\",\"2_subpath_text\":\"小团子\",\"3_subpath_text\":\"\",\"4_subpath_text\":\"\",\"1_subpath_url\":\"https://e.sm.cn\",\"2_subpath_url\":\"https://e.sm.cn\",\"3_subpath_url\":\"\",\"4_subpath_url\":\"\"}","showNum":2,"clickNum":1,"convertNum":0,"consume":4.27,"clickRatio":"50.00%","cpc":"4.27","convertRatio":0.0,"planId":101073760,"planName":"鹿晗>>>","isPaused":0,"reviewState":0,"frontState":5,"isPromotionAbnormal":true,"unitId":488707502,"unitName":"UI优化","planIsDelete":0,"unitIsDelete":0,"id":242556201,"idStr":"242556201","styleType":1003,"level":17},{"userId":15092483,"content":"{\"1_subpath_text\":\"大师傅\",\"2_subpath_text\":\"噶啥的\",\"3_subpath_text\":\"\",\"4_subpath_text\":\"\",\"1_subpath_url\":\"https://e.sm.cn/asd\",\"2_subpath_url\":\"https://e.sm.cn/asd\",\"3_subpath_url\":\"\",\"4_subpath_url\":\"\"}","showNum":0,"clickNum":0,"convertNum":0,"consume":0.00,"clickRatio":"0.00%","cpc":"0.00","convertRatio":0.0,"planId":101708331,"planName":"newest","isPaused":0,"reviewState":1102,"frontState":2,"isPromotionAbnormal":false,"unitId":491456826,"unitName":"阿萨德","planIsDelete":0,"unitIsDelete":0,"id":243331723,"idStr":"243331723","styleType":1003,"level":17},{"userId":15092483,"content":"{\"1_subpath_text\":\"啥地方\",\"2_subpath_text\":\"啥地方\",\"3_subpath_text\":\"啥地方\",\"4_subpath_text\":\"\",\"1_subpath_url\":\"https://e.sm.cn/asd\",\"2_subpath_url\":\"https://e.sm.cn\",\"3_subpath_url\":\"https://e.sm.cn\",\"4_subpath_url\":\"\"}","showNum":0,"clickNum":0,"convertNum":0,"consume":0.00,"clickRatio":"0.00%","cpc":"0.00","convertRatio":0.0,"planId":101738041,"planName":"23333333333333","isPaused":0,"reviewState":1102,"frontState":2,"isPromotionAbnormal":false,"unitId":492724047,"unitName":"阿萨德","planIsDelete":0,"unitIsDelete":0,"id":243695025,"idStr":"243695025","styleType":1003,"level":17}]},"success":true}