{
    "status": 0,
    "data": {
        "queryCondition": {
            "ascend": false,
            "totalSize": 34380,
            "pageSize": 20,
            "currentPage": 1,
            "totalPage": 1719,
            "firstResult": 0,
            "isQueryAll": false
        },
        "target": [
            {
                "userId": 15092483,
                "showNum": 0,
                "clickNum": 0,
                "convertNum": 0,
                "consume": 0,
                "clickRatio": "0.00%",
                "cpc": "0.00",
                "convertRatio": 0,
                "planId": 100605152,
                "planName": "门票_上海迪士尼_phrase",
                "isPaused": 0,
                "frontState": 2,
                "wmatchFactor": "1.2:0.8:0.9",
                "isPromotionAbnormal": true,
                "unitId": 436244401,
                "unitName": "10043880_上海迪士尼狮子王_团购",
                "bid": 1,
                "negWord": "",
                "negQuery": "300c8狮子王\nshiziwang\n《狮子王》\n四子王\n打开狮子王\n狮子之王\n狮子王 2\n狮子王1中英百度云\n狮子王1百度云\n狮子王4\n狮子王mp3\n狮子王r18\n狮子王saber\n狮子王万驱\n狮子王义工\n狮子王价格\n狮子王名句\n狮子王文字版\n狮子王里面的猪叫什么\n狮子糖\n白色狮子王\n雪狮子王",
                "platform": "111",
                "id": 436244401,
                "level": 3
            },
            {
                "userId": 15092483,
                "showNum": 0,
                "clickNum": 0,
                "convertNum": 0,
                "consume": 0,
                "clickRatio": "0.00%",
                "cpc": "0.00",
                "convertRatio": 0,
                "planId": 100605152,
                "wmatchFactor": "1.1:0.8:0.6",
                "planName": "门票_上海迪士尼_phrase",
                "isPaused": 0,
                "frontState": 2,
                "isPromotionAbnormal": true,
                "unitId": 436244402,
                "unitName": "10043880_上海迪士尼狮子王_景点",
                "bid": 1,
                "negWord": "",
                "negQuery": "300c8狮子王\nshiziwang\n《狮子王》\n四子王\n打开狮子王\n狮子之王\n狮子王 2\n狮子王1中英百度云\n狮子王1百度云\n狮子王4\n狮子王mp3\n狮子王r18\n狮子王saber\n狮子王万驱\n狮子王义工\n狮子王价格\n狮子王名句\n狮子王文字版\n狮子王里面的猪叫什么\n狮子糖\n白色狮子王\n雪狮子王",
                "platform": "111",
                "id": 436244402,
                "level": 3
            },
            {
                "userId": 15092483,
                "showNum": 0,
                "clickNum": 0,
                "convertNum": 0,
                "consume": 0,
                "clickRatio": "0.00%",
                "cpc": "0.00",
                "convertRatio": 0,
                "planId": 100605152,
                "planName": "门票_上海迪士尼_phrase",
                "isPaused": 0,
                "frontState": 2,
                "isPromotionAbnormal": true,
                "unitId": 436244403,
                "unitName": "1412255_上海_迪士尼乐园_预订",
                "bid": 1,
                "negWord": "",
                "negQuery": "",
                "platform": "111",
                "id": 436244403,
                "level": 3
            },
            {
                "userId": 15092483,
                "showNum": 0,
                "clickNum": 0,
                "convertNum": 0,
                "consume": 0,
                "clickRatio": "0.00%",
                "cpc": "0.00",
                "convertRatio": 0,
                "planId": 100605152,
                "planName": "门票_上海迪士尼_phrase",
                "isPaused": 0,
                "frontState": 2,
                "isPromotionAbnormal": true,
                "unitId": 436244404,
                "unitName": "1412255_上海_迪士尼乐园_团购",
                "bid": 1,
                "negWord": "",
                "negQuery": "",
                "platform": "111",
                "id": 436244404,
                "level": 3
            },
            {
                "userId": 15092483,
                "showNum": 0,
                "clickNum": 0,
                "convertNum": 0,
                "consume": 0,
                "clickRatio": "0.00%",
                "cpc": "0.00",
                "convertRatio": 0,
                "planId": 100605152,
                "planName": "门票_上海迪士尼_phrase",
                "isPaused": 0,
                "frontState": 2,
                "isPromotionAbnormal": true,
                "unitId": 436244405,
                "unitName": "1412255_上海_迪士尼乐园_门票",
                "bid": 1,
                "negWord": "",
                "negQuery": "",
                "platform": "111",
                "id": 436244405,
                "level": 3
            },
            {
                "userId": 15092483,
                "showNum": 0,
                "clickNum": 0,
                "convertNum": 0,
                "consume": 0,
                "clickRatio": "0.00%",
                "cpc": "0.00",
                "convertRatio": 0,
                "planId": 100605152,
                "planName": "门票_上海迪士尼_phrase",
                "isPaused": 0,
                "frontState": 2,
                "isPromotionAbnormal": true,
                "unitId": 436244406,
                "unitName": "1412255_上海_迪士尼乐园_景点",
                "bid": 1,
                "negWord": "",
                "negQuery": "",
                "platform": "111",
                "id": 436244406,
                "level": 3
            },
            {
                "userId": 15092483,
                "showNum": 0,
                "clickNum": 0,
                "convertNum": 0,
                "consume": 0,
                "clickRatio": "0.00%",
                "cpc": "0.00",
                "convertRatio": 0,
                "planId": 100605152,
                "planName": "门票_上海迪士尼_phrase",
                "isPaused": 0,
                "frontState": 2,
                "isPromotionAbnormal": true,
                "unitId": 436244407,
                "unitName": "1412255_上海_迪士尼乐园_价格",
                "bid": 1,
                "negWord": "",
                "negQuery": "",
                "platform": "111",
                "id": 436244407,
                "level": 3
            },
            {
                "userId": 15092483,
                "showNum": 0,
                "clickNum": 0,
                "convertNum": 0,
                "consume": 0,
                "clickRatio": "0.00%",
                "cpc": "0.00",
                "convertRatio": 0,
                "planId": 100605152,
                "planName": "门票_上海迪士尼_phrase",
                "isPaused": 0,
                "frontState": 2,
                "isPromotionAbnormal": true,
                "unitId": 436244408,
                "unitName": "1412255_上海_迪士尼乐园_一日游",
                "bid": 1,
                "negWord": "",
                "negQuery": "",
                "platform": "111",
                "id": 436244408,
                "level": 3
            },
            {
                "userId": 15092483,
                "showNum": 0,
                "clickNum": 0,
                "convertNum": 0,
                "consume": 0,
                "clickRatio": "0.00%",
                "cpc": "0.00",
                "convertRatio": 0,
                "planId": 100605153,
                "planName": "门票_上海迪士尼_exact",
                "isPaused": 0,
                "frontState": 2,
                "isPromotionAbnormal": true,
                "unitId": 436244409,
                "unitName": "1412255_上海_迪士尼乐园_接送",
                "bid": 1,
                "negWord": "",
                "negQuery": "",
                "platform": "111",
                "id": 436244409,
                "level": 3
            },
            {
                "userId": 15092483,
                "showNum": 0,
                "clickNum": 0,
                "convertNum": 0,
                "consume": 0,
                "clickRatio": "0.00%",
                "cpc": "0.00",
                "convertRatio": 0,
                "planId": 100605153,
                "planName": "门票_上海迪士尼_exact",
                "isPaused": 0,
                "frontState": 2,
                "isPromotionAbnormal": true,
                "unitId": 436244410,
                "unitName": "10043880_上海迪士尼狮子王_门票",
                "bid": 1,
                "negWord": "",
                "negQuery": "300c8狮子王\nshiziwang\n《狮子王》\n四子王\n打开狮子王\n狮子之王\n狮子王 2\n狮子王1中英百度云\n狮子王1百度云\n狮子王4\n狮子王mp3\n狮子王r18\n狮子王saber\n狮子王万驱\n狮子王义工\n狮子王价格\n狮子王名句\n狮子王文字版\n狮子王里面的猪叫什么\n狮子糖\n白色狮子王\n雪狮子王",
                "platform": "111",
                "id": 436244410,
                "level": 3
            },
            {
                "userId": 15092483,
                "showNum": 0,
                "clickNum": 0,
                "convertNum": 0,
                "consume": 0,
                "clickRatio": "0.00%",
                "cpc": "0.00",
                "convertRatio": 0,
                "planId": 100605153,
                "planName": "门票_上海迪士尼_exact",
                "isPaused": 0,
                "frontState": 2,
                "isPromotionAbnormal": true,
                "unitId": 436244411,
                "unitName": "10043880_上海迪士尼狮子王_预订",
                "bid": 1,
                "negWord": "",
                "negQuery": "300c8狮子王\nshiziwang\n《狮子王》\n四子王\n打开狮子王\n狮子之王\n狮子王 2\n狮子王1中英百度云\n狮子王1百度云\n狮子王4\n狮子王mp3\n狮子王r18\n狮子王saber\n狮子王万驱\n狮子王义工\n狮子王价格\n狮子王名句\n狮子王文字版\n狮子王里面的猪叫什么\n狮子糖\n白色狮子王\n雪狮子王",
                "platform": "111",
                "id": 436244411,
                "level": 3
            },
            {
                "userId": 15092483,
                "showNum": 0,
                "clickNum": 0,
                "convertNum": 0,
                "consume": 0,
                "clickRatio": "0.00%",
                "cpc": "0.00",
                "convertRatio": 0,
                "planId": 100605153,
                "planName": "门票_上海迪士尼_exact",
                "isPaused": 0,
                "frontState": 2,
                "isPromotionAbnormal": true,
                "unitId": 436244412,
                "unitName": "10043880_上海迪士尼狮子王_团购",
                "bid": 1,
                "negWord": "",
                "negQuery": "300c8狮子王\nshiziwang\n《狮子王》\n四子王\n打开狮子王\n狮子之王\n狮子王 2\n狮子王1中英百度云\n狮子王1百度云\n狮子王4\n狮子王mp3\n狮子王r18\n狮子王saber\n狮子王万驱\n狮子王义工\n狮子王价格\n狮子王名句\n狮子王文字版\n狮子王里面的猪叫什么\n狮子糖\n白色狮子王\n雪狮子王",
                "platform": "111",
                "id": 436244412,
                "level": 3
            },
            {
                "userId": 15092483,
                "showNum": 0,
                "clickNum": 0,
                "convertNum": 0,
                "consume": 0,
                "clickRatio": "0.00%",
                "cpc": "0.00",
                "convertRatio": 0,
                "planId": 100605153,
                "planName": "门票_上海迪士尼_exact",
                "isPaused": 0,
                "frontState": 2,
                "isPromotionAbnormal": true,
                "unitId": 436244413,
                "unitName": "10043880_上海迪士尼狮子王_景点",
                "bid": 1,
                "negWord": "",
                "negQuery": "300c8狮子王\nshiziwang\n《狮子王》\n四子王\n打开狮子王\n狮子之王\n狮子王 2\n狮子王1中英百度云\n狮子王1百度云\n狮子王4\n狮子王mp3\n狮子王r18\n狮子王saber\n狮子王万驱\n狮子王义工\n狮子王价格\n狮子王名句\n狮子王文字版\n狮子王里面的猪叫什么\n狮子糖\n白色狮子王\n雪狮子王",
                "platform": "111",
                "id": 436244413,
                "level": 3
            },
            {
                "userId": 15092483,
                "showNum": 0,
                "clickNum": 0,
                "convertNum": 0,
                "consume": 0,
                "clickRatio": "0.00%",
                "cpc": "0.00",
                "convertRatio": 0,
                "planId": 100605153,
                "planName": "门票_上海迪士尼_exact",
                "isPaused": 0,
                "frontState": 2,
                "isPromotionAbnormal": true,
                "unitId": 436244414,
                "unitName": "1412255_上海_迪士尼乐园_预订",
                "bid": 1,
                "negWord": "",
                "negQuery": "",
                "platform": "111",
                "id": 436244414,
                "level": 3
            },
            {
                "userId": 15092483,
                "showNum": 0,
                "clickNum": 0,
                "convertNum": 0,
                "consume": 0,
                "clickRatio": "0.00%",
                "cpc": "0.00",
                "convertRatio": 0,
                "planId": 100605153,
                "planName": "门票_上海迪士尼_exact",
                "isPaused": 0,
                "frontState": 2,
                "isPromotionAbnormal": true,
                "unitId": 436244415,
                "unitName": "1412255_上海_迪士尼乐园_团购",
                "bid": 1,
                "negWord": "",
                "negQuery": "",
                "platform": "111",
                "id": 436244415,
                "level": 3
            },
            {
                "userId": 15092483,
                "showNum": 0,
                "clickNum": 0,
                "convertNum": 0,
                "consume": 0,
                "clickRatio": "0.00%",
                "cpc": "0.00",
                "convertRatio": 0,
                "planId": 100605153,
                "planName": "门票_上海迪士尼_exact",
                "isPaused": 0,
                "frontState": 2,
                "isPromotionAbnormal": true,
                "unitId": 436244416,
                "unitName": "1412255_上海_迪士尼乐园_门票",
                "bid": 1,
                "negWord": "",
                "negQuery": "",
                "platform": "111",
                "id": 436244416,
                "level": 3
            },
            {
                "userId": 15092483,
                "showNum": 0,
                "clickNum": 0,
                "convertNum": 0,
                "consume": 0,
                "clickRatio": "0.00%",
                "cpc": "0.00",
                "convertRatio": 0,
                "planId": 100605153,
                "planName": "门票_上海迪士尼_exact",
                "isPaused": 0,
                "frontState": 2,
                "isPromotionAbnormal": true,
                "unitId": 436244417,
                "unitName": "1412255_上海_迪士尼乐园_景点",
                "bid": 1,
                "negWord": "",
                "negQuery": "",
                "platform": "111",
                "id": 436244417,
                "level": 3
            },
            {
                "userId": 15092483,
                "showNum": 0,
                "clickNum": 0,
                "convertNum": 0,
                "consume": 0,
                "clickRatio": "0.00%",
                "cpc": "0.00",
                "convertRatio": 0,
                "planId": 100605153,
                "planName": "门票_上海迪士尼_exact",
                "isPaused": 0,
                "frontState": 2,
                "isPromotionAbnormal": true,
                "unitId": 436244418,
                "unitName": "1412255_上海_迪士尼乐园_价格",
                "bid": 1,
                "negWord": "",
                "negQuery": "",
                "platform": "111",
                "id": 436244418,
                "level": 3
            },
            {
                "userId": 15092483,
                "showNum": 0,
                "clickNum": 0,
                "convertNum": 0,
                "consume": 0,
                "clickRatio": "0.00%",
                "cpc": "0.00",
                "convertRatio": 0,
                "planId": 100605153,
                "planName": "门票_上海迪士尼_exact",
                "isPaused": 1,
                "frontState": 0,
                "isPromotionAbnormal": false,
                "unitId": 436244419,
                "unitName": "1412255_上海_迪士尼乐园_一日游",
                "bid": 1,
                "negWord": "",
                "negQuery": "",
                "platform": "111",
                "id": 436244419,
                "level": 3
            },
            {
                "userId": 15092483,
                "showNum": 0,
                "clickNum": 0,
                "convertNum": 0,
                "consume": 0,
                "clickRatio": "0.00%",
                "cpc": "0.00",
                "convertRatio": 0,
                "planId": 100605436,
                "planName": "02222029test",
                "isPaused": 0,
                "frontState": 2,
                "isPromotionAbnormal": true,
                "unitId": 436261988,
                "unitName": "阿萨德",
                "bid": 0.45,
                "negWord": "",
                "negQuery": "",
                "platform": "111",
                "id": 436261988,
                "level": 3
            }
        ]
    },
    "success": true
}